<?xml version="1.0" encoding="UTF-8"?>
<svg width="20px" height="37px" viewBox="0 0 20 37" version="1.1" xmlns="http://www.w3.org/2000/svg" xmlns:xlink="http://www.w3.org/1999/xlink">
    <!-- Generator: Sketch 46.2 (44496) - http://www.bohemiancoding.com/sketch -->
    <title>dollar-sign</title>
    <desc>Created with Sketch.</desc>
    <defs>
        <path d="M1039.44529,372.947822 C1039.44529,371.301615 1041.02522,370.237862 1043.47031,370.237862 C1045.43099,370.237862 1047.44039,371.102902 1049.07967,372.23649 C1049.51104,372.534806 1050.11628,372.402543 1050.36901,371.953128 L1052.09684,368.881154 C1052.29117,368.535646 1052.21392,368.105841 1051.90793,367.845617 C1050.12662,366.330616 1047.56965,365.440886 1045.21076,365.178757 L1045.21076,361.846488 C1045.21076,361.379015 1044.81659,361 1044.33041,361 L1041.39592,361 C1040.90975,361 1040.51558,361.379015 1040.51558,361.846488 L1040.51558,365.361669 C1036.21457,366.299154 1033.3775,369.306091 1033.3775,373.025134 C1033.3775,381.739232 1046.93228,380.841743 1046.93228,384.975707 C1046.93228,386.374035 1045.73567,387.879019 1043.10834,387.879019 C1040.85238,387.879019 1038.49151,386.758834 1036.66362,385.347527 C1036.27406,385.046742 1035.70389,385.113685 1035.40479,385.498484 L1033.17539,388.367161 C1032.9093,388.709565 1032.9498,389.189453 1033.2709,389.485018 C1035.03519,391.108864 1037.61755,392.395173 1040.5155,392.869065 L1040.5155,396.270323 C1040.5155,396.737796 1040.90968,397.116811 1041.39585,397.116811 L1044.33034,397.116811 C1044.81651,397.116811 1045.21069,396.737796 1045.21069,396.270323 L1045.21069,392.924016 C1050.03206,392.203443 1053,388.748997 1053,384.704902 C1053.00007,376.262033 1039.44529,377.389343 1039.44529,372.947822 Z" id="path-1"></path>
    </defs>
    <g id="Page-3" stroke="none" stroke-width="1" fill="none" fill-rule="evenodd">
        <g id="Menu" transform="translate(-1033.000000, -361.000000)">
            <mask id="mask-2" fill="white">
                <use xlink:href="#path-1"></use>
            </mask>
            <use id="dollar-sign" fill="#417505" fill-rule="nonzero" xlink:href="#path-1"></use>
        </g>
    </g>
</svg>