<?xml version="1.0" encoding="UTF-8"?>
<svg width="35px" height="26px" viewBox="0 0 35 26" version="1.1" xmlns="http://www.w3.org/2000/svg" xmlns:xlink="http://www.w3.org/1999/xlink">
    <!-- Generator: Sketch 46.2 (44496) - http://www.bohemiancoding.com/sketch -->
    <title>Fill 55</title>
    <desc>Created with Sketch.</desc>
    <defs></defs>
    <g id="Page-3" stroke="none" stroke-width="1" fill="none" fill-rule="evenodd">
        <g id="Menu" transform="translate(-1025.000000, -246.000000)" fill="#058EC4">
            <path d="M1054.57404,269.877829 L1045.01777,269.877829 L1039.98223,269.877829 L1032.81833,269.877829 C1031.95914,269.111426 1029.82573,267.791296 1028.3966,265.187824 C1028.13259,264.706523 1027.89499,264.129804 1027.69038,263.363401 L1056.8181,263.363401 L1054.57404,269.877829 Z M1028.30614,270.751529 C1028.15822,270.70861 1027.9443,270.611277 1027.7921,270.266396 C1027.58866,269.806554 1027.63176,269.424885 1027.92682,269.065825 C1028.01069,268.963893 1028.10386,268.877673 1028.192,268.807164 C1028.76272,269.477383 1029.34508,270.04069 1029.88475,270.502448 C1029.35751,270.717807 1028.74602,270.880285 1028.30614,270.751529 L1028.30614,270.751529 Z M1039.6464,261.064191 L1045.3536,261.064191 L1057.56935,261.064191 L1057.24206,262.213796 L1027.38483,262.213796 C1027.32077,261.830594 1027.26215,261.447393 1027.20974,261.064191 L1039.6464,261.064191 Z M1029.78458,249.398383 L1040.2672,248.194747 L1040.2672,259.148183 L1039.6464,259.148183 L1029.78458,259.148183 L1029.78458,249.398383 Z M1058.65295,259.148183 L1045.3536,259.148183 L1042.59667,259.148183 L1042.59667,247.034412 C1042.59667,246.739347 1042.31015,246.45846 1042.08691,246.262261 C1041.86405,246.066061 1041.48707,245.973327 1041.19006,246.006665 L1028.42533,247.447503 C1027.89615,247.507666 1027.45511,247.949881 1027.45511,248.475633 L1027.45511,259.148183 L1026.34705,259.148183 C1025.53679,259.148183 1024.91132,260.014219 1025.01033,260.808212 C1025.19397,262.283922 1025.61444,264.643678 1026.55321,266.354673 C1026.83197,266.862415 1027.13209,267.374373 1027.44424,267.810073 C1027.3033,267.921202 1027.15305,268.078314 1027.01212,268.242708 C1026.40024,268.958145 1026.27911,269.851005 1026.67085,270.738117 C1026.93098,271.327098 1027.37629,271.733675 1027.95905,271.903816 C1028.18268,271.969344 1028.41563,272 1028.65129,272 C1029.50815,272 1030.39412,271.451638 1030.95786,271.160788 C1031.73202,271.710683 1032.26042,271.793838 1032.26042,271.793838 L1039.98223,271.793838 L1045.01777,271.793838 L1056.06646,271.793838 L1059.98967,260.62964 C1060.08868,259.835647 1059.46321,259.148183 1058.65295,259.148183 L1058.65295,259.148183 Z" id="Fill-55"></path>
        </g>
    </g>
</svg>