<?xml version="1.0" encoding="UTF-8"?>
<svg width="30px" height="21px" viewBox="0 0 30 21" version="1.1" xmlns="http://www.w3.org/2000/svg" xmlns:xlink="http://www.w3.org/1999/xlink">
    <!-- Generator: Sketch 46.2 (44496) - http://www.bohemiancoding.com/sketch -->
    <title>handshake</title>
    <desc>Created with Sketch.</desc>
    <defs>
        <path d="M1210.875,121 L1208.625,121 C1208.29186,121 1207.99266,121.144891 1207.78669,121.375 L1206.68391,121.375 L1205.22469,119.673438 L1205.21719,119.665 C1204.2916,118.606818 1202.95415,117.999866 1201.54828,118 L1199.36625,118 C1198.53422,118 1197.73031,118.231563 1197.03703,118.656719 C1196.26547,118.231094 1195.39078,118 1194.49781,118 L1192.99266,118 C1191.63783,118 1190.2927,118.525891 1189.28016,119.5375 L1187.44313,121.375 L1186.21331,121.375 C1186.00734,121.144891 1185.70814,121 1185.375,121 L1183.125,121 C1182.50367,121 1182,121.503672 1182,122.125 L1182,133.375 C1182,133.996328 1182.50367,134.5 1183.125,134.5 L1185.375,134.5 C1185.8648,134.5 1186.28128,134.186875 1186.43573,133.75 L1187.31703,133.75 L1190.84906,136.917344 C1192.04634,138.157188 1193.65805,139 1195.37625,139 C1196.14453,139 1196.88937,138.819531 1197.53719,138.487656 C1198.70606,138.510906 1199.93255,138.001656 1200.77484,137.015313 C1201.69753,136.753797 1202.5328,136.198469 1203.15234,135.393438 C1204.1362,135.187141 1205.06147,134.620375 1205.65641,133.75 L1207.56427,133.75 C1207.71872,134.186875 1208.1352,134.5 1208.625,134.5 L1210.875,134.5 C1211.49633,134.5 1212,133.996328 1212,133.375 L1212,122.125 C1212,121.503672 1211.49633,121 1210.875,121 Z M1184.25,133 C1183.83577,133 1183.5,132.664234 1183.5,132.25 C1183.5,131.835766 1183.83577,131.5 1184.25,131.5 C1184.66423,131.5 1185,131.835766 1185,132.25 C1185,132.664234 1184.66423,133 1184.25,133 Z M1203.58687,132.73 C1202.86734,133.400078 1201.85794,133.261 1201.71422,133.105 C1201.7805,133.732281 1200.85842,135.028891 1199.41359,134.9275 C1199.15386,135.795766 1198.09088,136.513094 1197,136.134531 C1196.58328,136.55125 1195.94719,136.75 1195.37625,136.75 C1194.20672,136.75 1193.13703,136.068438 1192.41656,135.301094 L1188.60562,131.883438 C1188.33057,131.636547 1187.97399,131.499991 1187.60437,131.5 L1186.5,131.5 L1186.5,123.625 L1187.75391,123.625 C1188.15141,123.625 1188.53297,123.467031 1188.81422,123.185781 L1190.87109,121.128906 C1191.43374,120.566172 1192.19689,120.250016 1192.99266,120.25 L1194.49781,120.25 C1194.76969,120.25 1195.03734,120.287031 1195.29469,120.357813 L1193.26641,122.724531 C1192.16203,124.012656 1192.14891,125.894219 1193.23547,127.198281 C1194.75366,129.020125 1197.51881,129.037094 1199.07047,127.291094 L1200.28828,125.881094 L1203.68391,130.375 C1204.31391,131.059375 1204.19719,132.162344 1203.58687,132.73 Z M1207.5,131.5 L1206.35353,131.5 C1206.35841,130.550266 1206.03483,129.656406 1205.42719,128.95 L1201.76719,124.106875 C1201.97859,123.661094 1201.87687,123.111719 1201.48547,122.773281 C1201.0132,122.365891 1200.30281,122.421766 1199.89828,122.889531 L1197.38438,125.801406 C1196.73619,126.52375 1195.59267,126.511328 1194.96375,125.757813 C1194.58272,125.302744 1194.58729,124.638696 1194.97453,124.188906 L1197.68953,121.021094 C1198.10901,120.531538 1198.72156,120.24984 1199.36625,120.25 L1201.54828,120.25 C1202.30344,120.25 1203.02203,120.575313 1203.52031,121.1425 L1205.64937,123.625 L1207.5,123.625 L1207.5,131.5 Z M1209.75,133 C1209.33577,133 1209,132.664234 1209,132.25 C1209,131.835766 1209.33577,131.5 1209.75,131.5 C1210.16423,131.5 1210.5,131.835766 1210.5,132.25 C1210.5,132.664234 1210.16423,133 1209.75,133 Z" id="path-1"></path>
    </defs>
    <g id="Page-3" stroke="none" stroke-width="1" fill="none" fill-rule="evenodd">
        <g id="Menu" transform="translate(-1182.000000, -118.000000)">
            <mask id="mask-2" fill="white">
                <use xlink:href="#path-1"></use>
            </mask>
            <use id="handshake" fill="#F56D23" fill-rule="nonzero" xlink:href="#path-1"></use>
        </g>
    </g>
</svg>