<?xml version="1.0" encoding="UTF-8"?>
<svg width="30px" height="23px" viewBox="0 0 30 23" version="1.1" xmlns="http://www.w3.org/2000/svg" xmlns:xlink="http://www.w3.org/1999/xlink">
    <!-- Generator: Sketch 46.2 (44496) - http://www.bohemiancoding.com/sketch -->
    <title>envelope</title>
    <desc>Created with Sketch.</desc>
    <defs>
        <path d="M1208.1875,245 L1183.8125,245 C1182.25918,245 1181,246.25918 1181,247.8125 L1181,264.6875 C1181,266.24082 1182.25918,267.5 1183.8125,267.5 L1208.1875,267.5 C1209.74082,267.5 1211,266.24082 1211,264.6875 L1211,247.8125 C1211,246.25918 1209.74082,245 1208.1875,245 Z M1208.1875,247.8125 L1208.1875,250.203418 C1206.87371,251.273281 1204.77922,252.936875 1200.30154,256.443066 C1199.31477,257.219258 1197.36008,259.084004 1196,259.062266 C1194.64016,259.084238 1192.68482,257.218965 1191.69846,256.443066 C1187.22148,252.937402 1185.12646,251.273457 1183.8125,250.203418 L1183.8125,247.8125 L1208.1875,247.8125 Z M1183.8125,264.6875 L1183.8125,253.812383 C1185.15512,254.881777 1187.05912,256.382422 1189.96121,258.654922 C1191.24189,259.663027 1193.48469,261.888477 1196,261.874941 C1198.50295,261.888477 1200.71732,259.695313 1202.03826,258.655391 C1204.94029,256.382949 1206.84482,254.881895 1208.1875,253.812441 L1208.1875,264.6875 L1183.8125,264.6875 Z" id="path-1"></path>
    </defs>
    <g id="Page-3" stroke="none" stroke-width="1" fill="none" fill-rule="evenodd">
        <g id="Menu" transform="translate(-1181.000000, -245.000000)">
            <mask id="mask-2" fill="white">
                <use xlink:href="#path-1"></use>
            </mask>
            <use id="envelope" fill="#D0021B" fill-rule="nonzero" xlink:href="#path-1"></use>
        </g>
    </g>
</svg>