{
    "name": "Maude Fernandez",
    "isTeam": false,
    "teamMembers": [],
    "id": "06ada7cd-3078-54bc-bb87-72e9d6f38abf",
    "_parents": [
        {
            "name": "Janie Norton",
            "isTeam": false,
            "teamMembers": [],
            "id": "a39bfa73-6617-5e8e-9470-d26b68787e52",
            "_parents": [
                {
                    "name": "Pearl Cannon",
                    "isTeam": false,
                    "teamMembers": [],
                    "id": "fc956046-a5c3-502f-b853-d669804d428f",
                    "_parents": [
                        {
                            "name": "Augusta Miller",
                            "isTeam": true,
                            "teamName": " Team GG",
                            "teamMembers": [
                                {
                                    "name": "Test1 Test1",
                                    "isTeam": false,
                                    "teamMembers": [],
                                    "id": "FD23DA2B-486D-432E-A7AB-833BC56BD81F"
                                },
                                {
                                    "name": "Test2 Test2",
                                    "isTeam": false,
                                    "teamMembers": [],
                                    "id": "603E1D79-5936-4E58-BDC6-AEF99A7C2693"
                                },
                                {
                                    "name": "Test3 Test3",
                                    "isTeam": false,
                                    "teamMembers": [],
                                    "id": "22E7FD57-9140-4F66-BD08-757C87E343EC"
                                },
                                {
                                    "name": "asdf Tesasdft3",
                                    "isTeam": false,
                                    "teamMembers": [],
                                    "id": "22E7FD57-9140-4F66-BD08-757C87E343EC"
                                }
                            ],
                            "id": "fa5b0c07-9000-5475-a90e-b76af7693a57"
                        },
                        {
                            "name": "Clayton Welch",
                            "isTeam": false,
                            "teamMembers": [],
                            "id": "3194517d-1151-502e-a3b6-d1ae8234c647"
                        }
                    ]
                },
                {
                    "name": "Nell Morton",
                    "isTeam": false,
                    "teamMembers": [],
                    "id": "06c7b0cb-cd21-53be-81bd-9b088af96904",
                    "_parents": [
                        {
                            "name": "Lelia Hernandez",
                            "isTeam": false,
                            "teamMembers": [],
                            "id": "667d2bb6-c26e-5881-9bdc-7ac9805f96c2"
                        },
                        {
                            "name": "Randy Welch",
                            "isTeam": false,
                            "teamMembers": [],
                            "id": "104039bb-d353-54a9-a4f2-09fda08b58bb"
                        }
                    ]
                }
            ]
        },
        {
            "name": "Helen Alvarado",
            "isTeam": false,
            "teamMembers": [],
            "id": "522266d2-f01a-5ec0-9977-622e4cb054c0",
            "_parents": [
                {
                    "name": "Gussie Glover",
                    "isTeam": false,
                    "teamMembers": [],
                    "id": "da430aa2-f438-51ed-ae47-2d9f76f8d831",
                    "_parents": [
                        {
                            "name": "Mina Freeman",
                            "teamName": " Team 666",
                            "isTeam": true,
                            "teamMembers": [
                                {
                                    "name": "Test1 Test1",
                                    "isTeam": false,
                                    "teamMembers": [],
                                    "id": "7ECB08DE-7BA0-4D8C-AC7C-D85F499D841D"
                                },
                                {
                                    "name": "Test2 Test2",
                                    "isTeam": false,
                                    "teamMembers": [],
                                    "id": "603E1D79-5936-4E58-BDC6-AEF99A7C2693"
                                },
                                {
                                    "name": "Test3 Test3",
                                    "isTeam": false,
                                    "teamMembers": [],
                                    "id": "22E7FD57-9140-4F66-BD08-757C87E343EC"
                                }
                            ],
                            "id": "d384197e-2e1e-5fb2-987b-d90a5cdc3c15"
                        },
                        {
                            "name": "Charlotte Martin",
                            "isTeam": false,
                            "teamMembers": [],
                            "id": "ea01728f-e542-53a6-acd0-6f43805c31a3"
                        }
                    ]
                },
                {
                    "name": "Jesus Pierce",
                    "isTeam": false,
                    "teamMembers": [],
                    "id": "bfd1612c-b90d-5975-824c-49ecf62b3d5f",
                    "_parents": [
                        {
                            "name": "Donald Cox",
                            "isTeam": false,
                            "teamMembers": [],
                            "id": "4f910be4-b827-50be-b783-6ba3249f6ebc"
                        },
                        {
                            "name": "Alex Gonzales",
                            "isTeam": false,
                            "teamMembers": [],
                            "id": "efb2396d-478a-5cbc-b168-52e028452f3b"
                        }
                    ]
                }
            ]
        }
    ]
}