<svg id="badge_platinum" xmlns="http://www.w3.org/2000/svg" width="403.45" height="494.9" viewBox="0 0 403.45 494.9">
  <defs>
    <style>
      .cls-1, .cls-3, .cls-4 {
        fill: #e5e4e2;
      }

      .cls-1 {
        opacity: 0.3;
      }

      .cls-1, .cls-4 {
        isolation: isolate;
      }

      .cls-2 {
        fill: #fff;
      }

      .cls-4 {
        opacity: 0.4;
      }
    </style>
  </defs>
  <title>badge-platinum</title>
  <path class="cls-1" d="M252.4,391.1l-49.7,90.4-43-46.7,8.7-15a8,8,0,0,0-13.9-8.1l-8.6,14.9L83.6,412.7,126.5,334s20.9,26.4,57.1,41.9C226.7,394.5,252.4,391.1,252.4,391.1Z" transform="translate(-55.13)"/>
  <path class="cls-2" d="M176.7,372.4l-7.8,14.4a8.13,8.13,0,0,0,2.9,11,8.31,8.31,0,0,0,4,1.1,7.74,7.74,0,0,0,6.9-4l8.6-15.9Z" transform="translate(-55.13)"/>
  <path class="cls-1" d="M88,200.2C88,103.1,167.1,24,264.2,24s176.2,79,176.2,176.2c0,93.9-73.8,170.8-166.3,175.9a3.4,3.4,0,0,0-1,.1c-2.9.1-5.9.2-8.8.2C167.1,376.5,88,297.4,88,200.2Z" transform="translate(-55.13)"/>
  <path class="cls-2" d="M424.4,200.2A160.06,160.06,0,0,0,387.5,98a8,8,0,1,0-12.3,10.3,144.27,144.27,0,0,1,33.2,92c0,79.5-64.7,144.1-144.1,144.1S120.2,279.7,120.2,200.3s64.5-144.2,144-144.2a142.29,142.29,0,0,1,90,31.6,8,8,0,1,0,10.1-12.5A160.35,160.35,0,0,0,264.2,40.1C175.9,40.1,104,112,104,200.3s71.9,160.2,160.2,160.2S424.4,288.6,424.4,200.2Z" transform="translate(-55.13)"/>
  <path class="cls-2" d="M306.8,79.4a8,8,0,0,0-5.3,15.1,111.83,111.83,0,0,1,68.3,67.9,8,8,0,0,0,7.5,5.3,8.57,8.57,0,0,0,2.7-.5,8,8,0,0,0,4.8-10.3A127.5,127.5,0,0,0,306.8,79.4Z" transform="translate(-55.13)"/>
  <path class="cls-3" d="M244.4,383.1l-49.7,90.4-43-46.7,8.7-15a8,8,0,0,0-13.9-8.1l-8.6,14.9L75.6,404.7,118.5,326l-10.3-12.5-52,92.6a8,8,0,0,0,5.2,11.8l76.1,17,52.8,57.4a7.88,7.88,0,0,0,5.9,2.6h.9a8.31,8.31,0,0,0,6.1-4l58.4-107.3Zm-74.7-20.7-8.8,16.4a8.13,8.13,0,0,0,2.9,11,8.31,8.31,0,0,0,4,1.1,7.74,7.74,0,0,0,6.9-4l9.6-17.9Z" transform="translate(-55.13)"/>
  <path class="cls-4" d="M261.3,390.1,311,480.5l43-46.7-8.7-15a8,8,0,1,1,13.9-8.1l8.6,14.9,62.3-13.9L387.2,333s-20.9,26.4-57.1,41.9C286.9,393.5,261.3,390.1,261.3,390.1Z" transform="translate(-55.13)"/>
  <path class="cls-2" d="M336.9,371.4l7.8,14.4a8.13,8.13,0,0,1-2.9,11,8.31,8.31,0,0,1-4,1.1,7.74,7.74,0,0,1-6.9-4L322.3,378Z" transform="translate(-55.13)"/>
  <path class="cls-3" d="M269.3,382.1,319,472.5l43-46.7-8.7-15a8,8,0,1,1,13.9-8.1l8.6,14.9,62.3-13.9L395.2,325l10.3-12.5,52,92.6a8,8,0,0,1-5.2,11.8l-76.1,17-52.8,57.4a7.88,7.88,0,0,1-5.9,2.6h-.9a8.32,8.32,0,0,1-6.1-4L252.1,382.6Zm74.6-20.7,8.8,16.4a8.13,8.13,0,0,1-2.9,11,8.31,8.31,0,0,1-4,1.1,7.74,7.74,0,0,1-6.9-4L329.3,368Z" transform="translate(-55.13)"/>
  <g>
    <path class="cls-3" d="M111.5,318.6s44.9,65.9,144.8,65.9c106.8,0,155.6-79.5,155.6-79.5a191.21,191.21,0,0,0,36.6-112.7C448.5,86.2,362.2,0,256.2,0S64,86.2,64,192.2a191,191,0,0,0,36.7,112.9l10.8,13.5M80,192.2C80,95.1,159.1,16,256.2,16S432.4,95,432.4,192.2c0,93.9-73.8,170.8-166.3,175.9a3.4,3.4,0,0,0-1,.1c-2.9.1-5.9.2-8.8.2C159.1,368.5,80,289.4,80,192.2Z" transform="translate(-55.13)"/>
    <path class="cls-3" d="M416.4,192.2A160.06,160.06,0,0,0,379.5,90a8,8,0,1,0-12.3,10.3,144.27,144.27,0,0,1,33.2,92c0,79.5-64.7,144.1-144.1,144.1S112.2,271.7,112.2,192.3s64.5-144.2,144-144.2a142.29,142.29,0,0,1,90,31.6,8,8,0,1,0,10.1-12.5A160.35,160.35,0,0,0,256.2,32.1C167.9,32.1,96,104,96,192.3s71.9,160.2,160.2,160.2S416.4,280.6,416.4,192.2Z" transform="translate(-55.13)"/>
    <path class="cls-3" d="M298.8,71.4a8,8,0,0,0-5.3,15.1,111.83,111.83,0,0,1,68.3,67.9,8,8,0,0,0,7.5,5.3,8.57,8.57,0,0,0,2.7-.5,8,8,0,0,0,4.8-10.3A127.5,127.5,0,0,0,298.8,71.4Z" transform="translate(-55.13)"/>
  </g>
  <path class="cls-2" d="M324.5,171.8l-32.3-2.3-12.2-30a16.43,16.43,0,0,0-30.4,0l-12.2,30-32.3,2.3A16.13,16.13,0,0,0,190.8,183a16.56,16.56,0,0,0,5,17.6l24.7,20.9-7.7,31.4a16.1,16.1,0,0,0,3,13.9,16.34,16.34,0,0,0,12.9,6.3,15.66,15.66,0,0,0,8.6-2.5l27.5-17.1,27.5,17.1a15.66,15.66,0,0,0,8.6,2.5,16.34,16.34,0,0,0,12.9-6.3,16.1,16.1,0,0,0,3-13.9l-7.7-31.4,24.7-20.9a16.34,16.34,0,0,0-9.3-28.8ZM294.2,212a8.59,8.59,0,0,0-2.8,8.5l8.7,35.2-30.8-19.2a8.4,8.4,0,0,0-8.9,0l-30.9,19.3,8.7-35.4a8.39,8.39,0,0,0-2.8-8.5l-27.8-23.4,36.2-2.6a8.46,8.46,0,0,0,7.2-5.2l13.6-33.5,13.7,33.6a8.29,8.29,0,0,0,7.2,5.2l36.2,2.6Z" transform="translate(-55.13)"/>
  <path class="cls-3" d="M316.5,163.8l-32.3-2.3-12.2-30a16.43,16.43,0,0,0-30.4,0l-12.2,30-32.3,2.3A16.13,16.13,0,0,0,182.8,175a16.56,16.56,0,0,0,5,17.6l24.7,20.9-7.7,31.4a16.1,16.1,0,0,0,3,13.9,16.34,16.34,0,0,0,12.9,6.3,15.66,15.66,0,0,0,8.6-2.5l27.5-17.1,27.5,17.1a15.66,15.66,0,0,0,8.6,2.5,16.34,16.34,0,0,0,12.9-6.3,16.1,16.1,0,0,0,3-13.9l-7.7-31.4,24.7-20.9a16.34,16.34,0,0,0-9.3-28.8ZM286.2,204a8.59,8.59,0,0,0-2.8,8.5l8.7,35.2-30.8-19.2a8.4,8.4,0,0,0-8.9,0l-30.9,19.3,8.7-35.4a8.39,8.39,0,0,0-2.8-8.5l-27.8-23.4,36.2-2.6a8.46,8.46,0,0,0,7.2-5.2l13.6-33.5,13.7,33.6a8.29,8.29,0,0,0,7.2,5.2l36.2,2.6Z" transform="translate(-55.13)"/>
</svg>
