<svg id="how_find" xmlns="http://www.w3.org/2000/svg" width="64" height="64" viewBox="0 0 64 64">
  <defs>
    <style>
      .cls-1 {
        fill: #00aeef;
      }
    </style>
  </defs>
  <title>how-find</title>
  <path class="cls-1" d="M62.86,0H1.14A1.14,1.14,0,0,0,0,1.14V64H2.29V11.43H61.71V64H64V1.14A1.14,1.14,0,0,0,62.86,0ZM2.29,9.14V2.29H61.71V9.14Z"/>
  <path class="cls-1" d="M35.61,40.85a17.2,17.2,0,1,0-5.29,4.8l15,15a3.57,3.57,0,0,0,5-5Zm-28.76-10A14.86,14.86,0,1,1,21.71,45.71,14.87,14.87,0,0,1,6.86,30.86Zm41,28.57a1.28,1.28,0,0,1-.91-.37l-14.7-14.7a17.2,17.2,0,0,0,1.9-1.73L48.77,57.24a1.28,1.28,0,0,1-.91,2.19Z"/>
  <path class="cls-1" d="M30.86,22.86H26.29V21.71a3.43,3.43,0,0,0-3.43-3.43H20.57a3.43,3.43,0,0,0-3.43,3.43v1.14H12.57A1.14,1.14,0,0,0,11.43,24V37.71a1.14,1.14,0,0,0,1.14,1.14H30.86A1.14,1.14,0,0,0,32,37.71V24A1.14,1.14,0,0,0,30.86,22.86Zm-1.14,5.71a1.14,1.14,0,0,1-1.14,1.14H14.86a1.14,1.14,0,0,1-1.14-1.14V25.14h16ZM19.43,21.71a1.14,1.14,0,0,1,1.14-1.14h2.29A1.14,1.14,0,0,1,24,21.71v1.14H19.43ZM13.71,36.57V31.79a3.39,3.39,0,0,0,1.14.21h5.71v1.14h2.29V32h5.71a3.39,3.39,0,0,0,1.14-.21v4.78Z"/>
  <path class="cls-1" d="M25.14,52.57H21.71V51.43a2.29,2.29,0,0,0-2.29-2.29H14.86a2.29,2.29,0,0,0-2.29,2.29v1.14H9.14A1.14,1.14,0,0,0,8,53.71v9.14A1.14,1.14,0,0,0,9.14,64h16a1.14,1.14,0,0,0,1.14-1.14V53.71A1.14,1.14,0,0,0,25.14,52.57ZM14.86,51.43h4.57v1.14H14.86ZM24,61.71H10.29V54.86H24Z"/>
  <rect class="cls-1" x="41.14" y="16" width="16" height="2.29"/>
  <rect class="cls-1" x="41.14" y="20.57" width="16" height="2.29"/>
  <rect class="cls-1" x="41.14" y="25.14" width="16" height="2.29"/>
  <rect class="cls-1" x="41.14" y="34.29" width="16" height="2.29"/>
  <rect class="cls-1" x="41.14" y="38.86" width="16" height="2.29"/>
  <rect class="cls-1" x="43.43" y="43.43" width="13.71" height="2.29"/>
  <rect class="cls-1" x="53.71" y="52.57" width="3.43" height="2.29"/>
  <rect class="cls-1" x="53.71" y="57.14" width="3.43" height="2.29"/>
  <rect class="cls-1" x="53.71" y="61.71" width="3.43" height="2.29"/>
  <circle class="cls-1" cx="5.71" cy="5.71" r="1.14"/>
  <circle class="cls-1" cx="10.29" cy="5.71" r="1.14"/>
  <circle class="cls-1" cx="14.86" cy="5.71" r="1.14"/>
  <rect class="cls-1" x="16" y="57.14" width="2.29" height="2.29"/>
</svg>
