<svg xmlns="http://www.w3.org/2000/svg" xmlns:xlink="http://www.w3.org/1999/xlink" preserveAspectRatio="xMidYMid" width="47" height="46" viewBox="0 0 47 46">
  <defs>
    <style>
      .cls-1 {
        fill: #007aff;
        fill-rule: evenodd;
      }
    </style>
  </defs>
  <path d="M46.999,41.017 C46.999,43.769 44.755,46.000 41.987,46.000 L5.012,46.000 C2.244,45.999 0.000,43.769 0.000,41.017 L0.000,14.326 C0.000,11.575 2.244,9.343 5.012,9.343 L15.908,9.343 L15.908,4.466 C15.908,1.878 17.437,-0.000 20.411,-0.000 L25.571,-0.000 C28.451,-0.000 31.092,1.837 31.092,4.467 L31.092,9.343 L41.988,9.343 C44.756,9.343 47.000,11.575 47.000,14.326 L47.000,41.017 L46.999,41.017 ZM28.200,4.466 C28.200,3.151 26.483,2.875 25.570,2.875 L20.410,2.875 C20.181,2.875 18.800,2.920 18.800,4.467 L18.800,9.343 L28.200,9.343 L28.200,4.466 ZM44.108,28.031 L28.199,28.031 L28.199,29.418 L28.200,29.418 C28.200,31.034 26.882,32.343 25.257,32.343 L21.743,32.343 C20.117,32.343 18.800,31.034 18.800,29.418 L18.800,28.031 L9.495,28.031 C9.095,28.031 8.772,27.709 8.772,27.312 C8.772,26.915 9.095,26.593 9.495,26.593 L18.800,26.593 L18.800,25.926 C18.800,24.310 20.117,23.000 21.743,23.000 L25.256,23.000 C26.882,23.000 28.199,24.310 28.199,25.926 L28.199,26.593 L44.108,26.593 L44.108,14.326 L44.107,14.326 C44.107,13.162 43.158,12.219 41.987,12.219 L5.012,12.219 C3.842,12.219 2.892,13.162 2.892,14.326 L2.892,26.593 L5.155,26.593 C5.555,26.593 5.878,26.915 5.878,27.312 C5.878,27.709 5.555,28.031 5.155,28.031 L2.892,28.031 L2.892,41.017 C2.892,42.181 3.842,43.124 5.012,43.124 L41.988,43.124 C43.159,43.124 44.108,42.181 44.108,41.017 L44.108,28.031 ZM26.753,25.926 C26.753,25.103 26.083,24.438 25.257,24.438 L21.743,24.438 C20.915,24.438 20.246,25.103 20.246,25.926 L20.246,29.418 C20.246,30.239 20.916,30.906 21.743,30.906 L25.256,30.906 C26.083,30.906 26.753,30.239 26.753,29.418 L26.753,25.926 L26.753,25.926 Z" class="cls-1"/>
</svg>
