<?xml version="1.0" encoding="utf-8"?>
<!-- Generator: Adobe Illustrator 19.2.1, SVG Export Plug-In . SVG Version: 6.00 Build 0)  -->
<svg version="1.1" id="Layer_1" xmlns="http://www.w3.org/2000/svg" xmlns:xlink="http://www.w3.org/1999/xlink" x="0px" y="0px"
	 viewBox="0 0 47 48" style="enable-background:new 0 0 47 48;" xml:space="preserve">
<style type="text/css">
	.st0{fill:#007AFF;}
	.st1{fill-rule:evenodd;clip-rule:evenodd;fill:#FFFFFF;}
</style>
<g>
	<g>
		<path class="st0" d="M10,41h1c1.1,0,2-0.9,2-2c0-1.1-0.9-2-2-2h-1c-1.1,0-2,0.9-2,2C8,40.1,8.9,41,10,41z M15,36h1
			c1.1,0,2-0.9,2-2c0-1.1-0.9-2-2-2h-1c-1.1,0-2,0.9-2,2C13,35.1,13.9,36,15,36z M15,27h1c1.1,0,2-0.9,2-2s-0.9-2-2-2h-1
			c-1.1,0-2,0.9-2,2S13.9,27,15,27z M35,32h1c1.1,0,2-0.9,2-2c0-1.1-0.9-2-2-2h-1c-1.1,0-2,0.9-2,2C33,31.1,33.9,32,35,32z M25,32h1
			c1.1,0,2-0.9,2-2c0-1.1-0.9-2-2-2h-1c-1.1,0-2,0.9-2,2C23,31.1,23.9,32,25,32z M41.9,5.8h-4.5V1.5C37.5,0.7,36.8,0,36,0
			c-0.8,0-1.5,0.7-1.5,1.5v4.4H11.8V1.5c0-0.8-0.7-1.5-1.5-1.5C9.5,0,8.8,0.7,8.8,1.5v4.4H5.1c-2.8,0-5.1,2.3-5.1,5V43
			c0,2.8,2.3,5,5.1,5h36.8c2.8,0,5.1-2.3,5.1-5V10.9C47,8.1,44.7,5.8,41.9,5.8z M44.1,43c0,1.2-1,2.1-2.2,2.1H5.1
			c-1.2,0-2.2-1-2.2-2.1V19.6h41.1V43z M44.1,18.2H2.9v-7.3c0-1.2,1-2.1,2.2-2.1h3.7v3.6c0,0.8,0.7,1.5,1.5,1.5
			c0.8,0,1.5-0.7,1.5-1.5V8.7h22.8v3.6c0,0.8,0.7,1.5,1.5,1.5c0.8,0,1.5-0.7,1.5-1.5V8.7h4.5c1.2,0,2.2,1,2.2,2.1V18.2z M33.6,42.2
			c0,0.4,0.3,0.7,0.7,0.7H39c1.7,0,2.7-0.9,2.8-2.8c0,0,0.1-0.1,0.1-0.1v-0.3c0-0.4-0.4-0.7-0.8-0.7c-0.4,0-0.8,0.3-0.8,0.7
			c0,1.6-0.5,1.7-1.2,1.7h-4.6C34,41.5,33.6,41.8,33.6,42.2z M41.1,37.4c0.2,0,0.4-0.1,0.5-0.2c0.1-0.1,0.2-0.3,0.2-0.5
			c0-0.2-0.1-0.4-0.2-0.5c-0.3-0.3-0.8-0.3-1,0c-0.1,0.1-0.2,0.3-0.2,0.5c0,0.2,0.1,0.4,0.2,0.5C40.7,37.3,40.9,37.4,41.1,37.4z
			 M10.1,26.2h0.7c0.4,0,0.7-0.3,0.7-0.7c0-0.4-0.3-0.7-0.7-0.7h-0.7c-0.4,0-0.7,0.3-0.7,0.7C9.4,25.9,9.7,26.2,10.1,26.2z
			 M20.4,26.2h0.7c0.4,0,0.7-0.3,0.7-0.7c0-0.4-0.3-0.7-0.7-0.7h-0.7c-0.4,0-0.7,0.3-0.7,0.7C19.7,25.9,20,26.2,20.4,26.2z
			 M24.8,26.2h0.7c0.4,0,0.7-0.3,0.7-0.7c0-0.4-0.3-0.7-0.7-0.7h-0.7c-0.4,0-0.7,0.3-0.7,0.7C24.1,25.9,24.4,26.2,24.8,26.2z
			 M30,26.2h0.7c0.4,0,0.7-0.3,0.7-0.7c0-0.4-0.3-0.7-0.7-0.7H30c-0.4,0-0.7,0.3-0.7,0.7C29.2,25.9,29.6,26.2,30,26.2z M35.1,26.2
			h0.7c0.4,0,0.7-0.3,0.7-0.7c0-0.4-0.3-0.7-0.7-0.7h-0.7c-0.4,0-0.7,0.3-0.7,0.7C34.4,25.9,34.7,26.2,35.1,26.2z M10.1,30.5h0.7
			c0.4,0,0.7-0.3,0.7-0.7c0-0.4-0.3-0.7-0.7-0.7h-0.7c-0.4,0-0.7,0.3-0.7,0.7C9.4,30.2,9.7,30.5,10.1,30.5z M15.3,29.1
			c-0.4,0-0.7,0.3-0.7,0.7c0,0.4,0.3,0.7,0.7,0.7H16c0.4,0,0.7-0.3,0.7-0.7c0-0.4-0.3-0.7-0.7-0.7H15.3z M20.4,30.5h0.7
			c0.4,0,0.7-0.3,0.7-0.7c0-0.4-0.3-0.7-0.7-0.7h-0.7c-0.4,0-0.7,0.3-0.7,0.7C19.7,30.2,20,30.5,20.4,30.5z M30,30.5h0.7
			c0.4,0,0.7-0.3,0.7-0.7c0-0.4-0.3-0.7-0.7-0.7H30c-0.4,0-0.7,0.3-0.7,0.7C29.2,30.2,29.6,30.5,30,30.5z M16,37.8h-0.7
			c-0.4,0-0.7,0.3-0.7,0.7s0.3,0.7,0.7,0.7H16c0.4,0,0.7-0.3,0.7-0.7S16.4,37.8,16,37.8z M20.4,39.3h0.7c0.4,0,0.7-0.3,0.7-0.7
			s-0.3-0.7-0.7-0.7h-0.7c-0.4,0-0.7,0.3-0.7,0.7S20,39.3,20.4,39.3z M25.6,37.8h-0.7c-0.4,0-0.7,0.3-0.7,0.7s0.3,0.7,0.7,0.7h0.7
			c0.4,0,0.7-0.3,0.7-0.7S26,37.8,25.6,37.8z M10.1,34.9h0.7c0.4,0,0.7-0.3,0.7-0.7s-0.3-0.7-0.7-0.7h-0.7c-0.4,0-0.7,0.3-0.7,0.7
			S9.7,34.9,10.1,34.9z M20.4,34.9h0.7c0.4,0,0.7-0.3,0.7-0.7s-0.3-0.7-0.7-0.7h-0.7c-0.4,0-0.7,0.3-0.7,0.7S20,34.9,20.4,34.9z
			 M25.6,33.5h-0.7c-0.4,0-0.7,0.3-0.7,0.7s0.3,0.7,0.7,0.7h0.7c0.4,0,0.7-0.3,0.7-0.7S26,33.5,25.6,33.5z M30,34.9h0.7
			c0.4,0,0.7-0.3,0.7-0.7s-0.3-0.7-0.7-0.7H30c-0.4,0-0.7,0.3-0.7,0.7S29.6,34.9,30,34.9z M35.8,34.9c0.4,0,0.7-0.3,0.7-0.7
			s-0.3-0.7-0.7-0.7h-0.7c-0.4,0-0.7,0.3-0.7,0.7s0.3,0.7,0.7,0.7H35.8z"/>
	</g>
</g>
<path class="st1" d="M15.3,33.2h0.4c0.4,0,0.8,0.4,0.8,0.8c0,0.4-0.4,0.8-0.8,0.8h-0.4c-0.4,0-0.8-0.4-0.8-0.8
	C14.5,33.6,14.9,33.2,15.3,33.2z"/>
<path class="st1" d="M15.3,24.2h0.4c0.4,0,0.8,0.4,0.8,0.8c0,0.4-0.4,0.8-0.8,0.8h-0.4c-0.4,0-0.8-0.4-0.8-0.8
	C14.5,24.6,14.9,24.2,15.3,24.2z"/>
<path class="st1" d="M25.3,29.2h0.4c0.4,0,0.8,0.4,0.8,0.8c0,0.4-0.4,0.8-0.8,0.8h-0.4c-0.4,0-0.8-0.4-0.8-0.8
	C24.5,29.6,24.9,29.2,25.3,29.2z"/>
<path class="st1" d="M35.3,29.2h0.4c0.4,0,0.8,0.4,0.8,0.8c0,0.4-0.4,0.8-0.8,0.8h-0.4c-0.4,0-0.8-0.4-0.8-0.8
	C34.5,29.6,34.9,29.2,35.3,29.2z"/>
<path class="st1" d="M10.3,38.2h0.4c0.4,0,0.8,0.4,0.8,0.8c0,0.4-0.4,0.8-0.8,0.8h-0.4c-0.4,0-0.8-0.4-0.8-0.8
	C9.5,38.6,9.9,38.2,10.3,38.2z"/>
</svg>
