<svg xmlns="http://www.w3.org/2000/svg" xmlns:xlink="http://www.w3.org/1999/xlink" preserveAspectRatio="xMidYMid" width="42.2" height="49.2" viewBox="0 0 42.2 49.2">
  <defs>
    <style>
      .cls-1 {
        fill: #007aff;
        stroke: #007aff;
        stroke-width: 0.2px;
        fill-rule: evenodd;
      }
    </style>
  </defs>
  <path d="M1.338,10.955 L41.241,10.955 C41.821,10.955 42.290,10.477 42.290,9.889 C42.290,9.301 41.821,8.825 41.241,8.825 L28.640,8.825 L28.640,6.693 C28.640,3.168 25.814,0.302 22.339,0.302 L20.239,0.302 C16.766,0.302 13.939,3.168 13.939,6.693 L13.939,8.824 L1.338,8.824 C0.757,8.824 0.288,9.300 0.288,9.889 C0.288,10.477 0.757,10.955 1.338,10.955 ZM16.039,6.693 C16.039,4.343 17.923,2.432 20.239,2.432 L22.339,2.432 C24.656,2.432 26.540,4.343 26.540,6.693 L26.540,8.824 L16.039,8.824 L16.039,6.693 ZM41.241,15.214 L1.338,15.214 C0.757,15.214 0.288,15.691 0.288,16.280 C0.288,16.869 0.757,17.345 1.338,17.345 L5.538,17.345 L5.538,43.265 C5.538,46.594 8.207,49.302 11.489,49.302 L31.090,49.302 C34.372,49.302 37.041,46.594 37.041,43.265 L37.041,17.345 L41.242,17.345 C41.821,17.345 42.291,16.868 42.291,16.280 C42.290,15.691 41.821,15.214 41.241,15.214 ZM34.940,43.266 C34.940,45.421 33.213,47.172 31.090,47.172 L11.489,47.172 C9.365,47.172 7.638,45.421 7.638,43.266 L7.638,17.346 L34.940,17.346 L34.940,43.266 ZM14.989,41.846 C15.569,41.846 16.038,41.369 16.038,40.781 L16.038,23.736 C16.038,23.148 15.568,22.672 14.989,22.672 C14.408,22.672 13.938,23.149 13.938,23.736 L13.938,40.780 C13.939,41.369 14.408,41.846 14.989,41.846 ZM21.289,41.846 C21.870,41.846 22.339,41.369 22.339,40.781 L22.339,23.736 C22.339,23.148 21.870,22.672 21.289,22.672 C20.708,22.672 20.238,23.149 20.238,23.736 L20.238,40.780 C20.239,41.369 20.708,41.846 21.289,41.846 ZM27.590,41.846 C28.170,41.846 28.640,41.369 28.640,40.781 L28.640,23.736 C28.640,23.148 28.170,22.672 27.590,22.672 C27.008,22.672 26.539,23.149 26.539,23.736 L26.539,40.780 C26.540,41.369 27.009,41.846 27.590,41.846 Z" class="cls-1"/>
</svg>
