<?xml version="1.0" encoding="utf-8"?>
<!-- Generator: Adobe Illustrator 19.0.0, SVG Export Plug-In . SVG Version: 6.00 Build 0)  -->
<svg version="1.1" id="icon_car" xmlns="http://www.w3.org/2000/svg" xmlns:xlink="http://www.w3.org/1999/xlink" x="0px" y="0px"
	 viewBox="-282 377.4 46.6 39.6" style="enable-background:new -282 377.4 46.6 39.6;" xml:space="preserve">
<style type="text/css">
	.st0{fill:#C8CACC;}
</style>
<path class="st0" d="M-242.5,393.8c0-0.6-0.5-1.1-1-1.1h-30.3c-0.6,0-1,0.5-1,1.1s0.5,1.1,1,1.1h30.3
	C-243,394.9-242.5,394.4-242.5,393.8z"/>
<path class="st0" d="M-236,396.4l-1.9-3l-0.6-2.5h2c0.6,0,1-0.5,1-1.1s-0.5-1.1-1-1.1h-2.5l-1.9-7.7c-0.5-2-2.6-3.6-4.7-3.6h-26.2
	c-2.1,0-4.2,1.6-4.7,3.7l-1.9,7.7h-2.4c-0.6,0-1,0.5-1,1.1s0.5,1.1,1,1.1h2l-0.6,2.4l-1.9,3c-0.4,0.7-0.7,1.7-0.7,2.4v10.9
	c0,0.6,0.4,1,1,1.1v5.2c0,0.6,0.5,1.1,1,1.1h7.7c0.6,0,1-0.5,1-1.1v-2.4c0-0.6-0.5-1.1-1-1.1s-1,0.5-1,1.1v1.4h-5.7v-4.1h10.2h20.2
	h10.2v4.1h-5.7v-1.4c0-0.6-0.5-1.1-1-1.1c-0.6,0-1,0.5-1,1.1v2.4c0,0.6,0.5,1.1,1,1.1h7.7c0.6,0,1-0.5,1-1.1v-5.2c0.5,0,1-0.5,1-1.1
	v-10.9C-235.4,398.1-235.6,397.1-236,396.4z M-267.3,408.7l1.1-2.9h14.9l1.1,2.9H-267.3z M-266.8,403.7c-0.4,0-0.8,0.3-1,0.7
	l-1.7,4.4h-10.4v-3.2h4.7c2.4,0,4.3-2,4.3-4.4c0-2.4-1.9-4.4-4.3-4.4h-0.7c-0.6,0-1,0.5-1,1.1s0.5,1.1,1,1.1h0.6
	c1.2,0,2.2,1,2.2,2.3c0,1.1-0.9,2.1-2.2,2.1h-4.6v-4.6c0-0.4,0.2-1,0.4-1.3l2-3.2c0.1-0.1,0.1-0.2,0.1-0.3l3-12.4
	c0.3-1.1,1.5-2.1,2.6-2.1h26.3c1.1,0,2.4,1,2.6,2.1l3,12.4c0,0.1,0.1,0.2,0.1,0.3l2,3.2c0.2,0.3,0.4,0.9,0.4,1.3v4.6h-4.7
	c-1.2,0-2.2-1-2.2-2.3c0-1.2,1-2.3,2.2-2.3h0.6c0.6,0,1-0.5,1-1.1c0-0.6-0.5-1.1-1-1.1h-0.6c-2.4,0-4.3,2-4.3,4.4s1.9,4.4,4.3,4.4
	h4.7v3.2h-10.5l-1.7-4.4c-0.2-0.4-0.5-0.7-1-0.7h-16.2V403.7z"/>
<polygon class="st0" points="-274.2,389.5 -272.5,383.8 -272.4,383.5 -272.2,383.2 -271.4,382.4 -271,382 -270.4,382 -263.1,382 
	-263.1,383.4 -270.4,383.4 -271.2,384.2 -272.8,389.9 "/>
<rect x="-262.3" y="382" class="st0" width="3.2" height="1.4"/>
</svg>
