<svg version="1.1" id="icon_calendar" xmlns="http://www.w3.org/2000/svg" xmlns:xlink="http://www.w3.org/1999/xlink" x="0px"
	 y="0px" width="130px" height="134.1px" viewBox="0 0 130 134.1" enable-background="new 0 0 130 134.1" xml:space="preserve">
<path fill="#18D28E" d="M99.6,98h-2.1c-1.1,0-2.1-0.9-2.1-2.1c0-1.1,0.9-2.1,2.1-2.1h2.1c1.1,0,2.1,0.9,2.1,2.1
	C101.7,97.1,100.8,98,99.6,98z"/>
<path fill="#18D28E" d="M85.2,98h-2.1c-1.1,0-2.1-0.9-2.1-2.1c0-1.1,0.9-2.1,2.1-2.1h2.1c1.1,0,2.1,0.9,2.1,2.1
	C87.3,97.1,86.3,98,85.2,98z"/>
<path fill="#18D28E" d="M70.8,98h-2.1c-1.1,0-2.1-0.9-2.1-2.1c0-1.1,0.9-2.1,2.1-2.1h2.1c1.1,0,2.1,0.9,2.1,2.1
	C72.8,97.1,71.9,98,70.8,98z"/>
<path fill="#18D28E" d="M58.4,98h-2.1c-1.1,0-2.1-0.9-2.1-2.1c0-1.1,0.9-2.1,2.1-2.1h2.1c1.1,0,2.1,0.9,2.1,2.1
	C60.5,97.1,59.5,98,58.4,98z"/>
<path fill="#18D28E" d="M44,98h-2.1c-1.1,0-2.1-0.9-2.1-2.1c0-1.1,0.9-2.1,2.1-2.1H44c1.1,0,2.1,0.9,2.1,2.1C46,97.1,45.1,98,44,98z
	"/>
<path fill="#18D28E" d="M29.5,98h-2.1c-1.1,0-2.1-0.9-2.1-2.1c0-1.1,0.9-2.1,2.1-2.1h2.1c1.1,0,2.1,0.9,2.1,2.1
	C31.6,97.1,30.7,98,29.5,98z"/>
<path fill="#18D28E" d="M70.8,110.4h-2.1c-1.1,0-2.1-0.9-2.1-2.1c0-1.1,0.9-2.1,2.1-2.1h2.1c1.1,0,2.1,0.9,2.1,2.1
	C72.8,109.5,71.9,110.4,70.8,110.4z"/>
<path fill="#18D28E" d="M58.4,110.4h-2.1c-1.1,0-2.1-0.9-2.1-2.1c0-1.1,0.9-2.1,2.1-2.1h2.1c1.1,0,2.1,0.9,2.1,2.1
	C60.5,109.5,59.5,110.4,58.4,110.4z"/>
<path fill="#18D28E" d="M44,110.4h-2.1c-1.1,0-2.1-0.9-2.1-2.1c0-1.1,0.9-2.1,2.1-2.1H44c1.1,0,2.1,0.9,2.1,2.1
	C46,109.5,45.1,110.4,44,110.4z"/>
<path fill="#18D28E" d="M29.5,110.4h-2.1c-1.1,0-2.1-0.9-2.1-2.1c0-1.1,0.9-2.1,2.1-2.1h2.1c1.1,0,2.1,0.9,2.1,2.1
	C31.6,109.5,30.7,110.4,29.5,110.4z"/>
<path fill="#18D28E" d="M99.6,85.6h-2.1c-1.1,0-2.1-0.9-2.1-2.1c0-1.1,0.9-2.1,2.1-2.1h2.1c1.1,0,2.1,0.9,2.1,2.1
	C101.7,84.7,100.8,85.6,99.6,85.6z"/>
<path fill="#18D28E" d="M85.2,85.6h-2.1c-1.1,0-2.1-0.9-2.1-2.1c0-1.1,0.9-2.1,2.1-2.1h2.1c1.1,0,2.1,0.9,2.1,2.1
	C87.3,84.7,86.3,85.6,85.2,85.6z"/>
<path fill="#18D28E" d="M70.8,85.6h-2.1c-1.1,0-2.1-0.9-2.1-2.1c0-1.1,0.9-2.1,2.1-2.1h2.1c1.1,0,2.1,0.9,2.1,2.1
	C72.8,84.7,71.9,85.6,70.8,85.6z"/>
<path fill="#18D28E" d="M58.4,85.6h-2.1c-1.1,0-2.1-0.9-2.1-2.1c0-1.1,0.9-2.1,2.1-2.1h2.1c1.1,0,2.1,0.9,2.1,2.1
	C60.5,84.7,59.5,85.6,58.4,85.6z"/>
<path fill="#18D28E" d="M44,85.6h-2.1c-1.1,0-2.1-0.9-2.1-2.1c0-1.1,0.9-2.1,2.1-2.1H44c1.1,0,2.1,0.9,2.1,2.1
	C46,84.7,45.1,85.6,44,85.6z"/>
<path fill="#18D28E" d="M29.5,85.6h-2.1c-1.1,0-2.1-0.9-2.1-2.1c0-1.1,0.9-2.1,2.1-2.1h2.1c1.1,0,2.1,0.9,2.1,2.1
	C31.6,84.7,30.7,85.6,29.5,85.6z"/>
<path fill="#18D28E" d="M99.6,73.2h-2.1c-1.1,0-2.1-0.9-2.1-2.1s0.9-2.1,2.1-2.1h2.1c1.1,0,2.1,0.9,2.1,2.1S100.8,73.2,99.6,73.2z"
	/>
<path fill="#18D28E" d="M85.2,73.2h-2.1c-1.1,0-2.1-0.9-2.1-2.1s0.9-2.1,2.1-2.1h2.1c1.1,0,2.1,0.9,2.1,2.1S86.3,73.2,85.2,73.2z"/>
<path fill="#18D28E" d="M70.8,73.2h-2.1c-1.1,0-2.1-0.9-2.1-2.1s0.9-2.1,2.1-2.1h2.1c1.1,0,2.1,0.9,2.1,2.1S71.9,73.2,70.8,73.2z"/>
<path fill="#18D28E" d="M58.4,73.2h-2.1c-1.1,0-2.1-0.9-2.1-2.1s0.9-2.1,2.1-2.1h2.1c1.1,0,2.1,0.9,2.1,2.1S59.5,73.2,58.4,73.2z"/>
<path fill="#18D28E" d="M44,73.2h-2.1c-1.1,0-2.1-0.9-2.1-2.1s0.9-2.1,2.1-2.1H44c1.1,0,2.1,0.9,2.1,2.1S45.1,73.2,44,73.2z"/>
<path fill="#18D28E" d="M29.5,73.2h-2.1c-1.1,0-2.1-0.9-2.1-2.1s0.9-2.1,2.1-2.1h2.1c1.1,0,2.1,0.9,2.1,2.1S30.7,73.2,29.5,73.2z"/>
<path fill="#18D28E" d="M115.7,104.4c-0.4,0.4-0.9,0.6-1.5,0.6c-0.6,0-1.1-0.2-1.5-0.6c-0.4-0.4-0.6-0.9-0.6-1.5
	c0-0.5,0.2-1.1,0.6-1.5c0.8-0.8,2.1-0.8,2.9,0c0.4,0.4,0.6,0.9,0.6,1.5C116.3,103.5,116.1,104,115.7,104.4z"/>
<path fill="#18D28E" d="M116.3,112.8c-0.3,5.2-3.1,7.9-7.8,7.9h-13c-1.1,0-2.1-0.9-2.1-2.1c0-1.1,0.9-2.1,2.1-2.1h13
	c2,0,3.5-0.3,3.5-4.9c0-1.1,1.1-2.1,2.3-2.1c1.1,0,2.3,0.9,2.3,2.1v0.7C116.6,112.6,116.3,112.7,116.3,112.8z"/>
<path fill="#18D28E" d="M116.7,16.5h-12.5h-1v-1V3.1c0-1.7-1.4-3.1-3.1-3.1s-3.1,1.4-3.1,3.1v12.4v1h-1H32h-1v-1V3.1
	C31,1.4,29.6,0,27.9,0c-1.7,0-3.1,1.4-3.1,3.1v12.4v1h-1H13.3C6,16.5,0,22.5,0,29.8v91c0,7.3,6,13.3,13.3,13.3h103.4
	c7.3,0,13.3-6,13.3-13.3v-91C130,22.5,124,16.5,116.7,16.5z M13.3,22.7h10.5h1v1v10.3c0,1.7,1.4,3.1,3.1,3.1c1.7,0,3.1-1.4,3.1-3.1
	V23.8v-1h1h63.9h1v1v10.3c0,1.7,1.4,3.1,3.1,3.1s3.1-1.4,3.1-3.1V23.8v-1h1h12.5c3.9,0,7,3.2,7,7v20.8H6.3V29.8
	C6.3,25.9,9.4,22.7,13.3,22.7z M116.7,127.9H13.3c-3.9,0-7-3.2-7-7V54.7h117.5v66.1C123.8,124.7,120.6,127.9,116.7,127.9z"/>
</svg>
