<svg version="1.1" id="icon_acc_business" xmlns="http://www.w3.org/2000/svg" xmlns:xlink="http://www.w3.org/1999/xlink"
	 x="0px" y="0px" width="115.2px" height="108.2px" viewBox="0 0 115.2 108.2" enable-background="new 0 0 115.2 108.2"
	 xml:space="preserve">
<path fill="#000000" d="M115.2,106.6v-39c0-8.2-6.6-14.9-14.8-14.9H86.5c-1.2,0-2.4,0.2-3.6,0.5l-0.3,0.1l-0.1-0.3
	c-3.1-6.1-9.3-10-16.1-10h-0.9H49.9H49c-6.9,0-13,3.8-16.2,10l-0.1,0.3l-0.3-0.1c-1.2-0.3-2.5-0.5-3.7-0.5H14.8
	C6.6,52.6,0,59.3,0,67.5v39c0,0.9,0.7,1.6,1.6,1.6s1.6-0.7,1.6-1.6v-39c0-6.4,5.2-11.7,11.6-11.7h13.8c0.8,0,1.7,0.1,2.5,0.3
	l0.4,0.1l-0.1,0.4c-0.4,1.5-0.6,3-0.6,4.5v45.4c0,0.9,0.7,1.6,1.6,1.6c0.9,0,1.6-0.7,1.6-1.6V61.2c0-1.8,0.3-3.5,0.9-5.2
	c0,0,0-0.1,0.1-0.1c0-0.1,0-0.1,0.1-0.2c2.1-5.3,7.1-9,12.7-9.4l0.4,0v0.4v7.3c0,0.9,0.7,1.6,1.6,1.6h2h0.5L52.3,56l-5.4,39.9
	c-0.1,0.6,0.1,1.1,0.6,1.5l9.2,7.4c0.3,0.2,0.6,0.4,1,0.4c0.4,0,0.7-0.1,1-0.4l9.2-7.4c0.4-0.4,0.7-0.9,0.6-1.5L63.1,56L63,55.5h0.5
	h2c0.9,0,1.6-0.7,1.6-1.6v-7.3v-0.4l0.4,0c5.6,0.4,10.6,4.1,12.7,9.4c0,0.1,0,0.1,0.1,0.2c0,0.1,0.1,0.1,0.1,0.2
	c0.6,1.6,0.9,3.4,0.9,5.1v45.4c0,0.9,0.7,1.6,1.6,1.6s1.6-0.7,1.6-1.6V61.2c0-1.5-0.2-3.1-0.6-4.5l-0.1-0.4l0.4-0.1
	c0.8-0.2,1.6-0.3,2.4-0.3h13.8c6.4,0,11.6,5.2,11.6,11.7v39c0,0.9,0.7,1.6,1.6,1.6S115.2,107.5,115.2,106.6z M65.1,95.2l0,0.2
	L65,95.5l-7.1,5.7l-0.3,0.2l-0.3-0.2l-7.1-5.7l-0.2-0.1l0-0.2l5.3-39.3l0-0.3h0.3h3.5h0.3l0,0.3L65.1,95.2z M63.8,46.6v5.4v0.4h-0.4
	h-2.3h-7h-2.3h-0.4v-0.4v-5.4v-0.4h0.4h11.5h0.4V46.6z"/>
<path fill="#000000" d="M93.5,18.3c-8.4,0-15.2,6.9-15.2,15.4c0,8.5,6.8,15.3,15.2,15.3c8.4,0,15.2-6.9,15.2-15.3
	C108.8,25.2,101.9,18.3,93.5,18.3z M93.5,45.8c-6.6,0-12-5.4-12-12.1s5.4-12.1,12-12.1c6.6,0,12,5.4,12,12.1S100.2,45.8,93.5,45.8z"
	/>
<path fill="#000000" d="M21.7,49c8.4,0,15.2-6.9,15.2-15.4c0-8.5-6.8-15.4-15.2-15.4c-8.4,0-15.2,6.9-15.2,15.4
	C6.4,42.1,13.3,49,21.7,49z M21.7,21.5c6.6,0,12,5.4,12,12.1s-5.4,12.1-12,12.1c-6.6,0-12-5.4-12-12.1S15,21.5,21.7,21.5z"/>
<path fill="#000000" d="M57.6,0C47.3,0,38.9,8.4,38.9,18.8c0,10.4,8.4,18.8,18.7,18.8c10.3,0,18.7-8.4,18.7-18.8
	C76.3,8.4,67.9,0,57.6,0z M57.6,34.3c-8.5,0-15.5-7-15.5-15.5c0-8.6,6.9-15.6,15.5-15.6c8.5,0,15.5,7,15.5,15.6
	C73,27.4,66.1,34.3,57.6,34.3z"/>
</svg>
