<svg version="1.1" id="icon_workers" xmlns="http://www.w3.org/2000/svg" xmlns:xlink="http://www.w3.org/1999/xlink" x="0px"
	 y="0px" width="124px" height="124px" viewBox="0 0 124 124" enable-background="new 0 0 124 124" xml:space="preserve">
<path fill="#007AFF" d="M83.3,82.9c0-2.3-1.4-5.1-4.2-5.8l-6.4-1.7l-8.8,5.2v4.7l18.8,0c0.4,0,0.6-0.2,0.6-0.3V82.9z M72.8,47.9
	c0.5-3.9,0-7.2-0.5-9.1c-2.1,0-4.3-0.5-6.4-1c-3.9-0.9-7.6-1.8-10.5,0.5c0,0,0,0,0,0c0,0-0.1,0.1-0.1,0.1c0,0-0.1,0-0.1,0
	c0,0-0.1,0-0.1,0.1c0,0-0.1,0-0.1,0c0,0-0.1,0-0.1,0c0,0-0.1,0-0.1,0c0,0,0,0-0.1,0c0,0-0.1,0-0.1,0c0,0,0,0-0.1,0c0,0-0.1,0-0.1,0
	c0,0,0,0-0.1,0c-0.1,0-0.1,0-0.2,0c0,0,0,0,0,0c-2.8,0-3.8,2.5-3.8,4.6c0,0.7,0.1,1.5,0.2,2.4c0,0,0-0.1,0-0.1c0,0,0,0,0-0.1
	c0,0,0-0.1,0.1-0.1c0,0,0,0,0-0.1c0,0,0,0,0-0.1c0,0,0-0.1,0.1-0.1c0,0,0,0,0,0c0,0,0.1-0.1,0.1-0.1c0,0,0,0,0,0
	c0,0,0.1-0.1,0.1-0.1c0,0,0,0,0,0c0,0,0.1-0.1,0.1-0.1c0,0,0.1,0,0.1-0.1c0,0,0,0,0.1,0c0,0,0.1,0,0.1-0.1c0,0,0,0,0,0
	c0,0,0.1,0,0.1,0c0,0,0,0,0.1,0c0,0,0.1,0,0.1,0c0,0,0.1,0,0.1,0c0,0,0,0,0.1,0c0,0,0.1,0,0.1,0c0,0,0,0,0.1,0c0,0,0.1,0,0.1,0
	c0,0,0,0,0,0C62.2,44.6,69.6,46.8,72.8,47.9z M51.4,75.3L44.8,77c-2.7,0.8-4.2,3.5-4.2,5.8V85c0,0.1,0.2,0.3,0.6,0.3l18.8,0v-4.7
	L51.4,75.3z M71.7,56v-3.2c0,0,0,0,0,0v-1.1c-2.5-0.9-9.1-3-17.9-3.2c-0.6,1.8-1.4,4.6-1.4,6.5v0.7c0,6.4,4.5,12.1,9.7,12.1
	c2.4,0,4.7-1.1,6.4-3c0,0,0,0,0,0C70.4,62.5,71.7,59.4,71.7,56z M62,77.2l6.7-4c-0.5-0.7-0.9-1.5-0.9-2.4v-0.7
	c-1.8,1-3.8,1.5-5.8,1.5c-2.1,0-4.1-0.6-5.9-1.7l0,0.8c0,0.9-0.3,1.7-0.8,2.4L62,77.2z M82.7,89.1l-20.7,0c0,0,0,0,0,0c0,0,0,0,0,0
	l-20.7,0c-2.5,0-4.5-1.9-4.5-4.2v-2.1c0-3.8,2.4-8.3,7-9.6c0,0,0,0,0,0l7.2-1.9c0.6-0.2,1.1-0.5,1.2-0.7l0-4.2
	c-2.3-2.9-3.8-6.7-3.8-10.9V54c-0.4-1.3-1.9-7.3-1.9-10.7c0-4.6,2.9-8.1,7-8.4c4.2-3,9-1.9,13.3-0.9c2.4,0.6,4.7,1.1,6.6,0.9
	c0,0,0,0,0,0c0,0,0.1,0,0.1,0c0,0,0,0,0.1,0c0,0,0.1,0,0.1,0c0,0,0.1,0,0.1,0c0,0,0.1,0,0.1,0c0,0,0.1,0,0.1,0c0,0,0.1,0,0.1,0
	c0,0,0.1,0,0.1,0c0,0,0,0,0.1,0c0,0,0.1,0,0.1,0c0,0,0,0,0.1,0c0,0,0.1,0,0.1,0c0,0,0.1,0,0.1,0c0,0,0.1,0,0.1,0c0,0,0.1,0,0.1,0.1
	c0,0,0,0,0.1,0c0,0,0.1,0.1,0.1,0.1c0,0,0,0,0,0c0,0,0.1,0.1,0.1,0.1c0,0,0,0,0.1,0.1c0,0,0,0.1,0.1,0.1c0,0,0,0,0.1,0.1
	c0,0,0,0,0,0.1c0,0,0,0.1,0.1,0.1c0,0,0,0,0,0.1c0,0,0,0.1,0.1,0.1c0,0,0,0,0,0c0.9,2,2.6,9,0.2,17V56c0,4-1.4,7.8-3.8,10.8
	c0,0,0,0,0,0l0,3.9c0.1,0.2,0.6,0.5,1.2,0.7l7.2,1.9c0,0,0,0,0,0c4.6,1.3,7,5.8,7,9.6V85C87.2,87.3,85.2,89.1,82.7,89.1z
	 M120.1,58.1c0-2.1-1.7-3.9-3.9-3.9h-4.8c-0.9,0-1.7-0.7-1.9-1.6c-1.2-6.4-3.7-12.3-7.3-17.7c-0.5-0.8-0.4-1.8,0.2-2.5l3.4-3.4
	c1.5-1.5,1.5-4,0-5.5l-5.5-5.5c-1.5-1.5-4-1.5-5.5,0l-3.4,3.4c-0.7,0.7-1.7,0.8-2.5,0.2c-5.4-3.6-11.3-6.1-17.7-7.3
	c-0.9-0.2-1.6-1-1.6-1.9V7.7c0-2.1-1.7-3.9-3.9-3.9h-7.8c-2.1,0-3.9,1.7-3.9,3.9v4.8c0,0.9-0.7,1.7-1.6,1.9
	c-6.4,1.2-12.3,3.7-17.7,7.3c-0.8,0.5-1.8,0.4-2.5-0.2l-3.4-3.4c-1.5-1.5-4-1.5-5.5,0l-5.5,5.5c-1.5,1.5-1.5,4,0,5.5l3.4,3.4
	c0.7,0.7,0.8,1.7,0.2,2.5c-3.6,5.4-6.1,11.3-7.3,17.7c-0.2,0.9-1,1.6-1.9,1.6H7.7c-2.1,0-3.9,1.7-3.9,3.9v7.8c0,2.1,1.7,3.9,3.9,3.9
	h4.8c0.9,0,1.7,0.7,1.9,1.6c1.2,6.4,3.7,12.3,7.3,17.7c0.5,0.8,0.4,1.8-0.2,2.5l-3.4,3.4c-1.5,1.5-1.5,4,0,5.5l5.5,5.5
	c1.5,1.5,4,1.5,5.5,0l3.4-3.4c0.4-0.4,0.9-0.6,1.4-0.6c0.4,0,0.8,0.1,1.1,0.3c5.4,3.6,11.3,6.1,17.7,7.3c0.9,0.2,1.6,1,1.6,1.9v4.8
	c0,2.1,1.7,3.9,3.9,3.9h7.8c2.1,0,3.9-1.7,3.9-3.9v-4.8c0-0.9,0.7-1.7,1.6-1.9c6.4-1.2,12.3-3.7,17.7-7.3c0.8-0.5,1.8-0.4,2.5,0.2
	l3.4,3.4c1.5,1.5,4,1.5,5.5,0l5.5-5.5c1.5-1.5,1.5-4,0-5.5l-3.4-3.4c-0.7-0.7-0.8-1.7-0.2-2.5c3.6-5.4,6.1-11.3,7.3-17.7
	c0.2-0.9,1-1.6,1.9-1.6h4.8c2.1,0,3.9-1.7,3.9-3.9V58.1z M116.2,73.6H113c-1.3,5.8-3.6,11.2-6.7,16.2l2.3,2.3c3,3,3,7.9,0,11
	l-5.5,5.5c-3,3-7.9,3-11,0l-2.3-2.3c-5,3.2-10.4,5.4-16.2,6.7v3.2c0,4.3-3.5,7.7-7.7,7.7h-7.8c-4.3,0-7.7-3.5-7.7-7.7V113
	c-5.8-1.3-11.2-3.6-16.2-6.7l-2.3,2.3c-3,3-7.9,3-11,0l-5.5-5.5c-3-3-3-7.9,0-11l2.3-2.3c-3.2-5-5.4-10.4-6.7-16.2H7.7
	c-4.3,0-7.7-3.5-7.7-7.7v-7.8c0-4.3,3.5-7.7,7.7-7.7H11c1.3-5.8,3.6-11.2,6.7-16.2l-2.3-2.3c-3-3-3-7.9,0-11l5.5-5.5c3-3,7.9-3,11,0
	l2.3,2.3c5-3.2,10.4-5.4,16.2-6.7V7.7c0-4.3,3.5-7.7,7.7-7.7h7.8c4.3,0,7.7,3.5,7.7,7.7V11c5.8,1.3,11.2,3.6,16.2,6.7l2.3-2.3
	c3-3,7.9-3,11,0l5.5,5.5c3,3,3,7.9,0,11l-2.3,2.3c3.2,5,5.4,10.4,6.7,16.2h3.2c4.3,0,7.7,3.5,7.7,7.7v7.8
	C124,70.1,120.5,73.6,116.2,73.6z M97.7,42.3c-0.3,0.2-0.7,0.3-1,0.3c-0.6,0-1.3-0.3-1.7-0.9c-0.8-1.3-1.6-2.5-2.6-3.7
	c-0.7-0.8-0.5-2.1,0.3-2.7c0.8-0.7,2.1-0.5,2.7,0.3c1,1.3,2,2.6,2.8,4C98.9,40.6,98.6,41.8,97.7,42.3z M62,104.6
	c-23.5,0-42.6-19.1-42.6-42.6S38.5,19.4,62,19.4c10.1,0,19.9,3.6,27.6,10.1c0.8,0.7,0.9,1.9,0.2,2.7c-0.7,0.8-1.9,0.9-2.7,0.2
	c-7-5.9-15.9-9.2-25.1-9.2c-21.4,0-38.7,17.4-38.7,38.7s17.4,38.7,38.7,38.7c21.4,0,38.7-17.4,38.7-38.7c0-4.4-0.7-8.8-2.2-12.9
	c-0.4-1,0.2-2.1,1.2-2.5c1-0.4,2.1,0.2,2.5,1.2c1.6,4.6,2.4,9.3,2.4,14.2C104.6,85.5,85.5,104.6,62,104.6z"/>
</svg>
