<svg version="1.1" id="icon_reject" xmlns="http://www.w3.org/2000/svg" xmlns:xlink="http://www.w3.org/1999/xlink" x="0px"
	 y="0px" width="36.3px" height="36.3px" viewBox="0 0 36.3 36.3" enable-background="new 0 0 36.3 36.3" xml:space="preserve">
<path fill="#F8576E" d="M18.1,0C8.1,0,0,8.1,0,18.1c0,4.8,1.9,9.3,5.2,12.7c0,0,0.1,0.1,0.1,0.1l0.1,0.1l0,0
	c3.4,3.4,7.9,5.2,12.7,5.2c10,0,18.1-8.1,18.1-18.1S28.2,0,18.1,0z M18.1,31.7c-2.8,0-5.5-0.9-7.8-2.5l18.8-18.8
	c1.6,2.3,2.5,5,2.5,7.8C31.7,25.6,25.6,31.7,18.1,31.7z M18.1,4.6c2.8,0,5.5,0.9,7.8,2.5L7.1,25.9c-1.6-2.3-2.5-5-2.5-7.8
	C4.6,10.7,10.7,4.6,18.1,4.6z"/>
</svg>
