<?xml version="1.0" encoding="utf-8"?>
<!-- Generator: Adobe Illustrator 19.0.0, SVG Export Plug-In . SVG Version: 6.00 Build 0)  -->
<svg version="1.1" xmlns="http://www.w3.org/2000/svg" xmlns:xlink="http://www.w3.org/1999/xlink" x="0px" y="0px"
	 viewBox="0 0 214.5 207" style="enable-background:new 0 0 214.5 207;" xml:space="preserve">
<style type="text/css">
	.st0{fill:#AA00FF;}
	.st1{fill:#FFFFFF;}
	.st2{fill:none;stroke:#AA00FF;stroke-miterlimit:10;}
</style>
<g id="Layer_3">
	<g>
		<path class="st0" d="M108.9,197.5l-81.5-47.6v-93l81.5-45l81.2,45.9v92L108.9,197.5z M34.4,145.9l74.5,43.5l74.2-43.5V62l-74.2-42
			L34.4,61.1V145.9z"/>
	</g>
	<g>
		<path class="st0" d="M108.9,183.1l-68.8-40.2V64.4l68.8-37.9l68.5,38.8v77.6L108.9,183.1z M43.1,141.1l65.8,38.5l65.5-38.5V67
			l-65.5-37.1L43.1,66.1V141.1z"/>
	</g>
</g>
<g id="Layer_5">
	<g>
		<path class="st0" d="M56.6,127.1H14.5V81.4h42l-9.9,23.2L56.6,127.1z M21.5,120.1h24.3l-6.9-15.4l7-16.3H21.5V120.1z"/>
	</g>
	<g>
		<path class="st0" d="M161.5,127.1h42.1V81.4h-42l9.9,23.2L161.5,127.1z M196.6,120.1h-24.3l6.9-15.4l-7-16.3h24.4V120.1z"/>
	</g>
</g>
<g id="Layer_6">
	<polygon class="st1" points="21.5,120.1 45.8,120.1 38.9,104.6 45.9,88.4 21.5,88.4 	"/>
</g>
<g id="Layer_7">
	<polygon class="st1" points="196.6,120.1 172.2,120.1 179.1,104.6 172.2,88.4 196.6,88.4 	"/>
</g>
<g id="Layer_9">
	<g>
		<polygon class="st0" points="190.1,141.2 184.9,136.4 198.4,121.9 203.6,127.1 		"/>
	</g>
</g>
<g id="Layer_10">
	<g>
		<polygon class="st0" points="27.9,141.4 33.1,136.6 19.6,122.1 14.4,127.3 		"/>
	</g>
</g>
<g id="Layer_11">
	<g>
		<g>
			<g>
				<path class="st0" d="M109,157.1c-2.3,0-4.4-1.1-5.9-3.1l-41.3-55c-2.7-3.6-2.8-9.3-0.3-13l11.9-17.1c2.3-3.3,7.3-5.8,11.6-5.8
					h48c4.4,0,9.4,2.5,11.6,5.8L156.4,86c2.6,3.8,2.4,9.3-0.3,12.9l-41.3,55C113.4,155.9,111.3,157.1,109,157.1z M85,68.8
					c-2.4,0-5.6,1.5-6.8,3.3L66.4,89.2c-1.1,1.6-1,4.6,0.2,6.2l41.3,55c0.7,1,1.6,1,2.4,0l41.3-55c1.2-1.6,1.3-4.4,0.1-6.1
					l-11.8-17.2c-1.2-1.8-4.4-3.3-6.8-3.3H85z"/>
			</g>
			<g>
				<path class="st0" d="M155.8,93.9H65.9c-0.8,0-1.5-0.7-1.5-1.5c0-0.8,0.7-1.5,1.5-1.5h89.9c0.8,0,1.5,0.7,1.5,1.5
					C157.3,93.2,156.6,93.9,155.8,93.9z"/>
			</g>
			<g>
				<path class="st0" d="M106.7,93.3c-0.4,0-0.7-0.1-1-0.4L78.4,68.1c-0.6-0.5-0.6-1.5-0.1-2.1c0.5-0.6,1.5-0.6,2.1-0.1l27.2,24.9
					c0.6,0.5,0.6,1.5,0.1,2.1C107.5,93.2,107.1,93.3,106.7,93.3z"/>
			</g>
			<g>
				<path class="st0" d="M110.4,93.3c-0.4,0-0.8-0.2-1.1-0.5c-0.5-0.6-0.5-1.5,0.1-2.1l14.5-13.2c0.6-0.6,1.5-0.5,2.1,0.1
					c0.5,0.6,0.5,1.5-0.1,2.1l-14.5,13.2C111.1,93.2,110.7,93.3,110.4,93.3z"/>
			</g>
			<g>
				<path class="st0" d="M128.6,76.6c-0.4,0-0.8-0.2-1.1-0.5c-0.5-0.6-0.5-1.5,0.1-2.1l1-0.9c0.6-0.5,1.5-0.5,2.1,0.1
					c0.5,0.6,0.5,1.5-0.1,2.1l-1,0.9C129.4,76.5,129,76.6,128.6,76.6z"/>
			</g>
			<g>
				<path class="st0" d="M133.2,72.5c-0.4,0-0.8-0.2-1.1-0.5c-0.5-0.6-0.5-1.5,0.1-2.1l4.4-4c0.6-0.6,1.5-0.5,2.1,0.1
					c0.5,0.6,0.5,1.5-0.1,2.1l-4.4,4C133.9,72.3,133.6,72.5,133.2,72.5z"/>
			</g>
			<g>
				<path class="st0" d="M87.5,98.3c-0.6,0-1.1-0.4-1.4-0.9l-1.8-4.4c-0.3-0.8,0.1-1.6,0.8-1.9c0.8-0.3,1.6,0.1,1.9,0.8l1.8,4.4
					c0.3,0.8-0.1,1.6-0.8,1.9C87.8,98.3,87.7,98.3,87.5,98.3z"/>
			</g>
			<g>
				<path class="st0" d="M89.4,103.3c-0.6,0-1.1-0.4-1.4-0.9l-0.5-1.3c-0.3-0.8,0.1-1.6,0.8-1.9c0.8-0.3,1.6,0.1,1.9,0.8l0.5,1.3
					c0.3,0.8-0.1,1.6-0.8,1.9C89.8,103.3,89.6,103.3,89.4,103.3z"/>
			</g>
			<g>
				<path class="st0" d="M109,153.3c-0.6,0-1.1-0.4-1.4-0.9l-17.6-44.9c-0.3-0.8,0.1-1.6,0.8-1.9c0.8-0.3,1.6,0.1,1.9,0.8l17.6,44.9
					c0.3,0.8-0.1,1.6-0.8,1.9C109.3,153.2,109.2,153.3,109,153.3z"/>
			</g>
			<g>
				<path class="st0" d="M109,153.3c-0.2,0-0.4,0-0.5-0.1c-0.8-0.3-1.1-1.1-0.8-1.9l22.8-58.7c0.3-0.8,1.1-1.1,1.9-0.8
					c0.8,0.3,1.1,1.1,0.8,1.9l-22.8,58.7C110.1,152.9,109.6,153.3,109,153.3z"/>
			</g>
		</g>
	</g>
</g>
<g id="Layer_8">
	<g>
		<rect x="117.1" y="48.4" class="st0" width="1" height="6"/>
	</g>
	<g>
		<rect x="114.6" y="50.9" class="st0" width="6" height="1"/>
	</g>
	<g>
		<rect x="87.1" y="148.4" class="st0" width="1" height="6"/>
	</g>
	<g>
		<rect x="84.6" y="150.9" class="st0" width="6" height="1"/>
	</g>
	<g>
		<rect x="107.3" y="39.4" class="st0" width="0.7" height="4"/>
	</g>
	<g>
		<rect x="105.6" y="41.1" class="st0" width="4" height="0.7"/>
	</g>
	<circle class="st2" cx="151.9" cy="130.1" r="3"/>
	<circle class="st2" cx="140.9" cy="140.1" r="2.2"/>
	<circle class="st0" cx="59.8" cy="71.6" r="1.2"/>
	<circle class="st0" cx="103.8" cy="166.6" r="1.2"/>
</g>
</svg>
