<svg version="1.1" id="icon_mail" xmlns="http://www.w3.org/2000/svg" xmlns:xlink="http://www.w3.org/1999/xlink" x="0px"
	 y="0px" width="60px" height="47px" viewBox="0 0 60 47" enable-background="new 0 0 60 47" xml:space="preserve">
<path fill="#c8cacc" d="M43.7,31.8L43.7,31.8c-0.2-0.2-0.5-0.3-0.8-0.3c-0.4,0-0.7,0.2-1,0.5v0c-0.2,0.2-0.3,0.5-0.3,0.8
	c0,0.4,0.2,0.7,0.5,1l0.4,0.4l0,0l0,0c0.2,0.2,0.5,0.3,0.8,0.3c0.4,0,0.7-0.2,1-0.5l0,0v0c0.2-0.2,0.3-0.5,0.3-0.8
	c0-0.4-0.2-0.7-0.5-1L43.7,31.8z"/>
<path fill="#c8cacc" d="M13,15l9.4,8.8l-5.5,6.3l0,0c-0.2,0.3-0.3,0.6-0.3,1c0,0.4,0.2,0.8,0.5,1.1h0c0.3,0.2,0.6,0.4,0.9,0.4
	c0.4,0,0.8-0.2,1.1-0.5l0,0l5.5-6.3l3.8,3.6l0,0c0.3,0.2,0.6,0.3,0.9,0.3c0.3,0,0.6-0.1,0.9-0.3l0,0l4.3-3.7l4.7,5.7v0
	c0.3,0.3,0.7,0.5,1.1,0.5c0.3,0,0.6-0.1,0.9-0.3l0,0c0.3-0.3,0.5-0.7,0.5-1.1c0-0.3-0.1-0.6-0.3-0.9l-4.7-5.7L47,15l0,0
	c0.3-0.3,0.5-0.7,0.5-1.1c0-0.3-0.1-0.6-0.3-0.9c-0.3-0.3-0.7-0.5-1.1-0.5c-0.3,0-0.6,0.1-0.9,0.3l0,0l-16,13.5L14.8,12.8l0,0
	c-0.3-0.2-0.6-0.3-0.9-0.3c-0.4,0-0.8,0.2-1.1,0.5v0c-0.2,0.3-0.3,0.6-0.3,0.9C12.5,14.3,12.7,14.7,13,15L13,15z"/>
<path fill="#c8cacc" d="M53.2,0H6.8C3,0,0,3,0,6.8v33.5C0,44,3,47,6.8,47h46.4c3.6,0,6.5-2.8,6.8-6.3h0v-34C60,3,57,0,53.2,0z
	 M4.6,6.8c0-1.2,1-2.1,2.2-2.1h46.4c1.2,0,2.2,1,2.2,2.1v0.5h0v33c0,1.2-1,2.1-2.2,2.1H6.8c-1.2,0-2.2-1-2.2-2.1V6.8z"/>
</svg>
