<svg xmlns="http://www.w3.org/2000/svg" xmlns:xlink="http://www.w3.org/1999/xlink" preserveAspectRatio="xMidYMid" width="34" height="47" viewBox="0 0 34 47">
  <defs>
    <style>
      .cls-1 {
        fill: #007aff;
        fill-rule: evenodd;
      }
    </style>
  </defs>
  <path d="M33.994,41.384 C33.994,46.595 20.986,47.000 17.000,47.000 C13.014,47.000 0.005,46.595 0.005,41.383 C0.005,34.527 4.188,28.299 10.361,25.641 C7.344,21.543 5.466,15.430 5.466,11.533 C5.466,5.173 10.666,0.000 17.058,0.000 C23.450,0.000 28.651,5.173 28.651,11.533 C28.651,15.425 26.777,21.528 23.766,25.626 C29.865,28.320 33.994,34.549 33.994,41.384 ZM17.058,2.808 C12.222,2.808 8.288,6.722 8.288,11.533 C8.288,16.983 12.796,27.118 17.058,27.118 C21.320,27.118 25.828,16.983 25.828,11.533 C25.828,6.722 21.894,2.808 17.058,2.808 ZM22.008,27.926 C20.497,29.330 18.801,30.066 17.058,30.066 C15.274,30.066 13.570,29.343 12.080,27.964 C6.592,30.024 2.828,35.423 2.828,41.383 C2.828,42.157 7.185,44.192 17.000,44.192 C26.813,44.192 31.172,42.157 31.172,41.383 C31.172,35.426 27.444,30.011 22.008,27.926 ZM17.466,6.266 C14.364,6.266 11.840,8.777 11.840,11.864 C11.840,12.252 11.524,12.566 11.134,12.566 C10.744,12.566 10.429,12.252 10.429,11.864 C10.429,8.003 13.586,4.862 17.466,4.862 C17.856,4.862 18.172,5.177 18.172,5.564 C18.172,5.952 17.856,6.266 17.466,6.266 ZM11.876,14.060 C12.010,14.194 12.088,14.376 12.088,14.559 C12.088,14.749 12.011,14.924 11.876,15.057 C11.750,15.191 11.566,15.261 11.382,15.261 C11.191,15.261 11.015,15.190 10.881,15.057 C10.748,14.924 10.676,14.741 10.676,14.559 C10.676,14.376 10.748,14.194 10.881,14.060 C11.142,13.800 11.615,13.800 11.876,14.060 Z" class="cls-1"/>
</svg>
