<svg version="1.1" id="icon_language" xmlns="http://www.w3.org/2000/svg" xmlns:xlink="http://www.w3.org/1999/xlink" x="0px"
	 y="0px" width="47.3px" height="39.3px" viewBox="0 0 47.3 39.3" enable-background="new 0 0 47.3 39.3" xml:space="preserve">
<path fill="#007AFF" d="M6.5,13.9c0,4,3.3,7.3,7.4,7.3c4.1,0,7.4-3.3,7.4-7.3v-1.2h-7.1v2.4h4.5l-0.2,0.5c-0.7,1.9-2.5,3.2-4.7,3.2
	c-2.7,0-5-2.2-5-4.9c0-2.7,2.2-4.9,5-4.9c1,0,1.9,0.3,2.7,0.8l1.5-1.9c-1.2-0.8-2.7-1.3-4.2-1.3C9.8,6.6,6.5,9.9,6.5,13.9z"/>
<path fill="#007AFF" d="M47.3,13.9c0-1.3-1.1-2.3-2.4-2.3h-17L25.1,0H2.4C1.1,0,0,1,0,2.3v23.1c0,1.3,1.1,2.3,2.4,2.3h17l2.7,11.6
	h22.8c1.3,0,2.4-1,2.4-2.3V13.9z M2.8,25.4H2.5v-23h20.7l5.4,23H2.8z M22,28.2l-0.1-0.4h7l-5.3,7.5L22,28.2z M44.8,36.9h-0.3h-0.4
	H25.5l4.1-5.8l0.6,1c1.9-1.2,3.4-2.5,4.6-3.9l0.2-0.3l4,4l1.1-1.1L36,26.7l0.2-0.2c1.7-2.5,2.6-4.9,2.9-6.1l0.1-0.3h2.6v-1.6H36
	v-0.4v-1h-1.6v1.3h-4.9l-1.1-4.5h16.4V36.9z M30.8,24L30.8,24l-0.9-4h7.6l-0.1,0.5c-0.4,1.1-1,2.8-2.3,4.7l-0.2,0.4l-2.7-2.7
	L31,23.9l2.9,2.9L33.7,27c-0.3,0.4-0.7,0.8-1.1,1.2l0,0l0,0c-0.1,0.1-0.2,0.2-0.3,0.3l-2.5,2.4l2-2.8l0-0.1L30.8,24z"/>
</svg>
