<?xml version="1.0" encoding="UTF-8" standalone="no"?>
<!-- Generator: Adobe Illustrator 19.0.0, SVG Export Plug-In . SVG Version: 6.00 Build 0)  -->

<svg
   xmlns:dc="http://purl.org/dc/elements/1.1/"
   xmlns:cc="http://creativecommons.org/ns#"
   xmlns:rdf="http://www.w3.org/1999/02/22-rdf-syntax-ns#"
   xmlns:svg="http://www.w3.org/2000/svg"
   xmlns="http://www.w3.org/2000/svg"
   xmlns:sodipodi="http://sodipodi.sourceforge.net/DTD/sodipodi-0.dtd"
   xmlns:inkscape="http://www.inkscape.org/namespaces/inkscape"
   version="1.1"
   id="Layer_1"
   x="0px"
   y="0px"
   viewBox="0 0 57.799999 57.799999"
   xml:space="preserve"
   inkscape:version="0.91 r13725"
   sodipodi:docname="icon-answer-5-answered.svg"
   width="57.799999"
   height="57.799999"><metadata
     id="metadata13"><rdf:RDF><cc:Work
         rdf:about=""><dc:format>image/svg+xml</dc:format><dc:type
           rdf:resource="http://purl.org/dc/dcmitype/StillImage" /><dc:title></dc:title></cc:Work></rdf:RDF></metadata><defs
     id="defs11" /><sodipodi:namedview
     pagecolor="#ffffff"
     bordercolor="#666666"
     borderopacity="1"
     objecttolerance="10"
     gridtolerance="10"
     guidetolerance="10"
     inkscape:pageopacity="0"
     inkscape:pageshadow="2"
     inkscape:window-width="656"
     inkscape:window-height="480"
     id="namedview9"
     showgrid="false"
     fit-margin-top="0"
     fit-margin-left="0"
     fit-margin-right="0"
     fit-margin-bottom="0"
     inkscape:zoom="3.9333333"
     inkscape:cx="28.299999"
     inkscape:cy="29"
     inkscape:window-x="0"
     inkscape:window-y="0"
     inkscape:window-maximized="0"
     inkscape:current-layer="Layer_1" /><style
     type="text/css"
     id="style3">
	.st0{fill:none;stroke:#FFFFFF;stroke-width:3;stroke-miterlimit:10;}
	.st1{fill:none;stroke:#FFFFFF;stroke-width:1.2;stroke-miterlimit:10;}
	.st2{fill-rule:evenodd;clip-rule:evenodd;fill:none;stroke:#FFFFFF;stroke-width:1.8;stroke-miterlimit:10;}
</style><circle
     id="XMLID_20_"
     class="st0"
     cx="28.9"
     cy="28.9"
     r="27.4"
     style="fill:none;stroke:#ffffff;stroke-width:3;stroke-miterlimit:10" /><path
     id="XMLID_6_"
     class="st1"
     d="m 18.399999,18.899999 c -2.1,0 -3.8,1.7 -3.8,3.9 0,2.2 1.7,3.9 3.8,3.9 2.1,0 3.8,-1.7 3.8,-3.9 0,-2.2 -1.7,-3.9 -3.8,-3.9 z m 0,7.2 c -1.8,0 -3.3,-1.5 -3.3,-3.4 0,-1.9 1.5,-3.4 3.3,-3.4 1.8,0 3.3,1.5 3.3,3.4 0.1,1.9 -1.4,3.4 -3.3,3.4 z"
     inkscape:connector-curvature="0"
     style="fill:none;stroke:#ffffff;stroke-width:1.20000005;stroke-miterlimit:10" /><path
     id="XMLID_2_"
     class="st1"
     d="m 39.399999,18.899999 c -2.1,0 -3.8,1.7 -3.8,3.9 0,2.2 1.7,3.9 3.8,3.9 2.1,0 3.8,-1.7 3.8,-3.9 0,-2.2 -1.7,-3.9 -3.8,-3.9 z m 0,7.2 c -1.8,0 -3.3,-1.5 -3.3,-3.4 0,-1.9 1.5,-3.4 3.3,-3.4 1.8,0 3.3,1.5 3.3,3.4 0.1,1.9 -1.4,3.4 -3.3,3.4 z"
     inkscape:connector-curvature="0"
     style="fill:none;stroke:#ffffff;stroke-width:1.20000005;stroke-miterlimit:10" /><path
     id="XMLID_4_"
     class="st2"
     d="m 8.7999992,31.599999 c 0,0 11.1999998,0 19.9999998,0 11,0 20,0 20,0 0,0 -2.8,17.6 -20,17.6 -17,0 -19.9999998,-17.6 -19.9999998,-17.6 z"
     inkscape:connector-curvature="0"
     style="clip-rule:evenodd;fill:none;fill-rule:evenodd;stroke:#ffffff;stroke-width:1.79999995;stroke-miterlimit:10" /></svg>