<svg version="1.1" id="icon_person" xmlns="http://www.w3.org/2000/svg" xmlns:xlink="http://www.w3.org/1999/xlink" x="0px"
	 y="0px" width="43px" height="79px" viewBox="0 0 43 79" enable-background="new 0 0 43 79" xml:space="preserve">
<path fill="#8D8F92" d="M26.1,37.1h-9.1v4.2h1.8h5.5h1.8V37.1z M15.9,67.1l5.6,4.5l5.6-4.5l-4.2-22.6h-2.8L15.9,67.1z M41.4,79
	c-0.9,0-1.6-0.7-1.6-1.6V48.6c0-6.1-4.7-11-10.6-11.5v5.8c0,0.9-0.7,1.6-1.6,1.6h-1.6l4.3,23c0.1,0.6-0.1,1.1-0.6,1.5l-7.3,5.8
	c-0.3,0.2-0.6,0.3-1,0.3c-0.3,0-0.7-0.1-1-0.3L13.2,69c-0.4-0.3-0.7-0.9-0.6-1.5l4.3-23h-1.6c-0.9,0-1.6-0.7-1.6-1.6v-5.8
	C7.8,37.6,3.2,42.5,3.2,48.6v28.8c0,0.9-0.7,1.6-1.6,1.6S0,78.3,0,77.4V48.6c0-8.1,6.6-14.7,14.7-14.7h0.7h12.3h0.7
	c8.1,0,14.7,6.6,14.7,14.7v28.8C43,78.3,42.3,79,41.4,79z M21.5,3.2c-6.6,0-11.9,5.4-11.9,12c0,6.6,5.3,12,11.9,12s11.9-5.4,11.9-12
	C33.4,8.6,28,3.2,21.5,3.2z M21.5,30.3c-8.3,0-15.1-6.8-15.1-15.1C6.4,6.8,13.1,0,21.5,0s15.1,6.8,15.1,15.1
	C36.5,23.5,29.8,30.3,21.5,30.3z"/>
</svg>
