<svg version="1.1" id="icon_bell" xmlns="http://www.w3.org/2000/svg" xmlns:xlink="http://www.w3.org/1999/xlink" x="0px" y="0px"
	 width="46px" height="48px" viewBox="0 0 46 48" enable-background="new 0 0 46 48" xml:space="preserve">
<path fill="#007AFF" d="M23.1,6.7C23.1,6.7,23,6.7,23.1,6.7c-0.5,0-0.9-0.1-1.3-0.1c-0.4,0-0.7-0.3-0.7-0.7s0.3-0.7,0.7-0.7
	c0.4,0,0.9,0,1.3,0.1c0.4,0,0.7,0.4,0.6,0.8C23.8,6.4,23.4,6.7,23.1,6.7z M35.1,20c-0.4,0-0.7-0.3-0.7-0.7c0-5.1-3-9.6-7.5-11.7
	c-0.4-0.2-0.5-0.6-0.4-0.9s0.6-0.5,0.9-0.4c5.1,2.3,8.4,7.4,8.4,13C35.8,19.7,35.5,20,35.1,20z M39.6,32.2c-0.8,0-1.4-0.6-1.4-1.4
	V17.5c0-8.1-6.7-14.7-14.6-14.7h-1c-7.9,0-14.1,6.6-14.1,14.7v13.3c0,0.8-0.6,1.4-1.4,1.4c-0.8,0-1.4-0.6-1.4-1.4V17.5
	C5.7,7.9,13.1,0,22.6,0h1C33.1,0,41,7.9,41,17.5v13.3C41,31.6,40.4,32.2,39.6,32.2z M43.2,35.3c0-1.7-1.3-3-3-3H5.8
	c-1.7,0-3,1.4-3,3v0.4c0,1.7,1.3,3,3,3h34.3c1.7,0,3-1.4,3-3V35.3z M40.2,41.6H5.8c-3.2,0-5.8-2.6-5.8-5.9v-0.4
	c0-3.3,2.6-5.9,5.8-5.9h34.3c3.2,0,5.8,2.6,5.8,5.9v0.4C46,38.9,43.4,41.6,40.2,41.6z M24.2,48h-2.8c-5.9,0-6.5-2.1-6.5-7.3v-0.6
	c0-0.8,0.6-1.4,1.4-1.4c0.8,0,1.4,0.6,1.4,1.4v0.6c0,4.1,0,4.4,3.7,4.4h2.8c4,0,4.8-0.5,4.8-4.4v-0.6c0-0.8,0.6-1.4,1.4-1.4
	c0.8,0,1.4,0.6,1.4,1.4v0.6C31.8,46.2,29.8,48,24.2,48z"/>
</svg>
