<svg xmlns="http://www.w3.org/2000/svg" xmlns:xlink="http://www.w3.org/1999/xlink" preserveAspectRatio="xMidYMid" width="34" height="34" viewBox="0 0 34 34">
  <defs>
    <style>
      .cls-1 {
        fill: #f8576e;
        fill-rule: evenodd;
      }
    </style>
  </defs>
  <path d="M17.000,34.004 C7.624,34.004 -0.004,26.376 -0.004,17.000 C-0.004,7.624 7.624,-0.004 17.000,-0.004 C26.376,-0.004 34.004,7.624 34.004,17.000 C34.004,26.376 26.376,34.004 17.000,34.004 ZM17.000,2.911 C9.231,2.911 2.911,9.231 2.911,17.000 C2.911,24.768 9.231,31.089 17.000,31.089 C24.768,31.089 31.089,24.768 31.089,17.000 C31.089,9.231 24.768,2.911 17.000,2.911 ZM23.580,23.581 C23.295,23.866 22.922,24.008 22.549,24.008 C22.176,24.008 21.803,23.866 21.518,23.581 L17.000,19.062 L12.481,23.581 C12.197,23.866 11.824,24.008 11.451,24.008 C11.078,24.008 10.705,23.866 10.420,23.581 C9.851,23.012 9.851,22.090 10.420,21.520 L14.939,17.001 L10.420,12.482 C9.851,11.913 9.851,10.991 10.420,10.421 C10.990,9.852 11.912,9.852 12.481,10.421 L17.000,14.940 L21.518,10.421 C22.087,9.852 23.010,9.852 23.580,10.421 C24.149,10.991 24.149,11.913 23.580,12.482 L19.061,17.001 L23.580,21.520 C24.149,22.090 24.149,23.012 23.580,23.581 Z" class="cls-1"/>
</svg>
