<svg xmlns="http://www.w3.org/2000/svg" xmlns:xlink="http://www.w3.org/1999/xlink" preserveAspectRatio="xMidYMid" width="50.2" height="50.2" viewBox="0 0 50.2 50.2">
  <defs>
    <style>
      .cls-1 {
        fill: #8d8f92;
        stroke: #8d8f92;
        stroke-width: 0.2px;
        fill-rule: evenodd;
      }
    </style>
  </defs>
  <path d="M50.290,25.290 C50.290,11.513 39.064,0.287 25.287,0.287 C11.510,0.287 0.290,11.513 0.290,25.290 C0.290,32.878 3.733,39.705 9.089,44.293 C9.154,44.358 9.219,44.423 9.343,44.482 C13.677,48.120 19.228,50.287 25.352,50.287 C31.346,50.287 36.897,48.120 41.232,44.612 C41.485,44.547 41.680,44.358 41.804,44.163 C46.977,39.510 50.290,32.814 50.290,25.290 ZM2.587,25.290 C2.587,12.788 12.791,2.584 25.293,2.584 C37.795,2.584 47.999,12.788 47.999,25.290 C47.999,31.414 45.578,36.959 41.621,41.045 C40.984,38.045 39.070,32.943 33.200,29.630 C34.541,27.971 35.302,25.804 35.302,23.507 C35.302,18.021 30.838,13.556 25.352,13.556 C19.866,13.556 15.402,18.021 15.402,23.507 C15.402,25.804 16.228,27.906 17.504,29.630 C11.581,32.943 9.667,38.045 9.095,41.045 C5.073,37.024 2.587,31.414 2.587,25.290 ZM17.640,23.566 C17.640,19.355 21.082,15.912 25.293,15.912 C29.504,15.912 32.946,19.355 32.946,23.566 C32.946,27.776 29.504,31.219 25.293,31.219 C21.082,31.219 17.640,27.776 17.640,23.566 ZM11.132,43.018 C11.262,41.169 12.278,34.916 19.169,31.408 C20.894,32.748 22.996,33.510 25.293,33.510 C27.590,33.510 29.757,32.684 31.482,31.343 C38.308,34.851 39.389,40.975 39.584,42.953 C35.692,46.077 30.720,47.990 25.364,47.990 C19.937,47.996 15.024,46.147 11.132,43.018 Z" class="cls-1"/>
</svg>
