<svg id="icon_bell_rings" xmlns="http://www.w3.org/2000/svg" width="16.57mm" height="16.23mm" viewBox="0 0 46.98 46">
  <defs>
    <style>
      .cls-1 {
        fill: #00aeef;
      }
    </style>
  </defs>
  <title>icon-bell-rings</title>
  <path class="cls-1" d="M46.29,11.32a1.09,1.09,0,0,1-1.39-.63,23.8,23.8,0,0,0-5.28-8.3,1,1,0,0,1,0-1.5,1.09,1.09,0,0,1,1.53,0,25.91,25.91,0,0,1,5.75,9A1.06,1.06,0,0,1,46.29,11.32ZM7.4,2.39a23.79,23.79,0,0,0-5.28,8.3,1.09,1.09,0,0,1-1.38.63A1.06,1.06,0,0,1,.09,10a25.85,25.85,0,0,1,5.75-9,1.09,1.09,0,0,1,1.53,0A1,1,0,0,1,7.4,2.39ZM43.15,20a1.07,1.07,0,0,1-1.08-1.06A19.42,19.42,0,0,0,39.36,9,20.09,20.09,0,0,0,32.21,2,1,1,0,0,1,31.83.52,1.09,1.09,0,0,1,33.31.15,22.21,22.21,0,0,1,41.22,8a21.49,21.49,0,0,1,3,11A1.07,1.07,0,0,1,43.15,20ZM14.81,2A20.07,20.07,0,0,0,7.66,9a19.4,19.4,0,0,0-2.72,9.9,1.08,1.08,0,0,1-2.16,0,21.5,21.5,0,0,1,3-11A22.22,22.22,0,0,1,13.7.15a1.09,1.09,0,0,1,1.48.37A1,1,0,0,1,14.81,2Z" transform="translate(-0.02 0)"/>
  <path class="cls-1" d="M23.07,9H23c-.35,0-.72,0-1.08,0a.64.64,0,1,1,0-1.28c.4,0,.81,0,1.2.06A.64.64,0,0,1,23.07,9Zm11,12a.64.64,0,0,1-.65-.64A11.41,11.41,0,0,0,26.52,9.87.64.64,0,0,1,26.19,9,.65.65,0,0,1,27,8.69a12.69,12.69,0,0,1,7.67,11.63A.64.64,0,0,1,34.06,21Zm4.12,10.92a1.29,1.29,0,0,1-1.29-1.28V18.73A13.36,13.36,0,0,0,23.54,5.58h-.93A12.93,12.93,0,0,0,9.75,18.73V30.6a1.29,1.29,0,0,1-2.59,0V18.73A15.51,15.51,0,0,1,22.61,3h.93A15.93,15.93,0,0,1,39.48,18.73V30.6A1.29,1.29,0,0,1,38.18,31.88Zm3.23,2.73a2.74,2.74,0,0,0-2.75-2.73H7.32a2.74,2.74,0,0,0-2.75,2.73v.32a2.74,2.74,0,0,0,2.75,2.73H38.67a2.74,2.74,0,0,0,2.75-2.73Zm-2.75,5.61H7.32A5.31,5.31,0,0,1,2,34.93v-.32a5.31,5.31,0,0,1,5.33-5.29H38.67A5.31,5.31,0,0,1,44,34.61v.32A5.31,5.31,0,0,1,38.67,40.22ZM24.12,46H21.53c-5.35,0-6-1.92-6-6.52v-.54a1.29,1.29,0,0,1,2.59,0v.54c0,3.7,0,4,3.38,4h2.59c3.63,0,4.37-.48,4.37-4v-.54a1.29,1.29,0,0,1,2.59,0v.54C31.08,44.41,29.2,46,24.12,46Z" transform="translate(-0.02 0)"/>
</svg>
