<?xml version="1.0" encoding="utf-8"?>
<!-- Generator: Adobe Illustrator 19.0.0, SVG Export Plug-In . SVG Version: 6.00 Build 0)  -->
<svg version="1.1" id="Layer_1" xmlns="http://www.w3.org/2000/svg" xmlns:xlink="http://www.w3.org/1999/xlink" x="0px" y="0px"
	 viewBox="0 0 150 150" style="enable-background:new 0 0 150 150;" xml:space="preserve">
<style type="text/css">
	.st0{fill:#2BACE2;}
</style>
<g>
	<g>
		<g id="XMLID_156_">
			<path id="XMLID_157_" class="st0" d="M75,45.1v9.2h-4.1c-1.1,0-1.9,0.9-1.9,1.9s0.9,1.9,1.9,1.9h6c1.1,0,1.9-0.9,1.9-1.9V45.1
				c0-1.1-0.9-1.9-1.9-1.9C75.8,43.2,75,44.1,75,45.1z M76.4,79.2c-0.4,0.6-0.9,1.1-1.2,1.8c-0.4-0.7-0.8-1.2-1.2-1.8
				c-1.4-1.8-3.6-3.4-6.7-3.4c-1,0-1.7,0.8-1.7,1.7v12.5c0,0.9,0.8,1.7,1.7,1.7c3.1,0,5.3-1.6,6.7-3.4c0.5-0.4,0.9-1.2,1.2-2.1
				c0.3,0.8,0.8,1.6,1.2,2.1c1.4,1.8,3.6,3.4,6.7,3.4c1,0,1.7-0.8,1.7-1.7V77.5c0-0.9-0.8-1.7-1.7-1.7
				C79.9,75.8,77.8,77.4,76.4,79.2z M68.9,88v-8.5c2.2,0.9,3.2,3.3,3.5,4.2C72.1,84.8,71.2,87.2,68.9,88z M81.3,88
				c-2.2-0.9-3.2-3.3-3.5-4.2c0.3-0.9,1.3-3.4,3.5-4.2V88z M146.6,142.7l-17.5-32.1c-0.1-1-0.5-2.2-1.4-3.4c0.9-1.2,1.5-2.5,1.5-4
				c0-4.8-5.6-8.2-13.1-10.1c-4.6-8.9-13-16.5-21.6-19.4c-0.1,0-0.1,0-0.2,0l0.1-1.5c0.1-1.1-0.8-2-1.8-2c-1.1-0.1-2,0.8-2,1.8
				L90,80.3L89.3,80c-1-0.5-2.1,0-2.6,0.9c-0.5,1,0,2.1,0.9,2.6L91,85c0.3,0.1,0.5,0.2,0.8,0.2c0.3,0,0.7-0.1,1-0.3
				c0.6-0.3,0.9-0.9,0.9-1.6l0.3-5.7c6.5,2.4,12.7,7.8,16.9,14.4c-3.4-0.5-6.9-0.8-10.4-0.8c-8.8,0-17.9,1.7-23.4,4.9v-4.4
				c0-1.1-0.9-1.9-1.9-1.9c-1.1,0-1.9,0.9-1.9,1.9v7.5c0,0.1,0,0.1,0,0.2c-0.9,1.2-1.4,2.4-1.4,3.8c0,1.5,0.5,2.8,1.5,4
				c-0.5,0.6-0.8,1.2-1,1.7H60.6V98.5c0-1.1-0.9-1.9-1.9-1.9h-7.6c0,0,0,0,0,0c-2.7-2.3-7.7-3.5-12.9-3.6
				c5.4-11.2,15.4-14.7,18-15.4l0.3,5.9c0,0.6,0.4,1.2,0.9,1.6c0.3,0.2,0.6,0.3,1,0.3c0.3,0,0.6-0.1,0.8-0.2l3.3-1.5
				c1-0.5,1.4-1.6,0.9-2.6c-0.5-1-1.6-1.4-2.6-0.9l-0.7,0.3l-0.5-8.4c-0.1-1.1-1-1.9-2-1.8c-1.1,0.1-1.9,1-1.8,2l0.1,1.4
				c0,0,0,0,0,0c-0.6,0.1-15.4,3.6-22,19.6c-6.2,0.7-11.7,3.1-11.7,7.2c0,0.1,0,0.2,0,0.2c0,0,0,0,0,0l0,0.1c0,0.2,0,0.4,0.1,0.6
				l1,6.8h-0.7c-0.6,0-1.2,0.3-1.5,0.7c-1,1.3-5.2,9.3-11.4,21.3c-2.7,5.3-5.3,10.2-6.5,12.4c-0.3,0.6-0.3,1.3,0,1.9
				c0.4,0.6,1,0.9,1.7,0.9h139.9c0.7,0,1.3-0.4,1.7-0.9C147,144,147,143.3,146.6,142.7z M100.6,127.2c-15.3,0-24.7-4.7-24.7-8.1
				c0-0.5,0.2-0.9,0.5-1.4c5.4,3.5,15,5.4,24.2,5.4c9.2,0,18.8-1.9,24.2-5.4c0.3,0.5,0.5,1,0.5,1.4
				C125.3,122.5,115.9,127.2,100.6,127.2z M125.3,127.1c0,3.4-9.4,8.1-24.7,8.1c-15.3,0-24.7-4.7-24.7-8.1c0-0.5,0.2-0.9,0.5-1.4
				c5.4,3.5,15,5.4,24.2,5.4c9.2,0,18.8-1.9,24.2-5.4C125.1,126.2,125.3,126.7,125.3,127.1z M100.6,119.3c-15.3,0-24.7-4.7-24.7-8.1
				c0-0.5,0.2-0.9,0.5-1.4c5.4,3.5,15,5.4,24.2,5.4c9.2,0,18.8-1.9,24.2-5.4c0.3,0.5,0.5,1,0.5,1.4
				C125.3,114.5,115.9,119.3,100.6,119.3z M100.6,95.1c5.3,0,9.8,0.6,13.6,1.4c0.1,0,0.1,0,0.2,0c7,1.7,11,4.4,11,6.6
				c0,3.4-9.4,8.1-24.7,8.1c-15.3,0-24.7-4.7-24.7-8.1C75.9,99.8,85.3,95.1,100.6,95.1z M52.9,101.4c0.1-0.2,0.1-0.4,0.1-0.6l0-0.1
				c0,0,0,0,0,0c0-0.1,0-0.1,0-0.2h3.7v8.5h-5L52.9,101.4z M37.7,96.8c7.4,0,11.4,2.5,11.5,3.5l0,0.1c-0.2,1.1-4.2,3.5-11.5,3.5
				s-11.3-2.4-11.5-3.5l0-0.1C26.2,99.3,30.2,96.8,37.7,96.8z M37.7,127.2c-2.6,0-5.2,0.4-7.2,1.4L27,105.9
				c2.9,1.3,6.8,1.9,10.7,1.9c3.9,0,7.8-0.7,10.7-1.9l-3.4,22.7C42.9,127.7,40.2,127.2,37.7,127.2z M44.2,132.7
				c-0.6,0.6-2.8,1.6-6.5,1.6c-3.7,0-5.9-1-6.5-1.6c0.6-0.6,2.8-1.6,6.5-1.6C41.3,131.1,43.6,132.1,44.2,132.7z M8.3,141.7
				c1.3-2.5,3.1-5.9,5-9.6c3.6-6.9,8.8-17,10.5-20H24l3.2,20.9c0,0,0,0,0,0c0.3,3.5,5.6,5.1,10.5,5.1s10.2-1.6,10.5-5.1c0,0,0,0,0,0
				l3.1-20.2h21c0.2,0.8,0.6,1.7,1.2,2.4c-1.2,1.5-1.5,3-1.5,4c0,1.5,0.5,2.8,1.5,4c-1.2,1.5-1.5,3-1.5,4c0,7.8,14.7,12,28.6,12
				c13.8,0,28.6-4.2,28.6-12c0-1-0.3-2.5-1.5-4c0.9-1.2,1.5-2.5,1.5-4c0-0.1,0-0.3,0-0.4l12.6,23H8.3z M53,54
				c1.7,15.3,13.8,22.1,22.1,22.1S95.5,69.3,97.2,54c2.5-1.3,5.7-4.5,5.6-10.2c0-1.1-0.1-4.5-2.6-5.4c-2.5-0.9-4.9,1.5-5.4,2
				c-0.7,0.8-0.7,2,0.1,2.7c0.8,0.7,2,0.7,2.7-0.1c0.3-0.3,0.8-0.7,1.1-0.9c0.1,0.3,0.2,0.8,0.2,1.8c0.2,5.2-4.4,7.3-5,7.5
				c-0.1,1.3-0.8,3.8-0.8,3.8c-0.7,4.3-2.4,7.6-4.5,10.1l-4.1,4c-3.3,2.2-7,3-9.4,3c-2.4,0-6.9-1.3-8.9-2.6l-4.6-4.4
				c-0.9-0.9-3.7-5.8-4.5-10.1c0,0-0.6-3.7-0.6-4c-0.6-0.2-5.4-2.1-5.2-7.3c0-0.9,0.1-1.5,0.2-1.8c0.3,0.2,0.8,0.5,1.1,0.9
				c0.7,0.8,2,0.8,2.7,0.1c0.8-0.7,0.8-2,0.1-2.7c-0.5-0.5-2.9-3-5.4-2c-2.5,0.9-2.6,4.3-2.6,5.4C47.3,49.5,50.6,52.7,53,54z
				 M50.2,32.7c0.2,0.1,0.4,0.2,0.6,0.3v1.5c0,1.1,0.9,1.9,1.9,1.9s1.9-0.9,1.9-1.9v-2.7c5.4-2,13-3.9,20.4-3.9
				c7.4,0,15,1.9,20.4,3.9v2.7c0,1.1,0.9,1.9,1.9,1.9c1.1,0,1.9-0.9,1.9-1.9V33c0.2-0.1,0.4-0.1,0.6-0.3c0.5-0.4,0.9-1,0.9-1.6V11.5
				c0-0.8-0.4-1.5-1.2-1.8C94,7.2,84.5,4.4,75.1,4.4c-9.3,0-18.9,2.8-24.6,5.3c-0.7,0.3-1.2,1-1.2,1.8v19.6
				C49.3,31.8,49.6,32.4,50.2,32.7z M53.2,12.8c5.5-2.3,13.8-4.5,21.9-4.5c8.1,0,16.4,2.2,21.9,4.5v15.4C91.2,26,83.1,24,75.1,24
				c-8,0-16.1,2-21.9,4.2V12.8z"/>
		</g>
	</g>
</g>
</svg>
