<svg version="1.1" id="jobs_office_clerical"
	 xmlns="http://www.w3.org/2000/svg" xmlns:xlink="http://www.w3.org/1999/xlink" x="0px" y="0px" width="133px" height="140px"
	 viewBox="0 0 133 140" enable-background="new 0 0 133 140" xml:space="preserve">
<path fill="#FAC800" d="M57.1,123.6c-0.3,1.6-0.5,3.1-0.8,4.6l19.5,9.8h2.9c-0.2-0.9-0.4-2.2-0.7-3.8L57.1,123.6z M54.6,138.1h12.6
	l-11.6-5.8C55.2,134.7,54.8,136.8,54.6,138.1z M59.4,110.8l16.1,8.1c-0.3-1.9-0.7-3.9-1-5.7l-14.2-7.1
	C60,107.5,59.7,109.1,59.4,110.8z M76.3,123.7l-17.6-8.9c-0.3,1.6-0.6,3.2-0.8,4.8l19.5,9.8C77,127.6,76.6,125.7,76.3,123.7z
	 M51.8,3.9h27c0.7,0,18.2-0.1,20.3,17.8c0.1,1,1,1.7,1.9,1.7c0.1,0,0.2,0,0.2,0c1.1-0.1,1.8-1.1,1.7-2.2C100.5-0.1,79,0,78.8,0h-27
	c-1.1,0-1.9,0.9-1.9,1.9C49.9,3,50.8,3.9,51.8,3.9z M48.6,11.5h28.6c0.6,0,15.5,0.4,15.5,17.9c0,1.1,0.9,1.9,1.9,1.9
	c1.1,0,1.9-0.9,1.9-1.9c0-21.3-19.2-21.8-19.4-21.8H48.6c-1.1,0-1.9,0.9-1.9,1.9C46.6,10.6,47.5,11.5,48.6,11.5z M36.8,31.7
	C36.8,31.7,36.8,31.7,36.8,31.7c1.1,0,1.9-0.9,2-1.9c0-5.1,1.6-9.7,4.4-13.1c0.7-0.8,0.6-2-0.2-2.7c-0.8-0.7-2.1-0.6-2.7,0.2
	c-3.4,4.1-5.3,9.6-5.3,15.6C34.9,30.8,35.7,31.7,36.8,31.7z M88,44H72.8c0.7,3.2,1.7,6.8,2.8,8c0.8,0.9,2.3,1.4,4.2,1.4
	c2.3,0,4.7-0.8,6.1-1.9C86.9,50.6,87.7,47.2,88,44z M60.6,44H45.4c0.3,3.3,1,6.7,2.1,7.5c1.4,1.1,3.8,1.9,6.1,1.9
	c1.9,0,3.4-0.5,4.2-1.4C58.9,50.8,59.9,47.1,60.6,44z M90,40.1c0.5,0,1,0.2,1.4,0.6C91.8,41,92,41.5,92,42c0,1.6-0.3,9.8-3.6,12.4
	c-2.1,1.7-5.3,2.7-8.5,2.7c-3,0-5.5-0.9-7-2.6c-1.8-2-3-6.3-3.6-9.3h-4.8c-0.6,3-1.8,7.3-3.6,9.3c-1.5,1.7-4,2.6-7,2.6
	c-3.2,0-6.4-1-8.5-2.7c-3.3-2.7-3.6-10.8-3.6-12.4c0-0.5,0.2-1,0.6-1.4c0.4-0.4,0.9-0.6,1.4-0.6h19.5c0.6,0,1.1,0.2,1.5,0.7
	c0.2,0.2,0.3,0.4,0.4,0.7h3.9c0.1-0.2,0.2-0.5,0.4-0.7c0.4-0.4,0.9-0.7,1.5-0.7H90z M105.2,129.4c-1.1,0-1.9,0.9-1.9,1.9v6.7
	c0,1.1,0.9,1.9,1.9,1.9c1.1,0,1.9-0.9,1.9-1.9v-6.7C107.1,130.2,106.2,129.4,105.2,129.4z M94.4,84.5l0.2-3.6c0.1-1.1-0.8-2-1.8-2
	c-1.1-0.1-2,0.8-2,1.8l-0.8,14.1l-9.1-4.3c-1-0.5-2.1,0-2.6,0.9c-0.5,1,0,2.1,0.9,2.6l11.7,5.5c0.3,0.1,0.5,0.2,0.8,0.2
	c0.3,0,0.7-0.1,1-0.3c0.6-0.3,0.9-0.9,0.9-1.6l0.5-9.3c7.8,2.9,35,15.7,35,49.5c0,1.1,0.9,1.9,1.9,1.9c1.1,0,1.9-0.9,1.9-1.9
	C133,100.1,101.1,86.8,94.4,84.5z M27.9,129.4c-1.1,0-1.9,0.9-1.9,1.9v6.7c0,1.1,0.9,1.9,1.9,1.9c1.1,0,1.9-0.9,1.9-1.9v-6.7
	C29.8,130.2,28.9,129.4,27.9,129.4z M54.8,91.4c-0.5-1-1.6-1.4-2.6-0.9l-9.1,4.3l-0.8-14.1c-0.1-1.1-1-1.9-2-1.8
	c-1.1,0.1-1.9,1-1.8,2l0.2,3.6C32,86.8,0,100.1,0,138.1c0,1.1,0.9,1.9,1.9,1.9c1.1,0,1.9-0.9,1.9-1.9c0-34.3,27.1-46.7,35-49.5
	l0.5,9.3c0,0.6,0.4,1.2,0.9,1.6c0.3,0.2,0.7,0.3,1,0.3c0.3,0,0.6-0.1,0.8-0.2L53.9,94C54.8,93.5,55.3,92.4,54.8,91.4z M61.9,94.2
	c1,2.5,3.7,3.6,4.8,3.9c1.1-0.3,3.8-1.4,4.8-3.9H61.9z M75.7,92.2c0,3.5-1.8,5.9-3.8,7.5c0.3,0.9,0.9,4.3,1.7,8.6L61,102.1
	c0.2-1.1,0.4-1.9,0.5-2.3c-2.1-1.6-3.8-4-3.8-7.5c0-1.1,0.9-1.9,1.9-1.9h14.2C74.9,90.3,75.7,91.2,75.7,92.2z M25.9,40
	c0-1.5,0.2-6.1,3.4-7.3c3.2-1.2,6.5,2.1,7.1,2.8c0.7,0.8,0.7,2-0.1,2.7c-0.8,0.7-2,0.7-2.8-0.1c-1-1.1-2.5-1.9-2.9-1.8
	c0,0-0.7,0.6-0.8,3.8c-0.3,8.9,6.7,11.8,7,11.9c0.7,0.3,1.2,0.9,1.2,1.7C40,76.6,58.2,84,66.7,84s26.7-7.4,28.6-30.4
	c0.1-0.7,0.6-1.4,1.3-1.7c0.3-0.1,7.3-2.9,7-11.9c-0.1-3.3-0.8-3.8-0.9-3.8c-0.4-0.1-1.9,0.7-2.9,1.8c-0.7,0.8-2,0.8-2.8,0.1
	c-0.8-0.7-0.8-2-0.1-2.7c0.6-0.7,4-4,7.1-2.8c3.2,1.2,3.3,5.8,3.4,7.3c0.2,8.5-4.9,13.3-8.4,15.1c-2.4,22.6-20.3,32.8-32.4,32.8
	c-12.1,0-29.9-10.2-32.4-32.8C30.8,53.3,25.7,48.5,25.9,40z"/>
</svg>
