<?xml version="1.0" encoding="utf-8"?>
<!-- Generator: Adobe Illustrator 19.0.0, SVG Export Plug-In . SVG Version: 6.00 Build 0)  -->
<svg version="1.1" id="Layer_1" xmlns="http://www.w3.org/2000/svg" xmlns:xlink="http://www.w3.org/1999/xlink" x="0px" y="0px"
	 viewBox="0 0 150 150" style="enable-background:new 0 0 150 150;" xml:space="preserve">
<style type="text/css">
	.st0{fill:#2BACE2;}
	.st1{fill:none;stroke:#FFFFFF;stroke-width:0.7;stroke-miterlimit:10;}
</style>
<g>
	<g id="XMLID_93_">
		<path id="XMLID_94_" class="st0" d="M79.8,116.2c-4.6,0-8.3,3.7-8.3,8.3c0,1.3,1.1,2.4,2.4,2.4c1.3,0,2.4-1.1,2.4-2.4
			c0-1.9,1.6-3.5,3.5-3.5c1.9,0,3.5,1.6,3.5,3.5c0,1.9-1.6,3.5-3.5,3.5c-1.3,0-2.4,1.1-2.4,2.4c0,1.3,1.1,2.4,2.4,2.4
			c4.6,0,8.3-3.7,8.3-8.3C88.1,120,84.4,116.2,79.8,116.2z M129.3,89.3L94,109.9c-3.7-3.5-8.7-5.7-14.2-5.7c-2,0-3.9,0.3-5.8,0.8
			L38.2,41.7C36.6,38.9,34,37,31,36.1c-3-0.8-6.2-0.4-9,1.2c-2.7,1.6-4.7,4.1-5.5,7.2c-0.8,3-0.4,6.2,1.2,9l4.2-2.4
			c-1.9-3.3-0.8-7.6,2.6-9.5c3.3-1.9,7.6-0.8,9.5,2.5l35.6,62.9c-6.1,3.5-10.2,10.1-10.2,17.7c0,11.3,9.2,20.4,20.4,20.4
			c11.3,0,20.4-9.2,20.4-20.4c0-4-1.2-7.7-3.2-10.9l34.7-20.2L129.3,89.3z M79.8,140.2c-8.6,0-15.6-7-15.6-15.6s7-15.6,15.6-15.6
			c8.6,0,15.6,7,15.6,15.6C95.4,133.2,88.4,140.2,79.8,140.2z M91.5,82c0.4,0.8,1.3,1.2,2.1,1.2c0.4,0,0.8-0.1,1.2-0.3l18.5-10.7
			c1.2-0.7,1.6-2.1,0.9-3.3c-0.7-1.2-2.1-1.6-3.3-0.9L92.3,78.7C91.2,79.4,90.8,80.9,91.5,82z M77.2,57.3c0.4,0.8,1.3,1.2,2.1,1.2
			c0.4,0,0.8-0.1,1.2-0.3L99,47.5c1.2-0.7,1.6-2.1,0.9-3.3c-0.7-1.2-2.1-1.6-3.3-0.9L78.1,54C76.9,54.7,76.5,56.2,77.2,57.3z
			 M53.3,31l33.7-19.4l11.8,20.5L83,41.2l-15.8,9.1l-5.5-9.6c-0.7-1.2-2.1-1.6-3.3-0.9c-1.2,0.7-1.6,2.1-0.9,3.3l5.5,9.6l14.3,24.7
			L94,106.3l39.9-23.1l-14.3-24.7l-14.3-24.7L88.7,5L50.9,26.8c-1.2,0.7-1.6,2.1-0.9,3.3C50.6,31.3,52.1,31.7,53.3,31z M127.3,81.5
			L95.7,99.7L83.9,79.2l15.8-9.1l15.8-9.1L127.3,81.5z M113,56.8l-15.8,9.1L81.5,75L69.6,54.5l15.8-9.1l15.8-9.1L113,56.8z M65,33.8
			c0.4,0,0.8-0.1,1.2-0.3l18.5-10.7c1.2-0.7,1.6-2.1,0.9-3.3c-0.7-1.2-2.1-1.6-3.3-0.9L63.8,29.3c-1.2,0.7-1.6,2.1-0.9,3.3
			C63.4,33.4,64.2,33.8,65,33.8z"/>
	</g>
	<g id="XMLID_67_">
		<path id="XMLID_68_" class="st1" d="M79.8,116.2c-4.6,0-8.3,3.7-8.3,8.3c0,1.3,1.1,2.4,2.4,2.4c1.3,0,2.4-1.1,2.4-2.4
			c0-1.9,1.6-3.5,3.5-3.5c1.9,0,3.5,1.6,3.5,3.5c0,1.9-1.6,3.5-3.5,3.5c-1.3,0-2.4,1.1-2.4,2.4c0,1.3,1.1,2.4,2.4,2.4
			c4.6,0,8.3-3.7,8.3-8.3C88.1,120,84.4,116.2,79.8,116.2z M129.3,89.3L94,109.9c-3.7-3.5-8.7-5.7-14.2-5.7c-2,0-3.9,0.3-5.8,0.8
			L38.2,41.7C36.6,38.9,34,37,31,36.1c-3-0.8-6.2-0.4-9,1.2c-2.7,1.6-4.7,4.1-5.5,7.2c-0.8,3-0.4,6.2,1.2,9l4.2-2.4
			c-1.9-3.3-0.8-7.6,2.6-9.5c3.3-1.9,7.6-0.8,9.5,2.5l35.6,62.9c-6.1,3.5-10.2,10.1-10.2,17.7c0,11.3,9.2,20.4,20.4,20.4
			c11.3,0,20.4-9.2,20.4-20.4c0-4-1.2-7.7-3.2-10.9l34.7-20.2L129.3,89.3z M79.8,140.2c-8.6,0-15.6-7-15.6-15.6s7-15.6,15.6-15.6
			c8.6,0,15.6,7,15.6,15.6C95.4,133.2,88.4,140.2,79.8,140.2z M91.5,82c0.4,0.8,1.3,1.2,2.1,1.2c0.4,0,0.8-0.1,1.2-0.3l18.5-10.7
			c1.2-0.7,1.6-2.1,0.9-3.3c-0.7-1.2-2.1-1.6-3.3-0.9L92.3,78.7C91.2,79.4,90.8,80.9,91.5,82z M77.2,57.3c0.4,0.8,1.3,1.2,2.1,1.2
			c0.4,0,0.8-0.1,1.2-0.3L99,47.5c1.2-0.7,1.6-2.1,0.9-3.3c-0.7-1.2-2.1-1.6-3.3-0.9L78.1,54C76.9,54.7,76.5,56.2,77.2,57.3z
			 M53.3,31l33.7-19.4l11.8,20.5L83,41.2l-15.8,9.1l-5.5-9.6c-0.7-1.2-2.1-1.6-3.3-0.9c-1.2,0.7-1.6,2.1-0.9,3.3l5.5,9.6l14.3,24.7
			L94,106.3l39.9-23.1l-14.3-24.7l-14.3-24.7L88.7,5L50.9,26.8c-1.2,0.7-1.6,2.1-0.9,3.3C50.6,31.3,52.1,31.7,53.3,31z M127.3,81.5
			L95.7,99.7L83.9,79.2l15.8-9.1l15.8-9.1L127.3,81.5z M113,56.8l-15.8,9.1L81.5,75L69.6,54.5l15.8-9.1l15.8-9.1L113,56.8z M65,33.8
			c0.4,0,0.8-0.1,1.2-0.3l18.5-10.7c1.2-0.7,1.6-2.1,0.9-3.3c-0.7-1.2-2.1-1.6-3.3-0.9L63.8,29.3c-1.2,0.7-1.6,2.1-0.9,3.3
			C63.4,33.4,64.2,33.8,65,33.8z"/>
	</g>
</g>
</svg>
