<svg version="1.1" id="jobs_carpenters" xmlns="http://www.w3.org/2000/svg" xmlns:xlink="http://www.w3.org/1999/xlink"
	 x="0px" y="0px" width="140px" height="89px" viewBox="0 0 140 89" enable-background="new 0 0 140 89" xml:space="preserve">
<path fill="#ffffff" d="M61.1,27.5c0.2-0.5,0.8-0.8,1.3-0.6L131,53.5c0.5,0.2,0.8,0.8,0.6,1.3c-0.2,0.4-0.5,0.6-0.9,0.6
	c-0.1,0-0.2,0-0.4-0.1L61.7,28.7C61.2,28.5,60.9,28,61.1,27.5z M37.5,40.4c-1-0.4-1.5-1.5-1.1-2.5c0.4-1,1.5-1.5,2.5-1.1l5.5,2.1
	c1,0.4,1.5,1.5,1.1,2.5c-0.3,0.8-1,1.3-1.8,1.3c-0.2,0-0.5,0-0.7-0.1L37.5,40.4z M87.6,20.2c-0.5-1-0.1-2.1,0.9-2.6
	c1-0.5,2.2-0.1,2.6,0.9l2.7,5.2c0.5,1,0.1,2.1-0.9,2.6c-0.3,0.1-0.6,0.2-0.9,0.2c-0.7,0-1.4-0.4-1.8-1.1L87.6,20.2z M103.3,28.2
	l0.9-8.4c0.1-1.1,1.1-1.9,2.2-1.7c1.1,0.1,1.9,1.1,1.7,2.2l-0.9,8.4c-0.1,1-1,1.7-2,1.7c-0.1,0-0.1,0-0.2,0
	C103.9,30.2,103.2,29.2,103.3,28.2z M114.3,34.2c-0.6-0.9-0.4-2.1,0.5-2.7l6.2-4.3c0.9-0.6,2.1-0.4,2.7,0.5c0.6,0.9,0.4,2.1-0.5,2.7
	l-6.2,4.3c-0.3,0.2-0.7,0.4-1.1,0.4C115.3,35.1,114.7,34.8,114.3,34.2z M78.9,76.5c2.3,0,3.8,0.7,4.2,1.1c-0.4,0.4-1.9,1.1-4.2,1.1
	c-2.3,0-3.8-0.7-4.2-1.1C75.1,77.2,76.6,76.5,78.9,76.5z M78.9,82.6c4.8,0,8.2-2.1,8.2-5c0-2.9-3.5-5-8.2-5c-4.8,0-8.2,2.1-8.2,5
	C70.6,80.5,74.1,82.6,78.9,82.6z M112.8,82.6c-1.1,0-2-0.9-2-2c0-1.1,0.9-2,2-2h16.5c1.1,0,2,0.9,2,2c0,1.1-0.9,2-2,2H112.8z
	 M72.6,70.3H56.1c-1.1,0-2-0.9-2-2c0-1.1,0.9-2,2-2h16.5c1.1,0,2,0.9,2,2C74.6,69.4,73.7,70.3,72.6,70.3z M16.2,75.8
	c0-1.1,0.9-2,2-2H62c1.1,0,2,0.9,2,2c0,1.1-0.9,2-2,2H18.2C17.1,77.8,16.2,76.9,16.2,75.8z M93.4,77.8c-1.1,0-2-0.9-2-2V60.9
	c0-1.1,0.9-2,2-2c1.1,0,2,0.9,2,2v14.9C95.3,76.9,94.5,77.8,93.4,77.8z M137.9,87.1c0,1.1-0.9,2-2,2H2c-1.1,0-2-0.9-2-2
	c0-1.1,0.9-2,2-2h133.9C137,85.1,137.9,86,137.9,87.1z M0,57.6c0-1.1,0.9-2,2-2h83.2c1.1,0,2,0.9,2,2c0,1.1-0.9,2-2,2H2
	C0.9,59.6,0,58.7,0,57.6z M139.9,51.9l-7.7,19.5c-0.1,0.2-0.2,0.3-0.3,0.5c0,0,0,0,0,0c0,0-0.1,0.1-0.1,0.1
	c-0.4,0.4-0.9,0.6-1.4,0.6c-0.2,0-0.5,0-0.7-0.1c-0.8-0.3-1.2-1-1.2-1.8c0-0.3,0-0.5,0.1-0.8c0.5-1.3-0.1-2.7-1.4-3.2
	c-1.3-0.5-2.7,0.1-3.2,1.4c-0.1,0.2-0.2,0.4-0.4,0.6c0,0-0.1,0.1-0.1,0.1c-0.1,0.1-0.3,0.2-0.4,0.3c-0.1,0-0.1,0.1-0.2,0.1
	c-0.2,0.1-0.4,0.1-0.6,0.1c0,0,0,0-0.1,0c0,0,0,0,0,0c-0.2,0-0.5,0-0.7-0.1c-1-0.4-1.5-1.5-1.1-2.5c0.2-0.6,0.2-1.3,0-1.9
	c-0.3-0.6-0.7-1.1-1.4-1.3c-1.3-0.5-2.7,0.1-3.2,1.4c-0.1,0.2-0.2,0.4-0.4,0.6c0,0-0.1,0.1-0.1,0.1c-0.1,0.1-0.3,0.2-0.4,0.3
	c-0.1,0-0.1,0.1-0.2,0.1c-0.2,0.1-0.4,0.1-0.6,0.1c0,0,0,0-0.1,0c0,0,0,0,0,0c-0.2,0-0.5,0-0.7-0.1c-1-0.4-1.5-1.5-1.1-2.5
	c0.2-0.6,0.2-1.3,0-1.9c-0.3-0.6-0.7-1.1-1.4-1.3c-0.6-0.2-1.3-0.2-1.9,0c-0.6,0.3-1.1,0.7-1.3,1.3c-0.1,0.2-0.2,0.4-0.4,0.6
	c0,0.1-0.1,0.1-0.2,0.1c-0.1,0.1-0.3,0.2-0.4,0.3c-0.1,0-0.1,0.1-0.2,0.1c-0.2,0.1-0.4,0.1-0.6,0.1c0,0-0.1,0-0.1,0c0,0,0,0,0,0
	c-0.2,0-0.5,0-0.7-0.1c-1-0.4-1.5-1.5-1.1-2.5c0.5-1.3-0.1-2.7-1.4-3.2c-0.6-0.2-1.3-0.2-1.9,0c-0.6,0.3-1.1,0.7-1.3,1.3
	c-0.1,0.2-0.2,0.4-0.4,0.6c0,0-0.1,0.1-0.1,0.1c-0.1,0.1-0.3,0.2-0.4,0.3c-0.1,0-0.1,0.1-0.2,0.1c-0.2,0.1-0.4,0.1-0.6,0.1
	c0,0-0.1,0-0.1,0c0,0,0,0,0,0c-0.2,0-0.5,0-0.7-0.1c-1-0.4-1.5-1.5-1.1-2.5c0.5-1.3-0.1-2.7-1.4-3.2c-1.3-0.5-2.7,0.1-3.2,1.4
	c-0.1,0.2-0.2,0.4-0.4,0.6c0,0-0.1,0.1-0.1,0.1c-0.1,0.1-0.3,0.2-0.4,0.3c-0.1,0-0.1,0.1-0.2,0.1c-0.2,0.1-0.4,0.1-0.6,0.1
	c0,0-0.1,0-0.1,0c0,0,0,0,0,0c-0.2,0-0.5,0-0.7-0.1c-1-0.4-1.5-1.5-1.1-2.5c0.2-0.6,0.2-1.3,0-1.9c-0.3-0.6-0.7-1.1-1.4-1.3
	c-0.6-0.2-1.3-0.2-1.9,0c-0.6,0.3-1.1,0.7-1.3,1.4c-0.1,0.2-0.2,0.4-0.4,0.6c0,0.1-0.1,0.1-0.1,0.1c-0.1,0.1-0.3,0.2-0.4,0.3
	c-0.1,0-0.1,0.1-0.2,0.1c-0.2,0.1-0.4,0.1-0.6,0.1c0,0-0.1,0-0.1,0c0,0,0,0,0,0c-0.2,0-0.5,0-0.7-0.1c-1-0.4-1.5-1.5-1.1-2.5
	c0.2-0.6,0.2-1.3,0-1.9c-0.3-0.6-0.7-1.1-1.4-1.3c-0.6-0.2-1.3-0.2-1.9,0c-0.6,0.3-1.1,0.7-1.3,1.3c-0.1,0.2-0.2,0.4-0.4,0.6
	c0,0.1-0.1,0.1-0.1,0.1c-0.1,0.1-0.3,0.2-0.4,0.3c-0.1,0-0.1,0.1-0.2,0.1c-0.2,0.1-0.4,0.1-0.6,0.1c0,0,0,0-0.1,0c0,0,0,0,0,0
	c-0.2,0-0.5,0-0.7-0.1c-1-0.4-1.5-1.5-1.1-2.5c0.5-1.3-0.1-2.7-1.4-3.2c-0.6-0.2-1.3-0.2-1.9,0c-0.6,0.3-1.1,0.7-1.3,1.3
	c-0.1,0.2-0.2,0.4-0.4,0.6c0,0.1-0.1,0.1-0.1,0.1c-0.1,0.1-0.3,0.2-0.4,0.3c-0.1,0-0.1,0.1-0.2,0.1c-0.2,0.1-0.4,0.1-0.6,0.1
	c0,0-0.1,0-0.1,0c0,0,0,0,0,0c-0.2,0-0.5,0-0.7-0.1c-1-0.4-1.5-1.5-1.1-2.5c0.5-1.3-0.1-2.7-1.4-3.2c-1.3-0.5-2.7,0.1-3.2,1.4
	c-0.4,1-1.6,1.5-2.6,1.1c-1-0.4-1.5-1.5-1.1-2.5c1.3-3.3,5-4.9,8.3-3.6c1.6,0.6,2.8,1.8,3.5,3.3c1.5-0.6,3.2-0.7,4.8,0
	c1.6,0.6,2.8,1.8,3.5,3.3c1.5-0.6,3.2-0.7,4.8,0c1.6,0.6,2.8,1.8,3.5,3.3c1.5-0.6,3.2-0.7,4.8,0c1.6,0.6,2.8,1.8,3.5,3.3
	c1.5-0.6,3.2-0.7,4.8,0c1.6,0.6,2.8,1.8,3.5,3.3c1.5-0.6,3.2-0.7,4.8,0c1.6,0.6,2.8,1.8,3.5,3.3c1.5-0.6,3.2-0.7,4.8,0
	c1.6,0.6,2.8,1.8,3.5,3.3c1.5-0.6,3.2-0.7,4.8,0c1.6,0.6,2.8,1.8,3.5,3.3c1.5-0.6,3.2-0.7,4.8,0c0.8,0.3,1.5,0.8,2.1,1.4l4.8-12.2
	L63.1,23.7c-1-0.4-1.5-1.5-1.1-2.5c0.4-1,1.5-1.5,2.6-1.1l74.2,29.3c0.5,0.2,0.9,0.6,1.1,1C140.1,50.9,140.1,51.4,139.9,51.9z
	 M35,7.9c0.4-1,1.5-1.5,2.6-1.1L60,15.6c0.5,0.2,0.9,0.6,1.1,1c0.2,0.5,0.2,1,0,1.5l-12.3,31c-0.3,0.8-1,1.2-1.8,1.2
	c-0.2,0-0.5,0-0.7-0.1l-22.4-8.8c-1-0.4-1.5-1.5-1.1-2.5c0.4-1,1.5-1.5,2.6-1.1l20.6,8.1l10.9-27.4l-20.6-8.1
	C35.1,10.1,34.6,8.9,35,7.9z M8,23.4l5.5-13.7c1.4-3.7,2.4-5.8,5.3-5.8c1.2,0,2.8,0.4,4.6,1.1c2.8,1.1,4.6,2.4,5.2,3.8
	c0.5,1.2,0.2,2.7-0.3,4.3l-4.8-1.9c-1-0.4-2.2,0.1-2.6,1.1c-0.4,1,0.1,2.1,1.1,2.5l4.8,1.9l-1.5,3.9l-4.8-1.9
	c-1-0.4-2.2,0.1-2.6,1.1c-0.4,1,0.1,2.1,1.1,2.5l4.8,1.9l-1.4,3.6L17.6,26c-1-0.4-2.2,0.1-2.6,1.1c-0.4,1,0.1,2.1,1.1,2.5l4.3,1.7
	c-1.4,1.4-3.3,2.3-5.4,2.3c-0.9,0-1.9-0.2-2.8-0.5C8.4,31.6,6.5,27.2,8,23.4z M10.8,36.8c1.4,0.5,2.8,0.8,4.2,0.8
	c4.7,0,8.9-2.8,10.6-7.2l5.4-13.7c1.2-2.9,2.5-6.2,1.1-9.4c-1-2.4-3.4-4.4-7.3-5.9C22.5,0.4,20.6,0,18.8,0c-5.8,0-7.6,4.6-9,8.3
	L4.3,22C2,27.8,4.9,34.4,10.8,36.8z"/>
</svg>
