<svg version="1.1" id="menu_pin" xmlns="http://www.w3.org/2000/svg" xmlns:xlink="http://www.w3.org/1999/xlink" x="0px"
	 y="0px" width="60.1px" height="60.1px" viewBox="0 0 60.1 60.1" enable-background="new 0 0 60.1 60.1" xml:space="preserve">
<path fill="#00AEEF" d="M34.2,18.3c0.3,0.3,0.6,0.4,1,0.4c0.4,0,0.7-0.1,1-0.4l0.3-0.3l0,0l0,0c0.3-0.3,0.4-0.6,0.4-1
	c0-0.2,0-0.3-0.1-0.5c0.2,0.1,0.3,0.1,0.5,0.1c0.4,0,0.7-0.1,1-0.4l5.9-5.9l0,0c0.2-0.2,0.6-0.4,1-0.4c0.3,0,0.6,0.1,0.8,0.3
	l3.8,3.9c0.3,0.3,0.6,0.4,1,0.4c0.4,0,0.7-0.1,1-0.4c0.3-0.3,0.4-0.6,0.4-1c0-0.4-0.1-0.7-0.4-1L48,8.1C47.2,7.4,46.2,7,45.2,7
	c-1.1,0-2.1,0.4-3,1.2l-5.9,5.9c-0.3,0.3-0.4,0.6-0.4,1c0,0.2,0,0.3,0.1,0.5c-0.2-0.1-0.3-0.1-0.5-0.1c-0.4,0-0.7,0.1-1,0.4
	l-0.3,0.3c-0.3,0.3-0.4,0.6-0.4,1C33.8,17.7,34,18,34.2,18.3L34.2,18.3z"/>
<path fill="#00AEEF" d="M60.1,15c0-2.1-0.8-4-2.2-5.4l-7.5-7.5C49.1,0.7,47.2,0,45.3,0c-2.1,0-4.1,0.8-5.5,2.2L25.4,16.8
	c-2.2-0.6-4.5-0.9-6.7-0.9c-6.6,0-13.1,2.6-17.9,7.5c-0.4,0.4-0.7,1-0.7,1.6v0c0,0.6,0.3,1.2,0.7,1.6c4.2,4.1,9.4,9.4,14.6,14.6
	L1.4,55c-0.5,0.5-0.7,1.1-0.7,1.6c0,0.6,0.2,1.2,0.7,1.6C1.8,58.7,2.4,59,3,59c0.6,0,1.2-0.2,1.6-0.7l13.9-13.8
	c2.6,2.6,5.1,5.2,7.4,7.5v0c3,3,5.5,5.6,7.3,7.4h0c0.4,0.4,1,0.7,1.6,0.7c0.6,0,1.2-0.2,1.6-0.7c4.9-4.9,7.4-11.4,7.4-18
	c0-2.1-0.3-4.1-0.8-6.2L58,20.5l0,0c1.3-1.3,2.1-3.3,2.1-5.3L60.1,15z M45.3,4.7c0.8,0,1.4,0.3,1.8,0.7l0,0l7.5,7.5h0
	c0.5,0.5,0.8,1.3,0.9,2.2v0.1c0,0.9-0.3,1.6-0.7,2l-14,14.1L29.2,19.7c0,0,0,0,0-0.1c0,0,0-0.1,0-0.1l13.9-14
	C43.6,5,44.4,4.7,45.3,4.7z M18.6,20.5c1.9,0,3.8,0.3,5.7,0.8l14.2,14.2c0.6,2,0.9,4,0.9,6c0,4.7-1.6,9.2-4.6,13
	c-1.6-1.6-3.5-3.5-5.6-5.7c-7-7.1-16.4-16.6-23.5-23.7C9.4,22,14,20.5,18.6,20.5z"/>
</svg>
