<svg version="1.1" id="menu_card" xmlns="http://www.w3.org/2000/svg" xmlns:xlink="http://www.w3.org/1999/xlink" x="0px"
	 y="0px" width="61px" height="46px" viewBox="0 0 61 46" enable-background="new 0 0 61 46" xml:space="preserve">
<path fill="#FFFFFF" d="M25.9,35.7H24c-0.5,0-0.9-0.4-0.9-0.9s0.4-0.9,0.9-0.9h1.9c0.5,0,0.9,0.4,0.9,0.9S26.4,35.7,25.9,35.7z
	 M20.3,35.7h-6.6c-0.5,0-0.9-0.4-0.9-0.9s0.4-0.9,0.9-0.9h6.6c0.5,0,0.9,0.4,0.9,0.9S20.8,35.7,20.3,35.7z M10,35.7H6.2
	c-0.5,0-0.9-0.4-0.9-0.9s0.4-0.9,0.9-0.9H10c0.5,0,0.9,0.4,0.9,0.9S10.5,35.7,10,35.7z M59.7,21.6H2.5c-0.5,0-0.9-0.4-0.9-0.9
	s0.4-0.9,0.9-0.9h57.2c0.5,0,0.9,0.4,0.9,0.9S60.2,21.6,59.7,21.6z M59.7,11.3H2.5c-0.5,0-0.9-0.4-0.9-0.9c0-0.5,0.4-0.9,0.9-0.9
	h57.2c0.5,0,0.9,0.4,0.9,0.9C60.6,10.8,60.2,11.3,59.7,11.3z M57.2,6.5c0-1.5-1.2-2.8-2.8-2.8h-48C5,3.8,3.8,5,3.8,6.5v33
	c0,1.5,1.2,2.8,2.8,2.8h48c1.5,0,2.8-1.2,2.8-2.8V6.5z M54.5,46h-48C2.9,46,0,43.1,0,39.5v-33C0,2.9,2.9,0,6.5,0h48
	C58.1,0,61,2.9,61,6.5v33C61,43.1,58.1,46,54.5,46z"/>
</svg>
