<svg version="1.1" id="menu_schedule" xmlns="http://www.w3.org/2000/svg" xmlns:xlink="http://www.w3.org/1999/xlink" x="0px"
	 y="0px" width="61px" height="62px" viewBox="0 0 61 62" enable-background="new 0 0 61 62" xml:space="preserve">
<path fill="#ffffff" d="M54,7.4h-5.2v-5C48.8,1,47.8,0,46.5,0c-1.3,0-2.4,1-2.4,2.3v5H16v-5C16,1,14.9,0,13.6,0
	c-1.3,0-2.4,1-2.4,2.3v5H7c-3.9,0-7,3.1-7,6.9v40.8C0,58.9,3.1,62,7,62h47c3.9,0,7-3.1,7-6.9V14.3C61,10.5,57.9,7.4,54,7.4z
	 M4.8,14.3c0-1.2,1-2.2,2.2-2.2h4.3v4.1c0,1.3,1.1,2.3,2.4,2.3c1.3,0,2.4-1,2.4-2.3v-4.1h28.1v4.1c0,1.3,1.1,2.3,2.4,2.3
	c1.3,0,2.4-1,2.4-2.3v-4.1H54c1.2,0,2.2,1,2.2,2.2v8.8H4.8V14.3z M56.3,55.1c0,1.2-1,2.2-2.2,2.2H7c-1.2,0-2.2-1-2.2-2.2V26h51.5
	V55.1z"/>
<path fill="#ffffff" d="M44.4,55.5h5.9c2.3,0.1,3.9-1.4,4-3.8c0-0.2,0-0.7,0-0.7c0-0.9-0.7-1.4-1.4-1.4c-0.8,0-1.5,0.6-1.5,1.4
	c-0.2,1.9-0.2,1.5-1.1,1.7h-5.9c-0.8,0-1.4,0.6-1.4,1.4S43.6,55.5,44.4,55.5z"/>
<path fill="#ffffff" d="M38.8,39.8h0.9c0.8,0,1.4-0.6,1.4-1.4c0-0.8-0.6-1.4-1.4-1.4h-0.9c-0.8,0-1.4,0.6-1.4,1.4
	C37.3,39.2,38,39.8,38.8,39.8z"/>
<path fill="#ffffff" d="M38.8,45.4h0.9c0.8,0,1.4-0.6,1.4-1.4s-0.6-1.4-1.4-1.4h-0.9c-0.8,0-1.4,0.6-1.4,1.4
	C37.3,44.7,38,45.4,38.8,45.4z"/>
<path fill="#ffffff" d="M38.8,34.3h0.9c0.8,0,1.4-0.6,1.4-1.4c0-0.8-0.6-1.4-1.4-1.4h-0.9c-0.8,0-1.4,0.6-1.4,1.4
	C37.3,33.6,38,34.3,38.8,34.3z"/>
<path fill="#ffffff" d="M32.2,34.3h0.9c0.8,0,1.4-0.6,1.4-1.4c0-0.8-0.6-1.4-1.4-1.4h-0.9c-0.8,0-1.4,0.6-1.4,1.4
	C30.8,33.6,31.4,34.3,32.2,34.3z"/>
<path fill="#ffffff" d="M32.2,39.8h0.9c0.8,0,1.4-0.6,1.4-1.4c0-0.8-0.6-1.4-1.4-1.4h-0.9c-0.8,0-1.4,0.6-1.4,1.4
	C30.8,39.2,31.4,39.8,32.2,39.8z"/>
<path fill="#ffffff" d="M45.3,45.4h0.9c0.8,0,1.4-0.6,1.4-1.4s-0.7-1.4-1.4-1.4h-0.9c-0.8,0-1.4,0.6-1.4,1.4S44.5,45.4,45.3,45.4z"
	/>
<path fill="#ffffff" d="M51.9,48.1L51.9,48.1c0.3,0.3,0.6,0.4,1,0.4c0.4,0,0.7-0.2,1-0.4l0,0l0,0c0.3-0.3,0.4-0.6,0.4-1
	c0-0.4-0.2-0.7-0.4-1l0,0l0,0c-0.3-0.3-0.7-0.4-1-0.4c-0.4,0-0.7,0.1-1,0.4l0,0l0,0c-0.3,0.3-0.4,0.6-0.4,1
	C51.5,47.5,51.6,47.8,51.9,48.1L51.9,48.1z"/>
<path fill="#ffffff" d="M32.2,45.4h0.9c0.8,0,1.4-0.6,1.4-1.4s-0.6-1.4-1.4-1.4h-0.9c-0.8,0-1.4,0.6-1.4,1.4
	C30.8,44.7,31.4,45.4,32.2,45.4z"/>
<path fill="#ffffff" d="M45.3,34.3h0.9c0.8,0,1.4-0.6,1.4-1.4c0-0.8-0.7-1.4-1.4-1.4h-0.9c-0.8,0-1.4,0.6-1.4,1.4
	C43.9,33.6,44.5,34.3,45.3,34.3z"/>
<path fill="#ffffff" d="M45.3,39.8h0.9c0.8,0,1.4-0.6,1.4-1.4c0-0.8-0.7-1.4-1.4-1.4h-0.9c-0.8,0-1.4,0.6-1.4,1.4
	C43.9,39.2,44.5,39.8,45.3,39.8z"/>
<path fill="#ffffff" d="M13.4,45.4h0.9c0.8,0,1.4-0.6,1.4-1.4s-0.6-1.4-1.4-1.4h-0.9c-0.8,0-1.4,0.6-1.4,1.4S12.6,45.4,13.4,45.4z"
	/>
<path fill="#ffffff" d="M20,39.8h0.9c0.8,0,1.4-0.6,1.4-1.4c0-0.8-0.7-1.4-1.4-1.4H20c-0.8,0-1.4,0.6-1.4,1.4
	C18.6,39.2,19.2,39.8,20,39.8z"/>
<path fill="#ffffff" d="M20,45.4h0.9c0.8,0,1.4-0.6,1.4-1.4s-0.6-1.4-1.4-1.4H20c-0.8,0-1.4,0.6-1.4,1.4S19.2,45.4,20,45.4z"/>
<path fill="#ffffff" d="M13.4,34.3h0.9c0.8,0,1.4-0.6,1.4-1.4c0-0.8-0.6-1.4-1.4-1.4h-0.9c-0.8,0-1.4,0.6-1.4,1.4
	C12,33.6,12.6,34.3,13.4,34.3z"/>
<path fill="#ffffff" d="M20,50.9h0.9c0.8,0,1.4-0.6,1.4-1.4c0-0.8-0.6-1.4-1.4-1.4H20c-0.8,0-1.4,0.6-1.4,1.4
	C18.6,50.3,19.2,50.9,20,50.9z"/>
<path fill="#ffffff" d="M13.4,50.9h0.9c0.8,0,1.4-0.6,1.4-1.4c0-0.8-0.6-1.4-1.4-1.4h-0.9c-0.8,0-1.4,0.6-1.4,1.4
	C12,50.3,12.6,50.9,13.4,50.9z"/>
<path fill="#ffffff" d="M13.4,39.8h0.9c0.8,0,1.4-0.6,1.4-1.4c0-0.8-0.7-1.4-1.4-1.4h-0.9c-0.8,0-1.4,0.6-1.4,1.4
	C12,39.2,12.6,39.8,13.4,39.8z"/>
<path fill="#ffffff" d="M26.6,39.8h0.9c0.8,0,1.4-0.6,1.4-1.4c0-0.8-0.7-1.4-1.4-1.4h-0.9c-0.8,0-1.4,0.6-1.4,1.4
	C25.1,39.2,25.8,39.8,26.6,39.8z"/>
<path fill="#ffffff" d="M32.2,50.9h0.9c0.8,0,1.4-0.6,1.4-1.4c0-0.8-0.6-1.4-1.4-1.4h-0.9c-0.8,0-1.4,0.6-1.4,1.4
	C30.8,50.3,31.4,50.9,32.2,50.9z"/>
<path fill="#ffffff" d="M20,34.3h0.9c0.8,0,1.4-0.6,1.4-1.4c0-0.8-0.6-1.4-1.4-1.4H20c-0.8,0-1.4,0.6-1.4,1.4
	C18.6,33.6,19.2,34.3,20,34.3z"/>
<path fill="#ffffff" d="M26.6,34.3h0.9c0.8,0,1.4-0.6,1.4-1.4c0-0.8-0.7-1.4-1.4-1.4h-0.9c-0.8,0-1.4,0.6-1.4,1.4
	C25.1,33.6,25.8,34.3,26.6,34.3z"/>
<path fill="#ffffff" d="M26.6,50.9h0.9c0.8,0,1.4-0.6,1.4-1.4c0-0.8-0.7-1.4-1.4-1.4h-0.9c-0.8,0-1.4,0.6-1.4,1.4
	C25.1,50.3,25.8,50.9,26.6,50.9z"/>
<path fill="#ffffff" d="M26.6,45.4h0.9c0.8,0,1.4-0.6,1.4-1.4c0-0.8-0.7-1.4-1.4-1.4h-0.9c-0.8,0-1.4,0.6-1.4,1.4
	S25.8,45.4,26.6,45.4z"/>
</svg>
