<svg version="1.1" id="menu_jobs" xmlns="http://www.w3.org/2000/svg" xmlns:xlink="http://www.w3.org/1999/xlink" x="0px"
	 y="0px" width="60px" height="59px" viewBox="0 0 60 59" enable-background="new 0 0 60 59" xml:space="preserve">
<path fill="#FFFFFF" d="M32.2,31.3h-4.5c-1.1,0-1.9,0.9-1.9,1.9v4.5c0,1.1,0.9,1.9,1.9,1.9h4.5c1.1,0,1.9-0.9,1.9-1.9v-4.5h0
	C34.2,32.2,33.3,31.3,32.2,31.3z M32.2,41.5h-4.5c-2.1,0-3.8-1.7-3.8-3.8v-4.5c0-2.1,1.7-3.8,3.8-3.8h4.5c2.1,0,3.8,1.7,3.8,3.8v4.5
	C36,39.8,34.3,41.5,32.2,41.5z M58.3,36H35.2c-0.5,0-0.9-0.4-0.9-0.9c0-0.5,0.4-0.9,0.9-0.9h23.1c0.5,0,0.9,0.4,0.9,0.9
	C59.2,35.5,58.8,36,58.3,36z M6.6,36H2C1.5,36,1,35.5,1,35c0-0.5,0.4-0.9,0.9-0.9h4.6c0.5,0,0.9,0.4,0.9,0.9C7.5,35.5,7.1,36,6.6,36
	z M24.1,36h-12c-0.5,0-0.9-0.4-0.9-0.9c0-0.5,0.4-0.9,0.9-0.9h12c0.5,0,0.9,0.4,0.9,0.9C25,35.5,24.6,36,24.1,36z M37.8,15.7
	c-1,0-1.8-0.8-1.8-1.8V5.7c0-1.7-2.2-2-3.4-2h-6.6c-0.3,0-2.1,0.1-2.1,2v8.1c0,1-0.8,1.8-1.8,1.8c-1,0-1.8-0.8-1.8-1.8V5.7
	c0-3.3,2-5.7,5.7-5.7h6.6c3.7,0,7,2.4,7,5.7v8.1C39.7,14.8,38.9,15.7,37.8,15.7z M56.3,18.4L56.3,18.4c0-1.5-1.2-2.7-2.7-2.7H6.4
	c-1.5,0-2.7,1.2-2.7,2.7v34.2c0,1.5,1.2,2.7,2.7,2.7h47.2c1.5,0,2.7-1.2,2.7-2.7V18.4z M60,52.6c0,3.5-2.9,6.4-6.4,6.4H6.4
	C2.9,59,0,56.1,0,52.6V18.4C0,14.8,2.9,12,6.4,12h47.2c3.5,0,6.4,2.9,6.4,6.4L60,52.6L60,52.6z"/>
</svg>
