<svg version="1.1" id="menu_jobs" xmlns="http://www.w3.org/2000/svg" xmlns:xlink="http://www.w3.org/1999/xlink" x="0px"
	 y="0px" width="61px" height="60px" viewBox="0 0 61 60" enable-background="new 0 0 61 60" xml:space="preserve">
<path fill="#00AEEF" d="M61,18.9c0-3.8-3.1-6.9-6.9-6.9H40.7V6.2C40.7,2.5,37,0,33.1,0h-6.6c-4,0-6.2,2.7-6.2,6.2V12H6.9
	C3.1,12,0,15.1,0,18.9v34.2C0,56.9,3.1,60,6.9,60h0h47.2c3.6,0,6.6-2.8,6.9-6.4h0V18.9z M56.3,53.1c0,1.2-1,2.2-2.2,2.2H6.9
	c-1.2,0-2.2-1-2.2-2.2V37h2.4c0.8,0,1.4-0.6,1.4-1.4c0-0.8-0.6-1.4-1.4-1.4H4.7V18.9c0-1.2,1-2.2,2.2-2.2h47.2c1.2,0,2.2,1,2.2,2.2
	l0,15.2H37v-0.4c0-2.3-1.9-4.3-4.3-4.3h-4.5c-2.4,0-4.3,1.9-4.3,4.3v0.4H12.6c-0.8,0-1.4,0.6-1.4,1.4c0,0.8,0.6,1.4,1.4,1.4H24v1.3
	c0,2.3,1.9,4.3,4.3,4.3h4.5c2.4,0,4.3-1.9,4.3-4.3V37h19.3V53.1z M26.8,33.8c0-0.8,0.6-1.4,1.4-1.4h4.5c0.8,0,1.4,0.6,1.4,1.4v4.5
	c0,0.8-0.6,1.4-1.4,1.4h-4.5c-0.8,0-1.4-0.6-1.4-1.4V33.8z M25,6.2c0-1.6,1.3-1.5,1.6-1.5h6.6c1.1,0,2.9,0.4,2.9,1.5V12H25V6.2z"/>
</svg>
