<svg id="icon_bus" xmlns="http://www.w3.org/2000/svg" width="196.21" height="102" viewBox="0 0 196.21 102">
  <defs>
    <style>
      .cls-1 {
        fill: #007aff;
      }
    </style>
  </defs>
  <title>icon-bus-thin-blue</title>
  <path class="cls-1" d="M143.4,78.43H127.93a3.81,3.81,0,0,1-3.81-3.8v-3.8H138.5a1.63,1.63,0,1,0,0-3.26h-16a1.63,1.63,0,0,0-1.63,1.63v5.43a7.08,7.08,0,0,0,7.08,7.05H143.4v5.18a0.55,0.55,0,0,1-.55.54h-75a0.55,0.55,0,0,1-.54-0.54V81.68H82.76a7.08,7.08,0,0,0,7.08-7.05V69.2a1.63,1.63,0,0,0-1.63-1.63h-16a1.63,1.63,0,1,0,0,3.26H86.57v3.8a3.81,3.81,0,0,1-3.81,3.8H67.28V20.62h36.43V60.77H74.18a1.63,1.63,0,1,0,0,3.26H136.5a1.63,1.63,0,1,0,0-3.26H107V20.62H143.4V78.43Zm-76.12-67a8.16,8.16,0,0,1,8.17-8.14h59.78a8.17,8.17,0,0,1,8.17,8.14v6H67.28v-6Zm85.09,6h-5.7v-6A11.43,11.43,0,0,0,135.23,0H75.45A11.43,11.43,0,0,0,64,11.39v6h-5.7a4.46,4.46,0,0,0-4.47,4.45V35a4.46,4.46,0,0,0,4.47,4.45h0.8a1.63,1.63,0,1,0,0-3.26h-0.8A1.2,1.2,0,0,1,57.11,35V21.81a1.2,1.2,0,0,1,1.2-1.19H64V86.86a3.8,3.8,0,0,0,2.18,3.43v10.08A1.63,1.63,0,0,0,67.83,102h14a1.63,1.63,0,0,0,1.64-1.63V95.54a1.63,1.63,0,0,0-3.27,0v3.2H69.46V90.66h71.76v8.08H130.52v-3.2a1.63,1.63,0,0,0-3.27,0v4.83a1.63,1.63,0,0,0,1.63,1.63h14a1.63,1.63,0,0,0,1.64-1.63V90.29a3.8,3.8,0,0,0,2.18-3.43V20.62h5.7a1.2,1.2,0,0,1,1.2,1.19V35a1.2,1.2,0,0,1-1.2,1.19h-0.8a1.63,1.63,0,1,0,0,3.26h0.8A4.46,4.46,0,0,0,156.84,35V21.81A4.46,4.46,0,0,0,152.37,17.36Z"/>
  <path class="cls-1" d="M136.22,12.08H84.43a1.55,1.55,0,1,1,0-3.1h51.78A1.55,1.55,0,1,1,136.22,12.08Z"/>
  <path class="cls-1" d="M78.41,12.08H74.47a1.55,1.55,0,1,1,0-3.1h3.95A1.55,1.55,0,1,1,78.41,12.08Z"/>
  <path class="cls-1" d="M26.09,86.15c-0.15.47-3.94,11.54-18.44,15.49a1.4,1.4,0,0,1-1.78-1,1.44,1.44,0,0,1,1-1.81c12.92-3.52,16.29-13.16,16.43-13.58a1.45,1.45,0,0,1,1.84-.93A1.48,1.48,0,0,1,26.09,86.15Z"/>
  <path class="cls-1" d="M32.65,100.42a1.58,1.58,0,0,1-1.95,1c-1.05-.26-1-1.46-0.71-2.21,0-.08,3.51-8.29,1-13.24a6.62,6.62,0,0,0-4.87-3.45,10.11,10.11,0,0,1-7.06-4.82c-2.43-4.33-.85-9.68-0.67-10.25l3-11.16a1.45,1.45,0,0,1,1.79-1,1.48,1.48,0,0,1,1,1.81l-3,11.19,0,0.07s-1.45,4.59.42,7.91a7.35,7.35,0,0,0,5.14,3.38,9.48,9.48,0,0,1,6.85,5C36.71,90.86,32.81,100,32.65,100.42Z"/>
  <path class="cls-1" d="M50.59,70.39c-0.25,1.26-2.12,1.06-2.12,1.06-11-2-12.42-8.17-12.42-13.37a1.45,1.45,0,1,1,2.91,0c0,3.28,0,8.72,10.29,10.51C49.25,68.59,50.84,69.12,50.59,70.39Z"/>
  <path class="cls-1" d="M35.31,54.25L29.64,76.15a1.48,1.48,0,0,1-1.77,1.05,1.45,1.45,0,0,1-1-1.8l5.3-20.48S9.23,47,2.75,61.91a1.44,1.44,0,0,1-1.93.72,1.52,1.52,0,0,1-.71-2c6.76-18,34.17-8.22,34.17-8.22A1.48,1.48,0,0,1,35.31,54.25Z"/>
  <path class="cls-1" d="M31,35a6.81,6.81,0,1,0,6.71,6.81A6.77,6.77,0,0,0,31,35Zm0,10.67a3.86,3.86,0,1,1,3.81-3.86A3.84,3.84,0,0,1,31,45.66Z"/>
  <path class="cls-1" d="M195.7,44.86c-0.81-.77-3.35-3.33-5.69-3.39a14.35,14.35,0,0,0-3.68.84,20.37,20.37,0,0,1-5.06,1.12h0l-3.16,0h0a1.22,1.22,0,0,0-.55,0h0l-3.16,0h0a20.76,20.76,0,0,1-5-1.11,14.88,14.88,0,0,0-3.75-.85c-2.34.06-4.88,2.62-5.69,3.39a1.78,1.78,0,0,0,0,2.51,1.75,1.75,0,0,0,2.49,0A10.35,10.35,0,0,1,165.65,45a16.61,16.61,0,0,1,2.73.7,22.67,22.67,0,0,0,6,1.26h1.67v7.75l-0.77.15h0a1.75,1.75,0,0,0-.87.47c-2.64,2.79-3.12,16.79-3.19,25.28,0,1.62,0,3,.07,4.09v0.14L171.4,85a1.69,1.69,0,0,0,1.4.84,1.45,1.45,0,0,0,1.5-1.13v0h0c-0.14-3.38-.24-6.61-0.24-9.63,0-7.11.53-13,2-16.72,0.59-.1,1.57-0.23,1.73-0.23s0.63,0,1.1.11l0.3,0,0.4,0.2c0.94,0.13,3,11.68,2.85,22.09,0,1.31,0,2.61-.08,3.88h0v0a1.52,1.52,0,0,0,1.49,1.3,1.83,1.83,0,0,0,1.34-.7l0.12-.13V84.73c0-.54,0-1.15,0-1.84-0.06-7.91-1.29-24.54-4.15-27.53a1.74,1.74,0,0,0-.86-0.46h0l-0.78-.16V47h1.67a22.27,22.27,0,0,0,6.09-1.27A16.07,16.07,0,0,1,190,45a10.43,10.43,0,0,1,3.2,2.35,1.75,1.75,0,0,0,2.49,0A1.78,1.78,0,0,0,195.7,44.86Z"/>
  <path class="cls-1" d="M178.24,102a1.33,1.33,0,0,1-1.4-1.26V65.26a1.41,1.41,0,0,1,2.8,0v35.48A1.33,1.33,0,0,1,178.24,102Z"/>
</svg>
