<svg id="requirements_attention" xmlns="http://www.w3.org/2000/svg" width="40" height="48" viewBox="0 0 40 48">
  <defs>
    <style>
      .cls-1 {
        fill: #f8576e;
      }
    </style>
  </defs>
  <title>requirements-attention</title>
  <path class="cls-1" d="M6.31,33l-.19,0a.71.71,0,0,1-.74-.44c-.18-.44-.26-.71-.26-.71a.71.71,0,0,1,1.37-.42s.07.23.22.59A.71.71,0,0,1,6.31,33Zm8.4,7.13a.72.72,0,0,1-.92.43A14,14,0,0,1,7,35.65a.71.71,0,1,1,1.16-.83,12.63,12.63,0,0,0,6.08,4.42A.72.72,0,0,1,14.7,40.17ZM37.14,10.64a9.25,9.25,0,0,1-8.23-7.77H10.31a9.19,9.19,0,0,1-7.45,7.77V29.8C2.86,38.91,17.21,44.13,20,45,25.16,43,37.14,36.77,37.14,29.81ZM20.32,47.91a2.8,2.8,0,0,1-.7.09c-.14,0-.08,0-.21-.06C18.61,47.7,0,41.93,0,29.8V9.31A1.28,1.28,0,0,1,1.23,7.88,6.5,6.5,0,0,0,7.68,1.41,1.35,1.35,0,0,1,9,0h21.2a1.43,1.43,0,0,1,1.43,1.41,6.75,6.75,0,0,0,6.74,6.47A1.61,1.61,0,0,1,40,9.31v20.5C40,40.44,21.12,47.61,20.32,47.91Z" transform="translate(0 0)"/>
  <path class="cls-1" d="M20.93,13.64a1,1,0,0,0-.28-.31,1.59,1.59,0,0,0-.49-.24A2.33,2.33,0,0,0,19.5,13a2.3,2.3,0,0,0-.66.09,1.63,1.63,0,0,0-.49.24,1,1,0,0,0-.28.31A.79.79,0,0,0,18,14v.15l.46,10a6.58,6.58,0,0,0,.13,1.09,2.41,2.41,0,0,0,.26.71,1,1,0,0,0,.3.33.82.82,0,0,0,.72,0,.83.83,0,0,0,.28-.31,2.65,2.65,0,0,0,.26-.73,6.55,6.55,0,0,0,.13-1.1l.46-10V14A.67.67,0,0,0,20.93,13.64Z" transform="translate(0 0)"/>
  <path class="cls-1" d="M18.5,29.52a2.47,2.47,0,0,0-.76.4,1.73,1.73,0,0,0-.48.57,1.5,1.5,0,0,0-.17.68,1.54,1.54,0,0,0,.17.72,1.72,1.72,0,0,0,.49.58,2.56,2.56,0,0,0,.76.38,3.52,3.52,0,0,0,2,0,2.49,2.49,0,0,0,.77-.38,1.75,1.75,0,0,0,.51-.58,1.52,1.52,0,0,0,.18-.73,1.42,1.42,0,0,0-.18-.7,1.9,1.9,0,0,0-.5-.58,2.45,2.45,0,0,0-.76-.39,3.16,3.16,0,0,0-1-.14A3.23,3.23,0,0,0,18.5,29.52Z" transform="translate(0 0)"/>
</svg>
