<svg id="requirements_bg_checks" xmlns="http://www.w3.org/2000/svg" width="48" height="37" viewBox="0 0 48 37">
  <title>requirements-bg-checks</title>
  <path d="M38.26,32l-2.52,0a.75.75,0,0,1,0-1.51l2.52,0c3.39,0,3.15-.53,3.19-4a.74.74,0,1,1,1.47,0C42.9,30.78,42.45,32,38.26,32Zm-5.67,0a.77.77,0,0,1-.53.21.74.74,0,0,1-.52-.23.8.8,0,0,1,0-1.07.76.76,0,0,1,.52-.21.77.77,0,0,1,.52.23.78.78,0,0,1,0,1.07ZM16.91,20.82A3.8,3.8,0,0,1,14.28,22a3.81,3.81,0,0,1-2.64-1.15,7.86,7.86,0,0,0-4.91,7.32c0,.42,2.31,1.53,7.52,1.53s7.52-1.11,7.52-1.53A7.9,7.9,0,0,0,16.91,20.82Zm-2.66,10.4c-2.12,0-9-.22-9-3.06a9.37,9.37,0,0,1,6.39-8.93l.46-.14.32.36a2.24,2.24,0,0,0,3.75,0l.32-.37.46.15a9.41,9.41,0,0,1,6.33,9C23.27,31,16.37,31.22,14.25,31.22Zm0-24.1a4.71,4.71,0,0,0-4.65,4.76c0,3,2.39,8.5,4.65,8.5s4.65-5.53,4.65-8.5A4.71,4.71,0,0,0,14.28,7.12Zm0,14.79c-3.55,0-6.15-6.6-6.15-10a6.23,6.23,0,0,1,6.15-6.29,6.23,6.23,0,0,1,6.15,6.29C20.43,15.31,17.83,21.91,14.28,21.91Zm18.44,1.48h-7.5a.77.77,0,0,1,0-1.53h7.5a.77.77,0,0,1,0,1.53Zm4.5-4.6h-6a.77.77,0,0,1,0-1.53h6a.77.77,0,0,1,0,1.53Zm-9,0h-3a.77.77,0,0,1,0-1.53h3a.77.77,0,0,1,0,1.53ZM41.72,15h-7.5a.77.77,0,0,1,0-1.53h7.5a.77.77,0,0,1,0,1.53Zm-10.5,0h-6a.77.77,0,0,1,0-1.53h6a.77.77,0,0,1,0,1.53ZM45,5.23A2.19,2.19,0,0,0,42.88,3H5.12A2.19,2.19,0,0,0,3,5.23V31.76A2.19,2.19,0,0,0,5.12,34H42.88A2.19,2.19,0,0,0,45,31.76Zm3,26.53A5.18,5.18,0,0,1,42.88,37H5.12A5.18,5.18,0,0,1,0,31.76V5.23A5.18,5.18,0,0,1,5.12,0H42.88A5.18,5.18,0,0,1,48,5.23Z" transform="translate(0 0)"/>
</svg>
