<svg xmlns="http://www.w3.org/2000/svg" xmlns:xlink="http://www.w3.org/1999/xlink" preserveAspectRatio="xMidYMid" width="20.6" height="32.63" viewBox="0 0 20.6 32.63">
  <defs>
    <style>
      .cls-1 {
        fill: #8d8f92;
        stroke: #c8cacc;
        stroke-width: 0.6px;
        fill-rule: evenodd;
      }
    </style>
  </defs>
  <path d="M2.974,0.298 C3.662,0.298 4.353,0.540 4.879,1.026 L19.509,14.538 C20.015,15.005 20.298,15.637 20.298,16.298 C20.298,16.959 20.014,17.591 19.509,18.058 L4.879,31.569 C3.828,32.541 2.121,32.541 1.069,31.569 C0.016,30.597 0.016,29.022 1.069,28.050 L13.792,16.298 L1.068,4.547 C0.016,3.575 0.016,2.000 1.068,1.028 C1.594,0.541 2.285,0.298 2.974,0.298 Z" class="cls-1"/>
</svg>
