<svg version="1.1" id="ui_arrow_full_right"
	 xmlns="http://www.w3.org/2000/svg" xmlns:xlink="http://www.w3.org/1999/xlink" x="0px" y="0px" width="10px" height="14px"
	 viewBox="0 0 10 14" enable-background="new 0 0 10 14" xml:space="preserve">
<path fill="#f8576e" d="M0.4,0.1C0.5,0,0.6,0,0.7,0C0.8,0,1,0,1.1,0.1l8.6,6.3C9.9,6.5,10,6.7,10,7c0,0.3-0.1,0.5-0.4,0.6l-8.6,6.3
	c-0.2,0.1-0.5,0.1-0.7,0C0.1,13.7,0,13.5,0,13.2V0.7C0,0.5,0.1,0.2,0.4,0.1z"/>
</svg>
