<svg version="1.1" id="ui_arrow_thin_down"
	 xmlns="http://www.w3.org/2000/svg" xmlns:xlink="http://www.w3.org/1999/xlink" x="0px" y="0px" width="28.4px" height="15.4px"
	 viewBox="0 0 28.4 15.4" enable-background="new 0 0 28.4 15.4" xml:space="preserve">
<path fill="#007AFF" d="M27.1,0c-0.3,0-0.7,0.1-0.9,0.4L14.7,11.7l-0.6,0.6l-0.6-0.6L2.2,0.4C2,0.1,1.6,0,1.3,0C1,0,0.6,0.1,0.4,0.4
	C0.1,0.6,0,0.9,0,1.3C0,1.6,0.1,2,0.4,2.2L13.3,15c0.2,0.2,0.6,0.4,0.9,0.4s0.7-0.1,0.9-0.4L28,2.2c0.2-0.2,0.4-0.6,0.4-0.9
	c0-0.3-0.1-0.7-0.4-0.9C27.7,0.1,27.4,0,27.1,0z"/>
</svg>
