<svg version="1.1" id="ui_checkmark" xmlns="http://www.w3.org/2000/svg" xmlns:xlink="http://www.w3.org/1999/xlink" x="0px"
	 y="0px" width="22px" height="16px" viewBox="0 0 22 16" enable-background="new 0 0 22 16" xml:space="preserve">
<polygon fill="#00AEEF" points="22,1.4 20.5,0 7.1,13.1 1.5,7.8 0,9.2 7.1,16 7.1,16 7.1,16 7.1,16 7.1,16 "/>
</svg>
