<svg version="1.1" id="ui_close" xmlns="http://www.w3.org/2000/svg" xmlns:xlink="http://www.w3.org/1999/xlink" x="0px"
	 y="0px" width="27.2px" height="27.2px" viewBox="0 0 27.2 27.2" enable-background="new 0 0 27.2 27.2" xml:space="preserve">
<path fill="#FFFFFF" d="M22.5,26.3c0.5,0.5,1.2,0.8,1.9,0.8c0.7,0,1.4-0.3,1.9-0.8c1-1,1-2.7,0-3.8l-8.9-8.9l9.1-9.1
	c1-1,1-2.8,0-3.8C25.9,0.3,25.2,0,24.5,0c-0.7,0-1.4,0.3-1.9,0.8l-9.1,9.1L4.6,0.9C4.1,0.4,3.5,0.1,2.8,0.1C2,0.1,1.4,0.4,0.9,0.9
	c-1,1-1,2.7,0,3.8l8.9,8.9l-9,9c-1,1-1,2.8,0,3.8c0.5,0.5,1.2,0.8,1.9,0.8c0.7,0,1.4-0.3,1.9-0.8l9-9L22.5,26.3z"/>
</svg>
