<svg version="1.1" id="ui_home" xmlns="http://www.w3.org/2000/svg" xmlns:xlink="http://www.w3.org/1999/xlink" x="0px"
	 y="0px" width="59px" height="57.7px" viewBox="0 0 59 57.7" enable-background="new 0 0 59 57.7" xml:space="preserve">
<path fill="#ffffff" d="M14.7,35.9c-0.5,0-0.8-0.4-0.8-0.8v-0.8c0-0.5,0.4-0.8,0.8-0.8c0.5,0,0.8,0.4,0.8,0.8v0.8
	C15.5,35.5,15.1,35.9,14.7,35.9z"/>
<path fill="#ffffff" d="M26.1,13.6l-10.6,8.2v9.1c0,0.5-0.4,0.8-0.8,0.8c-0.5,0-0.8-0.4-0.8-0.8v-9.5c0-0.3,0-0.5,0.2-0.7l11-8.4
	c0.4-0.3,0.9-0.2,1.1,0.2C26.4,12.8,26.5,13.3,26.1,13.6z"/>
<path fill="#ffffff" d="M58.3,21.1L30.5,0.3c0,0-0.1,0-0.1-0.1c0,0-0.1-0.1-0.1-0.1c-0.1,0-0.1,0-0.2-0.1c0,0-0.1,0-0.1-0.1
	c-0.1,0-0.1,0-0.2,0c-0.1,0-0.1,0-0.2,0c-0.1,0-0.1,0-0.2,0c-0.1,0-0.1,0-0.2,0c-0.1,0-0.1,0-0.2,0c-0.1,0-0.1,0-0.2,0
	c-0.1,0-0.1,0-0.2,0.1c0,0-0.1,0-0.1,0.1c-0.1,0-0.1,0.1-0.2,0.1c0,0,0,0-0.1,0L0.7,21.1c-0.7,0.6-0.9,1.6-0.3,2.3
	c0.3,0.4,0.8,0.7,1.3,0.7c0.4,0,0.7-0.1,1-0.3l4.4-3.3V49c0,6.6,1.7,8.7,8.1,8.7h28.7c6.4,0,8.8-2.1,8.8-8.7V21l3.7,2.8
	c0.3,0.2,0.7,0.3,1,0.3c0.5,0,1-0.2,1.3-0.7C59.2,22.7,59.1,21.7,58.3,21.1z M25.5,38.4h8.1c1.9,0,2.2,0,2.2,1.7v14.2H23.9V40.1
	C23.9,38.4,23.6,38.4,25.5,38.4z M49.2,19.1V49c0,4.8-0.8,5.3-5.4,5.3h-6.4V40.1c0-2.9-1.4-3.4-3.9-3.4h-8.1c-2.4,0-3.2,0.5-3.2,3.4
	v14.2h-7.1c-4.5,0-4.7-0.5-4.7-5.3V19.1c0-0.3-0.1-0.7-0.3-0.9L29.5,3.8l19.8,14.8C49.3,18.8,49.2,18.9,49.2,19.1z"/>
</svg>
