<svg version="1.1" id="ui_x5F_menu" xmlns="http://www.w3.org/2000/svg" xmlns:xlink="http://www.w3.org/1999/xlink" x="0px"
	 y="0px" width="43px" height="28px" viewBox="0 0 43 28" enable-background="new 0 0 43 28" xml:space="preserve">
<path fill-rule="evenodd" clip-rule="evenodd" fill="#007AFF" d="M13,24h28c1.1,0,2,0.9,2,2c0,1.1-0.9,2-2,2H13c-1.1,0-2-0.9-2-2
	C11,24.9,11.9,24,13,24z"/>
<path fill-rule="evenodd" clip-rule="evenodd" fill="#007AFF" d="M2,24h3c1.1,0,2,0.9,2,2c0,1.1-0.9,2-2,2H2c-1.1,0-2-0.9-2-2
	C0,24.9,0.9,24,2,24z"/>
<path fill-rule="evenodd" clip-rule="evenodd" fill="#007AFF" d="M13,12h28c1.1,0,2,0.9,2,2s-0.9,2-2,2H13c-1.1,0-2-0.9-2-2
	S11.9,12,13,12z"/>
<path fill-rule="evenodd" clip-rule="evenodd" fill="#007AFF" d="M2,12h3c1.1,0,2,0.9,2,2s-0.9,2-2,2H2c-1.1,0-2-0.9-2-2
	S0.9,12,2,12z"/>
<path fill-rule="evenodd" clip-rule="evenodd" fill="#007AFF" d="M13,0h28c1.1,0,2,0.9,2,2s-0.9,2-2,2H13c-1.1,0-2-0.9-2-2
	S11.9,0,13,0z"/>
<path fill-rule="evenodd" clip-rule="evenodd" fill="#007AFF" d="M2,0h3c1.1,0,2,0.9,2,2S6.1,4,5,4H2C0.9,4,0,3.1,0,2S0.9,0,2,0z"/>
</svg>
