<svg version="1.1" id="ui_photo" xmlns="http://www.w3.org/2000/svg" xmlns:xlink="http://www.w3.org/1999/xlink" x="0px"
	 y="0px" width="60.4px" height="45.9px" viewBox="0 0 60.4 45.9" enable-background="new 0 0 60.4 45.9" xml:space="preserve">
<path fill="#007AFF" d="M58.7,6.7L58.7,6.7c-1.2-1.2-2.7-1.8-4.3-1.8h-3.8c-0.2-1.2-0.8-2.2-1.6-3.1C47.8,0.6,46.3,0,44.7,0H35
	c-1.6,0-3.1,0.6-4.2,1.8C29.7,2.9,29,4.4,29,6c0,0.6,0.5,1.1,1.1,1.1c0.6,0,1.1-0.5,1.1-1.1c0-1,0.4-1.9,1.1-2.6
	C33.1,2.7,34,2.3,35,2.3h9.7c1,0,1.9,0.4,2.6,1.1C48,4.1,48.4,5,48.4,6c0,0.6,0.5,1.1,1.1,1.1h4.8c1,0,1.9,0.4,2.6,1.1l0,0
	c0.7,0.7,1,1.6,1,2.6v29.1c0,1-0.4,1.9-1.1,2.6c-0.7,0.7-1.6,1.1-2.6,1.1H6c-1,0-1.9-0.4-2.6-1.1c-0.7-0.7-1.1-1.6-1.1-2.6V10.8
	c0-1,0.4-1.9,1.1-2.6C4.1,7.5,5,7.1,6,7.1h19.4c0.6,0,1.1-0.5,1.1-1.1c0-0.6-0.5-1.1-1.1-1.1H6c-1.6,0-3.1,0.6-4.2,1.8
	C0.6,7.7,0,9.2,0,10.8v29.1c0,1.6,0.6,3.1,1.8,4.2c1.1,1.1,2.6,1.8,4.2,1.8h48.4c1.6,0,3.1-0.6,4.2-1.8c1.1-1.1,1.8-2.6,1.8-4.2
	V10.8C60.4,9.3,59.8,7.8,58.7,6.7z"/>
<path fill="#007AFF" d="M6.4,16.6L6.4,16.6c0.6,0.5,1.3,0.8,2,0.8c0.8,0,1.5-0.3,2-0.8h0l0.1-0.1c0.6-0.6,0.9-1.3,0.9-2.1
	s-0.3-1.5-0.9-2.1c-0.6-0.6-1.3-0.9-2.1-0.9c-0.8,0-1.5,0.3-2.1,0.9l-0.1,0.1v0c-0.5,0.6-0.8,1.3-0.8,2C5.4,15.2,5.8,16,6.4,16.6
	L6.4,16.6z M7.9,14L7.9,14c0.2-0.2,0.3-0.2,0.5-0.2c0.2,0,0.4,0.1,0.5,0.2c0.1,0.1,0.2,0.3,0.2,0.5c0,0.2-0.1,0.4-0.2,0.5l0,0
	c-0.1,0.1-0.3,0.2-0.4,0.2c-0.2,0-0.3-0.1-0.4-0.1l-0.1-0.1c-0.1-0.1-0.2-0.3-0.2-0.5C7.7,14.3,7.8,14.1,7.9,14z"/>
<path fill="#007AFF" d="M6.6,36.4h7.3c0.6,0,1.1-0.5,1.1-1.1c0-0.6-0.5-1.1-1.1-1.1H6.6c-0.6,0-1.1,0.5-1.1,1.1
	C5.4,35.9,6,36.4,6.6,36.4z"/>
<path fill="#007AFF" d="M30,15.6c-2.6,2.6-4,6.1-4,9.7c0,3.7,1.4,7.2,4.1,9.8s6.1,4.1,9.8,4.1c3.7,0,7.1-1.4,9.7-4h0l0.1-0.1
	c2.6-2.6,4.1-6.1,4.1-9.8c0-3.7-1.4-7.2-4.1-9.8c-2.6-2.6-6.1-4.1-9.8-4.1C36.2,11.5,32.7,12.9,30,15.6L30,15.6z M39.9,13.8
	c3.1,0,6,1.2,8.2,3.4l0,0c2.2,2.2,3.4,5.1,3.4,8.2c0,3.1-1.2,6-3.4,8.2l-0.1,0.1c-2.2,2.1-5,3.3-8.1,3.3c-3.1,0-6-1.2-8.2-3.4
	c-2.2-2.2-3.4-5.1-3.4-8.2c0-3,1.2-5.9,3.2-8l0.1-0.1C33.9,15,36.8,13.8,39.9,13.8z"/>
<path fill="#007AFF" d="M33,32.1L33,32.1L33,32.1c1.9,1.9,4.3,2.9,6.9,2.9c2.6,0,5-1,6.8-2.8l0.1-0.1v0c1.8-1.8,2.8-4.2,2.8-6.7
	c0-2.5-1-4.9-2.8-6.7v0l-0.1-0.1c-1.8-1.8-4.2-2.8-6.8-2.8c-2.6,0-5,1-6.8,2.8L33,18.6c-1.8,1.8-2.8,4.2-2.8,6.7
	C30.3,27.9,31.2,30.3,33,32.1z M34.6,20.3L34.6,20.3l0.1-0.1c1.4-1.4,3.2-2.1,5.2-2.1c2,0,3.8,0.8,5.2,2.1l0.1,0.1
	c1.3,1.4,2.1,3.2,2.1,5.1c0,1.9-0.7,3.7-2,5.1l-0.1,0.1c-1.4,1.4-3.2,2.1-5.2,2.1c-2,0-3.8-0.8-5.2-2.1l-0.1-0.1
	c-1.3-1.4-2.1-3.2-2.1-5.1C32.5,23.4,33.3,21.6,34.6,20.3z"/>
<path fill="#007AFF" d="M44.7,7.1c0.6,0,1.1-0.5,1.1-1.1c0-0.6-0.5-1.1-1.1-1.1H35c-0.6,0-1.1,0.5-1.1,1.1c0,0.6,0.5,1.1,1.1,1.1
	H44.7z"/>
<path fill="#007AFF" d="M35.6,26.5c0.6,0,1.1-0.5,1.1-1.1c0-0.4,0.1-0.8,0.2-1.2l0,0c0.2-0.4,0.4-0.7,0.7-1c0.3-0.3,0.6-0.5,1-0.7
	c0.4-0.2,0.8-0.2,1.2-0.2c0.6,0,1.1-0.5,1.1-1.1c0-0.6-0.5-1.1-1.1-1.1c-0.7,0-1.4,0.1-2.1,0.4c-0.7,0.3-1.2,0.7-1.7,1.2
	c-0.5,0.5-0.9,1.1-1.1,1.7l0,0.1c-0.3,0.7-0.4,1.3-0.4,2.1C34.5,26,35,26.5,35.6,26.5z"/>
</svg>
