<svg version="1.1" id="ui_plus" xmlns="http://www.w3.org/2000/svg" xmlns:xlink="http://www.w3.org/1999/xlink" x="0px"
	 y="0px" width="22px" height="22px" viewBox="0 0 22 22" enable-background="new 0 0 22 22" xml:space="preserve">
<polygon fill="#ffffff" points="22,10 12,10 12,0 10,0 10,10 0,10 0,12 10,12 10,22 12,22 12,12 22,12 "/>
</svg>
