<svg version="1.1" id="ui_search" xmlns="http://www.w3.org/2000/svg" xmlns:xlink="http://www.w3.org/1999/xlink" x="0px"
	 y="0px" width="33.9px" height="33.9px" viewBox="0 0 33.9 33.9" enable-background="new 0 0 33.9 33.9" xml:space="preserve">
<path fill="#c8cacc" d="M33.4,30.8l-7.8-7.7c2.1-2.5,3.2-5.7,3.2-8.9C28.8,6.4,22.3,0,14.4,0S0,6.4,0,14.2s6.5,14.2,14.4,14.2
	c3,0,6-1,8.5-2.7l7.9,7.8c0.3,0.3,0.8,0.5,1.3,0.5c0.5,0,1-0.2,1.3-0.5c0.4-0.3,0.5-0.8,0.5-1.3C33.9,31.6,33.7,31.1,33.4,30.8z
	 M14.4,24.7C8.5,24.7,3.7,20,3.7,14.2c0-5.8,4.8-10.5,10.7-10.5s10.7,4.7,10.7,10.5C25.1,20,20.3,24.7,14.4,24.7z"/>
</svg>
