<svg id="Layer_1" data-name="Layer 1" xmlns="http://www.w3.org/2000/svg" xmlns:xlink="http://www.w3.org/1999/xlink" width="743.51" height="441.36" viewBox="0 0 743.51 441.36">
  <defs>
    <style>
      .cls-1, .cls-19, .cls-30, .cls-37, .cls-38 {
        fill: none;
      }

      .cls-15, .cls-2, .cls-3 {
        fill: #07aaec;
      }

      .cls-2 {
        opacity: 0.4;
      }

      .cls-3 {
        opacity: 0.54;
      }

      .cls-31, .cls-33, .cls-4 {
        fill: #2674b1;
      }

      .cls-5 {
        fill: #dfae84;
      }

      .cls-6 {
        fill: #363c4d;
      }

      .cls-7 {
        fill: #ff645d;
      }

      .cls-8 {
        fill: #002148;
      }

      .cls-9 {
        fill: #d79e78;
      }

      .cls-10 {
        fill: #08265b;
      }

      .cls-11, .cls-28 {
        fill: #e39685;
      }

      .cls-12 {
        fill: #fe3d40;
      }

      .cls-13 {
        fill: #64e49c;
      }

      .cls-14 {
        fill: #f0d8ba;
      }

      .cls-16 {
        fill: #4bcb84;
      }

      .cls-17 {
        font-size: 17px;
      }

      .cls-17, .cls-22, .cls-24, .cls-26, .cls-35 {
        fill: #fff;
      }

      .cls-17, .cls-20, .cls-22, .cls-24 {
        font-family: Nunito-Regular, Nunito;
      }

      .cls-18 {
        letter-spacing: -0.01em;
      }

      .cls-19 {
        stroke: #363c4d;
        stroke-width: 2px;
        stroke-dasharray: 5.95 5.95;
      }

      .cls-19, .cls-37, .cls-38 {
        stroke-linecap: round;
        stroke-linejoin: round;
      }

      .cls-20 {
        font-size: 11px;
        fill: #00416b;
      }

      .cls-21 {
        letter-spacing: -0.02em;
      }

      .cls-22, .cls-33, .cls-35 {
        font-size: 12px;
      }

      .cls-23 {
        letter-spacing: -0.01em;
      }

      .cls-24 {
        font-size: 13px;
      }

      .cls-25 {
        letter-spacing: 0.01em;
      }

      .cls-27 {
        clip-path: url(#clip-path);
      }

      .cls-28 {
        opacity: 0.51;
      }

      .cls-29 {
        clip-path: url(#clip-path-2);
      }

      .cls-30 {
        stroke: #08265b;
        stroke-miterlimit: 10;
      }

      .cls-31 {
        font-size: 13.34px;
      }

      .cls-31, .cls-33 {
        font-family: Comfortaa-Regular, Comfortaa;
      }

      .cls-32 {
        font-size: 18.67px;
      }

      .cls-34 {
        letter-spacing: -0.08em;
      }

      .cls-35 {
        font-family: Comfortaa-Bold, Comfortaa;
        font-weight: 700;
      }

      .cls-36 {
        opacity: 0.34;
      }

      .cls-37, .cls-38 {
        stroke: #0c3168;
        stroke-width: 3px;
      }

      .cls-38 {
        stroke-dasharray: 8.04 8.04;
      }
    </style>
    <clipPath id="clip-path">
      <ellipse class="cls-1" cx="366.71" cy="95.12" rx="52.2" ry="50.14"/>
    </clipPath>
    <clipPath id="clip-path-2">
      <ellipse class="cls-1" cx="367.56" cy="335.64" rx="52.2" ry="50.14"/>
    </clipPath>
  </defs>
  <title>main-illustration-part1</title>
  <g>
    <path class="cls-2" d="M448.23,173.51c-1.82.23-3.65.44-5.47.63s-3.94.58-5.9.83Z"/>
    <path class="cls-2" d="M447.89,71.6c-24.93-3.36-49.89-5.46-75-6.48q-38.69-1.58-77.42-.16l5.91,82q44.16-1.34,88.33,1.18c13.51.78,27,1.81,40.43,3.39l-6.33-.85,11.37,1.47q-2.52-.32-5-.62c4,.56,8.1,1.16,12.16,1.85L455,72.59Q451.41,72.07,447.89,71.6Z"/>
    <path class="cls-3" d="M227.14,69.72a33.32,33.32,0,0,0-16.49,3.54,32.25,32.25,0,0,0-13.77,8.5c-7.42,7.13-13,18.82-12.53,29.06.5,10.63,4.13,21.65,12.53,29.06,7.84,6.91,19.19,13.19,30.26,12q37-3.84,74.2-5l-5.91-82Q261.22,66.2,227.14,69.72Z"/>
    <path class="cls-3" d="M469.65,159.84"/>
    <path class="cls-3" d="M472.43,168.14a235.72,235.72,0,0,1-29.67,6c1.83-.2,3.65-.4,5.47-.63L436.86,175q2.95-.39,5.9-.83c-18.86,2-37.86,2.31-56.82,2.4-13.42.07-26.83.19-40.24.54L361.28,259q10.33-.16,20.65-.2c20.81-.09,41.69-.2,62.38-2.58,13.36-1.53,26.75-3.24,39.8-6.44,12.22-3,25.05-6.94,35.78-13.36,25.37-15.2,40.27-43.22,38-72-1.25-15.59-4.8-28.85-12.18-42.83-6.87-13-18.5-24.14-31.46-31.59C496.56,79.8,475.32,75.54,455,72.59l-12.72,80.79a176.75,176.75,0,0,1,26.3,6.27s5.46,2,6,3.08S476.51,167,472.43,168.14Z"/>
    <path class="cls-3" d="M324.53,296.09q-11.42-.76-22.83-1.82L277.6,373.85c4.13.49,8.27.95,12.39,1.4q32.4,3.54,65,4.5a849.42,849.42,0,0,0,114-4.65l-12.8-80.81A826.88,826.88,0,0,1,324.53,296.09Z"/>
    <path class="cls-2" d="M519.08,295l-10.22-4.14a44.8,44.8,0,0,0-22.75,0l-6,.85c1.67-.21,3.35-.4,5-.62l-11.37,1.47,6.35-.85q-11.91,1.46-23.85,2.58l12.8,80.81q19.93-2.1,39.8-5a32.68,32.68,0,0,0,14.55-7.36,31.57,31.57,0,0,0,11-11.53c5.37-8.81,7.64-21.79,4.31-31.67S529,300,519.08,295Z"/>
    <path class="cls-2" d="M254.23,264.22"/>
    <path class="cls-2" d="M254.16,281.5"/>
    <path class="cls-2" d="M254.33,282.67"/>
    <path class="cls-2" d="M257.06,285.3"/>
    <path class="cls-2" d="M301.69,294.27,277.6,373.85c-8-1-15.9-2.06-23.74-3.66A156,156,0,0,1,221,359.12a90,90,0,0,1-49.32-58.28,107.85,107.85,0,0,1,8.12-76.21,71.55,71.55,0,0,1,31-30.11,100.08,100.08,0,0,1,22.43-8.09c7.64-1.6,15.48-2.38,23.23-3.27,21.85-2.49,43.82-4.13,65.79-5.22q11.73-.58,23.46-.86L361.28,259c-33.55.51-68.27-1.79-101.33,7.26,0,0-9.91,2-10.21,9.25C249.41,283.72,293.18,294.27,301.69,294.27Z"/>
    <path class="cls-2" d="M254.51,265.59"/>
    <path class="cls-2" d="M255,263.86l0,.07"/>
    <path class="cls-2" d="M485.13,291.1c-1.67.22-3.35.41-5,.62l-6.35.85Z"/>
  </g>
  <ellipse class="cls-4" cx="638.84" cy="352.52" rx="45.32" ry="10.54"/>
  <ellipse class="cls-4" cx="107.75" cy="352.52" rx="45.32" ry="10.54"/>
  <g>
    <path class="cls-5" d="M147.68,237.44a4.44,4.44,0,0,1-4.39,2.5,4.3,4.3,0,0,1-4-4.57l.33-3.81a4.36,4.36,0,0,1,4.76-3.88,4.3,4.3,0,0,1,4,4.57l-.33,3.81A4.1,4.1,0,0,1,147.68,237.44Z"/>
    <path class="cls-5" d="M87.42,262.71S86.36,313.57,91.21,343l6.26.84s4.58-69,2.81-80.74Z"/>
    <path class="cls-5" d="M122.23,262.71s1.06,50.87-3.79,80.28l-6.26.84s-4.58-69-2.81-80.74Z"/>
    <path class="cls-6" d="M79.12,119.31l-2.63,50.25s8.28,1.77,10.6-4.16c0,0,1.79,6.51,8.19,7S116,170,116,170s1.31,1.9,4.95,1,5.86-6.15,5.86-6.15,3.58,4.39,7.61,3.75c0,0,5.63-1.48,4.74-5.67S133.62,116,133.62,116,124.8,103,124,102.55s-20.3-2.77-20.3-2.77l-14.79,3.78Z"/>
    <path class="cls-7" d="M91.43,160.49,85.19,177s-5.63,9.33,2.54,15.05l-2.65,23.74,41.71.53-2.21-24.91s6.18-5.83,1.32-14.41l-2.81-14.87Z"/>
    <path class="cls-5" d="M86.07,113.84s-10.25,36.9,18.87,37.88c31.56,1.06,24.5-40.91,24.5-40.91S106.37,88.19,86.07,113.84Z"/>
    <path class="cls-6" d="M79.56,123.33s-1.1-26.92,27.14-27.25,28.14,25.47,28.14,25.47-9.39,1.36-11.49-7.76c0,0-8,9.54-17.86-.69,0,0-9.6,10.23-17.76,1.67C87.72,114.76,85.63,121.32,79.56,123.33Z"/>
    <ellipse class="cls-8" cx="94.15" cy="125.78" rx="1.13" ry="1.09"/>
    <ellipse class="cls-8" cx="120.19" cy="125.78" rx="1.13" ry="1.09"/>
    <path class="cls-9" d="M106.8,128.94a17,17,0,0,1,2.74,7.71,1.33,1.33,0,0,1-.2,1,1.49,1.49,0,0,1-1.09.35,4,4,0,0,1-3.19-.89,3.59,3.59,0,0,1-.52-3,18.93,18.93,0,0,1,.78-3.13,6.47,6.47,0,0,1,1.32-2.43"/>
    <path class="cls-8" d="M101,146.95c-.24.41-1,.4-1.78,0s-1.14-1.07-.9-1.48,1-.4,1.78,0S101.22,146.54,101,146.95Z"/>
    <path class="cls-10" d="M91.7,124.58a4.9,4.9,0,0,0,3.81-1.43c.59-.59-.35-1.49-.94-.9a3.58,3.58,0,0,1-2.87,1.05c-.85-.06-.85,1.21,0,1.27Z"/>
    <path class="cls-10" d="M118.82,123a5,5,0,0,0,4.32,2c.85-.06.85-1.33,0-1.27a3.6,3.6,0,0,1-3.18-1.38c-.49-.66-1.64,0-1.14.64Z"/>
    <ellipse class="cls-11" cx="89.54" cy="134.36" rx="3.03" ry="2.91"/>
    <ellipse class="cls-11" cx="123.53" cy="134.78" rx="3.03" ry="2.91"/>
    <polygon class="cls-5" points="100.28 150 98.87 159.39 106.26 162.39 113.32 159.9 113.15 150 100.28 150"/>
    <path class="cls-12" d="M91.25,160l7.61-1,7.39,3.21s-1.88,3.77-5.08,3.56S92.91,165.39,91.25,160Z"/>
    <path class="cls-12" d="M113.32,159.38l9.77,2.8s-5.24,3.95-9.77,3.53a11,11,0,0,1-7.06-3.53Z"/>
    <path class="cls-7" d="M148.2,233.81l-8.83-.13c0-.13.19-13.46-1.11-33.81-1.17-18.36-19.66-30.5-19.84-30.62l4.9-7c.91.58,22.31,14.54,23.75,37.15C148.4,220.06,148.21,233.26,148.2,233.81Z"/>
    <polygon class="cls-7" points="84.08 229.92 72.47 282 135.51 282 126.56 230.7 84.08 229.92"/>
    <polygon class="cls-7" points="91.17 343 90.67 346.43 98.51 345.89 97.47 343.83 91.17 343"/>
    <path class="cls-10" d="M81.62,352.37s7.82-5.85,9.05-5.94l8.71-.6,2.16,5.16S89.77,356.27,81.62,352.37Z"/>
    <polygon class="cls-7" points="118.47 343 118.97 346.43 111.14 345.89 112.18 343.83 118.47 343"/>
    <path class="cls-10" d="M128,352.37s-7.82-5.85-9.05-5.94l-8.71-.6L108.1,351S119.88,356.27,128,352.37Z"/>
    <path class="cls-5" d="M75.92,120.25a4.35,4.35,0,0,1-3.71-3.37,4.25,4.25,0,0,1,3.46-5l3.9-.75a4.41,4.41,0,0,1,5.19,3.32,4.25,4.25,0,0,1-3.46,5l-3.9.75A4.59,4.59,0,0,1,75.92,120.25Z"/>
    <path class="cls-7" d="M78.18,172c-7.61,0-13.81-1.68-18.47-5-6-4.29-9.06-11-9.06-19.91,0-17.16,7.91-26.06,14.55-30.5A34.36,34.36,0,0,1,80,111l.77,8.45A25.59,25.59,0,0,0,70,123.71c-7,4.81-10.48,12.66-10.48,23.35,0,6.18,1.8,10.47,5.5,13.11,7.58,5.41,21.9,2.93,26.77,1.52l2.55,8.12a64.17,64.17,0,0,1-12.16,2Q80.1,172,78.18,172Z"/>
  </g>
  <g>
    <g>
      <path class="cls-13" d="M643.74,159.2s15,2.5,20.67,7.23c0,0,3.56,54.86,2.23,72l-57-.56s-4.82-46.34-1.48-76C608.14,162,625.51,156,643.74,159.2Z"/>
      <path class="cls-14" d="M659.8,122.45s-4.43,30.44-23.14,30.82-25.34-25.42-24.07-34.12c0,0-.4-22.08,24-17.72S659.8,122.45,659.8,122.45Z"/>
      <path class="cls-14" d="M643.8,150.6l-.22,9.75s-4.83,2.59-7.56,2.15a9.78,9.78,0,0,1-4.92-2.93l.22-9.75Z"/>
      <path class="cls-9" d="M632.83,124.72c-.47,2.25-2,4.22-2.34,6.49a1.43,1.43,0,0,0,.27,1.29,1.75,1.75,0,0,0,1.2.31c.93,0,2.09-.11,2.44-.95a2.17,2.17,0,0,0,0-1.24q-.46-2.44-1-4.87c-.1-.48-.3-1.07-.81-1.14"/>
      <path class="cls-6" d="M657.14,132.91s-3.8-2.53-6.39-.13-.71,7.7-3.9,7-8.21-2.74-12.49-2.44-5,3.49-7.82,2.92-4.92-.77-6.44-4.64-5.84-3.15-5.84-3.15,2.09,20.95,21.73,20.83S657.14,132.91,657.14,132.91Z"/>
      <path class="cls-14" d="M643.31,142.48l-13.13.78s1.24,4.9,7.66,4.91S643.31,142.48,643.31,142.48Z"/>
      <ellipse class="cls-10" cx="643.69" cy="124.08" rx="1.24" ry="1.29" transform="translate(506.12 765.02) rotate(-88.8)"/>
      <ellipse class="cls-10" cx="621.26" cy="123.61" rx="1.24" ry="1.29" transform="translate(484.63 742.14) rotate(-88.8)"/>
      <g>
        <path d="M651.15,131.07l-13.79-.29.28-12.42,13.79.29Zm-12.47-1.5,11.21.24.23-9.94-11.21-.24Z"/>
        <path d="M626.59,130.14l-13.36-.28.3-13.16,13.78,1.37Zm-12-1.5,10.82.23.57-9.69-11.15-1.11Z"/>
        <polygon points="638.82 123.36 626.75 123.1 626.78 121.86 638.85 122.11 638.82 123.36"/>
        <polygon points="657.65 134.43 650.42 123.33 651.52 122.67 658.75 133.77 657.65 134.43"/>
      </g>
      <path class="cls-6" d="M658.31,129.13s-2.9-1.63-3.6-6.27-1.19-6.44-4.49-8.18-3.43-5.59-12.67-5.53-13.39,1.34-18.08,1-8.7,1-8.32-4.28.33-11.8,16.3-10.31S650,96.71,657.1,106,664.06,128.9,658.31,129.13Z"/>
      <polygon class="cls-4" points="666.64 238.46 666.6 242.96 609.25 242.39 609.62 237.9 666.64 238.46"/>
      <path class="cls-10" d="M666.59,243s4,78.65-1.62,98l-6.94-.15s-8.6-74.22-7.41-85.23l-27.79.25s5.05,71.41,1.59,82.89l-8.15.2s-10.57-81.38-7-96.45Z"/>
      <polygon class="cls-4" points="664.9 341.37 664.87 343.03 657.54 342.87 657.58 341.22 664.9 341.37"/>
      <path class="cls-10" d="M665.2,343l13.69,8.87s-1.12,2.47-8.47,2.19S656.56,353,656.56,353l1.17-10.13Z"/>
      <polygon class="cls-4" points="624.43 338.55 624.36 341.76 615.81 341.58 616.13 339.08 624.43 338.55"/>
      <path class="cls-10" d="M624.14,351.38l.22-9.75-8.68-.44-13.21,8.06S607.28,353.33,624.14,351.38Z"/>
      <g>
        <path class="cls-14" d="M606.54,106.56a4,4,0,0,0,3.27-4.59,4.08,4.08,0,0,0-4.53-3.18l-.25,0a46.86,46.86,0,0,0-4.55,1.12l3.44,7.23C605.52,106.75,606.52,106.56,606.54,106.56Z"/>
        <path class="cls-13" d="M609,161.71l.07,0c-.12.05-3.08,1.25-7.37-.39-4.49-1.71-11.2-6.82-17.73-21.44-3.35-7.5-3.56-14-.62-19.26,3.08-5.54,9.17-9,13.74-11a51.7,51.7,0,0,1,6.87-2.39l-3.44-7.23c-6.63,1.95-18.73,6.75-24.4,16.93-4.16,7.48-4.06,16.25.32,26.06,6.24,14,13.86,22.67,22.67,25.82,7.44,2.66,12.87.3,13.47,0Z"/>
      </g>
      <g>
        <path class="cls-13" d="M680.51,204.87a74.05,74.05,0,0,0-17.29-39.13,4.21,4.21,0,0,0-5.79-.26,3.83,3.83,0,0,0-.27,5.56,66.87,66.87,0,0,1,15.22,34.77c1.9,15.14,2.77,27.24,3.13,33.46l8.21.17C683.37,233.23,682.5,220.69,680.51,204.87Z"/>
        <path class="cls-14" d="M683.73,239.45l-8.21-.17c.18,2.9.23,4.66.24,4.71a4,4,0,0,0,4,3.81H680a4,4,0,0,0,4-4.06S683.88,242.36,683.73,239.45Z"/>
      </g>
    </g>
    <path class="cls-10" d="M618.41,121.78a6.14,6.14,0,0,0,3.85-1.46c.63-.53-.29-1.4-.91-.88a4.69,4.69,0,0,1-2.93,1.09.62.62,0,1,0,0,1.24Z"/>
    <path class="cls-10" d="M642.84,120.88a3.76,3.76,0,0,0,3.38,2,.62.62,0,1,0,0-1.24,2.47,2.47,0,0,1-2.26-1.34c-.38-.71-1.49-.09-1.12.63Z"/>
  </g>
  <path class="cls-15" d="M142.94,56.73a22.42,22.42,0,0,0,8.47-17.47c0-12.6-10.64-22.82-23.76-22.82a24.64,24.64,0,0,0-7.16,1.06A31.65,31.65,0,0,0,92.82,1.66,32.17,32.17,0,0,0,74.4,7.39,36.78,36.78,0,0,0,52.17,0C35.65,0,21.74,10.69,17.5,25.26,7.68,26.16,0,34.1,0,43.76c0,9.28,7.08,17,16.34,18.36,1.42,11.83,11.88,21,24.58,21a25.2,25.2,0,0,0,17.15-6.64A27.67,27.67,0,0,0,102,74.33a19.71,19.71,0,0,0,16.59,8.85,19.4,19.4,0,0,0,19-14.4l.88-8Z"/>
  <path class="cls-16" d="M617,83.9l6.56-17.7a18.82,18.82,0,0,1-7.11-14.66c0-10.58,8.93-19.16,19.94-19.16a20.68,20.68,0,0,1,6,.89A26.57,26.57,0,0,1,665.6,20a27,27,0,0,1,15.46,4.81,30.88,30.88,0,0,1,18.66-6.2c13.87,0,25.55,9,29.1,21.21a15.54,15.54,0,0,1,1,30.94c-1.19,9.93-10,17.65-20.63,17.65a21.16,21.16,0,0,1-14.39-5.57A23.23,23.23,0,0,1,657.91,81,16.54,16.54,0,0,1,644,88.4,16.28,16.28,0,0,1,628,76.31C622.33,78.18,617,83.9,617,83.9Z"/>
  <text class="cls-17" transform="translate(634.44 61.15)">I need a job</text>
  <text class="cls-17" transform="translate(51.59 39.92)">I need<tspan x="-24.87" y="15">people n</tspan><tspan class="cls-18" x="43.67" y="15">o</tspan><tspan x="53.45" y="15">w!</tspan></text>
  <g>
    <ellipse class="cls-13" cx="366.74" cy="94.36" rx="52.2" ry="50.14"/>
    <ellipse class="cls-19" cx="366.73" cy="94.36" rx="56.06" ry="53.85"/>
    <text class="cls-20" transform="translate(341.97 162.13)">Sales <tspan class="cls-18" x="30.77" y="0">R</tspan><tspan x="38.25" y="0">ep</tspan></text>
  </g>
  <g>
    <ellipse class="cls-13" cx="366.47" cy="335.26" rx="52.2" ry="50.14"/>
    <ellipse class="cls-19" cx="366.47" cy="335.26" rx="56.06" ry="53.85"/>
    <text class="cls-20" transform="translate(343.48 401.93)"><tspan class="cls-18">R</tspan><tspan x="7.48" y="0">ec</tspan><tspan class="cls-21" x="19.07" y="0">r</tspan><tspan x="22.97" y="0">uiter</tspan></text>
  </g>
  <path class="cls-4" d="M388.26,251.22l-6.94-18.74A19.92,19.92,0,0,0,388.84,217c0-11.2-9.45-20.28-21.11-20.28a21.89,21.89,0,0,0-6.36.94,28.12,28.12,0,0,0-24.58-14.07,28.58,28.58,0,0,0-16.36,5.09,32.68,32.68,0,0,0-19.75-6.57c-14.68,0-27,9.5-30.8,22.44-8.72.79-15.55,7.85-15.55,16.44a16.74,16.74,0,0,0,14.51,16.31c1.26,10.51,10.56,18.68,21.84,18.68a22.39,22.39,0,0,0,15.23-5.9,24.59,24.59,0,0,0,39-1.94A17.51,17.51,0,0,0,359.66,256a17.23,17.23,0,0,0,16.88-12.79C382.58,245.16,388.26,251.22,388.26,251.22Z"/>
  <text class="cls-22" transform="translate(270.01 220.2)">It&apos;s ha<tspan class="cls-23" x="34.75" y="0">r</tspan><tspan x="39.16" y="0">d to find the </tspan><tspan x="18.54" y="14.4">right </tspan><tspan class="cls-18" x="48.04" y="14.4">w</tspan><tspan x="58.08" y="14.4">or</tspan><tspan class="cls-18" x="69.62" y="14.4">k</tspan><tspan x="75.59" y="14.4">ers</tspan></text>
  <text class="cls-24" transform="translate(232.17 111.71)">S<tspan class="cls-25" x="8.37" y="0">t</tspan><tspan x="13.27" y="0">art</tspan></text>
  <circle class="cls-2" cx="512.94" cy="177.24" r="32.61"/>
  <path class="cls-26" d="M520.26,166.84l-19.06,5.49a3.31,3.31,0,0,0-2.26,4.09l3.51,12.18a3.31,3.31,0,0,0,4.09,2.26l19.06-5.49a3.31,3.31,0,0,0,2.26-4.09l-3.51-12.18A3.31,3.31,0,0,0,520.26,166.84Zm-.4,2.41L513,177.57l-10.21-3.41Zm5.13,14-19.06,5.49a1.1,1.1,0,0,1-1.36-.75l-3.48-12.09,12.69,4.23,8.49-10.33,3.48,12.09A1.1,1.1,0,0,1,525,183.26Z"/>
  <circle class="cls-2" cx="212.42" cy="257.14" r="32.61"/>
  <g>
    <path class="cls-26" d="M224.21,264.87h0q-1.95-2.07-4-4l0,0a2.42,2.42,0,0,0-1-.53,2,2,0,0,0-1.62.16l-.09.05a6.3,6.3,0,0,0-.58.43h0l-2.14,1.82a10.28,10.28,0,0,1-4.5-2.74,11.38,11.38,0,0,1-2.14-3q-.44-.91-.78-1.81,1.16-1.35,2.2-2.76l0,0a2,2,0,0,0,.35-1.27,2.79,2.79,0,0,0-.83-1.95h0q-1.72-1.76-3.48-3.48l0,0a3.1,3.1,0,0,0-3.27-.85h0a5.53,5.53,0,0,0-1.16.47l-.13.09a8.53,8.53,0,0,0-2.58,3v0a4.67,4.67,0,0,0-.33,3.35h0a34,34,0,0,0,2.45,6.62h0a30.39,30.39,0,0,0,3.49,5.45h0a22.89,22.89,0,0,0,5,4.63h0a23.67,23.67,0,0,0,5.3,2.63h0a16,16,0,0,0,4.76.92,1,1,0,0,0,.34,0,11.6,11.6,0,0,0,1.27-.46,8.25,8.25,0,0,0,3.71-3.06h0A2.63,2.63,0,0,0,224.21,264.87Zm-5.69-2.62h0Zm4.26,5h0a6.24,6.24,0,0,1-2.8,2.32,9.15,9.15,0,0,1-.88.32,14,14,0,0,1-4-.79h0a21.64,21.64,0,0,1-4.83-2.4h0a20.86,20.86,0,0,1-4.6-4.22h0a28.46,28.46,0,0,1-3.27-5.09h0a32,32,0,0,1-2.31-6.23h0a2.69,2.69,0,0,1,.18-1.9v0a6.55,6.55,0,0,1,1.89-2.23,3.44,3.44,0,0,1,.68-.27h0a1.14,1.14,0,0,1,1.22.34l0,0q1.75,1.71,3.46,3.46h0a.84.84,0,0,1,.24.57v0a.05.05,0,0,0,0,0q-1.15,1.57-2.46,3.06a1,1,0,0,0-.21,1,21.75,21.75,0,0,0,1.07,2.6,13.47,13.47,0,0,0,2.52,3.58,12.28,12.28,0,0,0,6,3.43,1,1,0,0,0,.49,0,1,1,0,0,0,.43-.22l2.55-2.17h0l.32-.25.09,0a.48.48,0,0,1,.18.09q2,1.89,3.88,3.89h0A.76.76,0,0,1,222.77,267.3Z"/>
    <path class="cls-26" d="M226.89,255.73q-1.75-10.79-13.36-13.43a1,1,0,1,0-.46,2q10.2,2.32,11.79,11.76a1,1,0,0,0,.41.66,1,1,0,0,0,.77.18,1,1,0,0,0,.66-.41A1,1,0,0,0,226.89,255.73Z"/>
    <path class="cls-26" d="M213.1,249.52q5.53,1.1,6.81,6.84a1,1,0,0,0,.46.65,1,1,0,0,0,.78.14,1,1,0,0,0,.65-.46,1,1,0,0,0,.14-.78q-1.58-7.08-8.42-8.43a1,1,0,0,0-.78.16,1,1,0,0,0-.44.66,1,1,0,0,0,.16.78A1,1,0,0,0,213.1,249.52Z"/>
  </g>
  <circle class="cls-2" cx="245.85" cy="330.45" r="10.55"/>
  <circle class="cls-2" cx="428.58" cy="217.93" r="10.55"/>
  <circle class="cls-2" cx="495.38" cy="335.26" r="10.55"/>
  <g>
    <g>
      <path class="cls-14" d="M347,121.68l-.11.06-.45.21c-.42.19-1.08.48-1.94.83a58.74,58.74,0,0,1-7.37,2.41c-1.55.4-3.24.75-5,1a40.41,40.41,0,0,1-5.53.46,30.21,30.21,0,0,1-5.65-.44,26.07,26.07,0,0,1-2.71-.66,20.65,20.65,0,0,1-2.56-1,19.23,19.23,0,0,1-4.53-2.89,22.07,22.07,0,0,1-3.58-4,28.09,28.09,0,0,1-2.61-4.67,38.06,38.06,0,0,1-1.75-4.73c-.25-.75-.42-1.51-.62-2.22l-.47-2-.35-1.83c-.1-.57-.18-1.1-.25-1.58-.16-1-.23-1.72-.3-2.23l-.1-.79,0-.18a5.6,5.6,0,0,0-11.14,1.18l.08.92c.06.6.11,1.47.25,2.6.07.56.13,1.18.23,1.86l.34,2.19.47,2.5c.21.88.39,1.81.66,2.78a49.85,49.85,0,0,0,2,6.22,40.1,40.1,0,0,0,3.45,6.75,34.36,34.36,0,0,0,5.38,6.49,31.78,31.78,0,0,0,7.28,5.07,33.33,33.33,0,0,0,4.07,1.73,38.76,38.76,0,0,0,4.16,1.18,43.16,43.16,0,0,0,8.1,1,53.6,53.6,0,0,0,7.38-.33c2.3-.26,4.45-.63,6.39-1.05a72.48,72.48,0,0,0,9.22-2.64c1.1-.4,2-.74,2.57-1l.72-.3.29-.13h0a7,7,0,1,0-5.75-12.86Z"/>
      <g id="Hand_Right" data-name="Hand Right">
        <path class="cls-14" d="M291.36,84.67c-2.34-1.37-3.09.71-4.45,3l-4.37,7.47c-1.36,2.32-2.81,4-.47,5.36l8.18,4.79a4.89,4.89,0,0,0,6.7-1.72l4.37-7.47a4.89,4.89,0,0,0-1.78-6.68Z"/>
      </g>
      <path class="cls-10" d="M304.93,113.46v0q1-4.46,1.77-8.95v-.08a3.9,3.9,0,0,0-.21-1.83,3.18,3.18,0,0,0-1.67-2l-.15-.07a10.14,10.14,0,0,0-1.09-.38h0l-4.35-1.21a16.53,16.53,0,0,1-.39-8.46A18.31,18.31,0,0,1,301,84.87q.81-1.4,1.71-2.66,2.84.33,5.66.44h.05a3.17,3.17,0,0,0,2-.67,4.49,4.49,0,0,0,1.85-2.85h0q.79-3.88,1.51-7.77v0A5,5,0,0,0,312,66.18h0a8.9,8.9,0,0,0-1.67-1.13l-.23-.09a13.72,13.72,0,0,0-6.36-.71h0a7.52,7.52,0,0,0-4.76,2.58h0a54.64,54.64,0,0,0-6.63,9.22v0a48.87,48.87,0,0,0-4.13,9.56h0a36.81,36.81,0,0,0-1.63,10.9v0a38.07,38.07,0,0,0,1.27,9.43h0a25.7,25.7,0,0,0,3.06,7.18,1.65,1.65,0,0,0,.36.41,18.66,18.66,0,0,0,1.75,1.28,13.27,13.27,0,0,0,7.42,2.2h0A4.22,4.22,0,0,0,304.93,113.46Z"/>
      <g>
        <g>
          <rect class="cls-14" x="284.38" y="80.07" width="11.84" height="4.45" rx="2.23" ry="2.23" transform="translate(41.01 -87.71) rotate(18.47)"/>
          <rect class="cls-14" x="282.88" y="84.56" width="11.84" height="4.45" rx="2.23" ry="2.23" transform="translate(42.36 -87) rotate(18.47)"/>
          <rect class="cls-14" x="281.37" y="89.06" width="11.84" height="4.45" rx="2.23" ry="2.23" transform="translate(43.7 -86.3) rotate(18.47)"/>
          <rect class="cls-14" x="279.87" y="93.55" width="11.84" height="4.45" rx="2.23" ry="2.23" transform="translate(45.05 -85.59) rotate(18.47)"/>
        </g>
        <rect class="cls-14" x="297.99" y="85.64" width="6.51" height="6.51" rx="3.26" ry="3.26" transform="translate(86.06 -139.9) rotate(30.32)"/>
      </g>
    </g>
    <polygon class="cls-10" points="350.53 119.78 334 123.8 334 142.56 348.55 141.29 350.53 119.78"/>
    <g class="cls-27">
      <path class="cls-10" d="M369,115.31s-19.44,2.17-21.27,6S345,147,345,147h60.12L403,120.39,382.64,116Z"/>
      <polygon class="cls-10" points="408.98 124.54 402.96 120.08 403.71 130.32 408.98 124.54"/>
    </g>
    <g>
      <path class="cls-14" d="M396.93,77.2s-4.52,31.06-23.61,31.45-25.85-25.94-24.56-34.81c0,0-.41-22.52,24.48-18.07S396.93,77.2,396.93,77.2Z"/>
      <path class="cls-14" d="M380.6,105.92l-.23,9.94s-4.93,2.65-7.72,2.19a10,10,0,0,1-5-3l.23-9.94Z"/>
      <path class="cls-9" d="M369.41,79.51c-.48,2.3-2,4.31-2.39,6.63a1.45,1.45,0,0,0,.28,1.32,1.79,1.79,0,0,0,1.22.31c1,0,2.13-.12,2.49-1a2.22,2.22,0,0,0,0-1.27q-.47-2.49-1-5c-.1-.49-.31-1.09-.83-1.16"/>
      <ellipse class="cls-10" cx="380.49" cy="78.86" rx="1.26" ry="1.32" transform="translate(293.65 457.61) rotate(-88.8)"/>
      <ellipse class="cls-10" cx="357.6" cy="78.38" rx="1.26" ry="1.32" transform="translate(271.73 434.26) rotate(-88.8)"/>
      <path class="cls-7" d="M395.41,84s-3-1.67-3.67-6.39-1.21-6.57-4.58-8.34-3.5-5.7-12.93-5.64S360.57,65,355.78,64.68s-8.88,1-8.49-4.37.34-12,16.63-10.52,23,1.14,30.25,10.58S401.27,83.77,395.41,84Z"/>
      <path class="cls-9" d="M375.22,102.31h2.63a.75.75,0,0,0,0-1.5h-2.62a.75.75,0,0,0,0,1.5Z"/>
    </g>
    <path class="cls-10" d="M343.51,121.25h0Z"/>
  </g>
  <g>
    <g>
      <path class="cls-14" d="M383.55,361.76l.11.06.45.21c.42.19,1.08.48,1.94.83a58.74,58.74,0,0,0,7.37,2.41c1.55.4,3.24.75,5,1a40.41,40.41,0,0,0,5.53.46,30.21,30.21,0,0,0,5.65-.44,26.07,26.07,0,0,0,2.71-.66,20.65,20.65,0,0,0,2.56-1,19.23,19.23,0,0,0,4.53-2.89,22.07,22.07,0,0,0,3.58-4,28.09,28.09,0,0,0,2.61-4.67,38.06,38.06,0,0,0,1.75-4.73c.25-.75.42-1.51.62-2.22l.47-2,.35-1.83c.1-.57.18-1.1.25-1.58.16-1,.23-1.72.3-2.23l.1-.79,0-.18a5.6,5.6,0,0,1,11.14,1.18l-.08.92c-.06.6-.11,1.47-.25,2.6-.07.56-.13,1.18-.23,1.86l-.34,2.19-.47,2.5c-.21.88-.39,1.81-.66,2.78a49.85,49.85,0,0,1-2,6.22,40.1,40.1,0,0,1-3.45,6.75,34.36,34.36,0,0,1-5.38,6.49,31.78,31.78,0,0,1-7.28,5.07,33.33,33.33,0,0,1-4.07,1.73,38.76,38.76,0,0,1-4.16,1.18,43.16,43.16,0,0,1-8.1,1,53.6,53.6,0,0,1-7.38-.33c-2.3-.26-4.45-.63-6.39-1.05a72.48,72.48,0,0,1-9.22-2.64c-1.1-.4-2-.74-2.57-1l-.72-.3-.29-.13h0a7,7,0,1,1,5.75-12.86Z"/>
      <g id="Hand_Right-2" data-name="Hand Right">
        <path class="cls-14" d="M439.2,324.76c2.34-1.37,3.09.71,4.45,3l4.37,7.47c1.36,2.32,2.81,4,.47,5.36l-8.18,4.79a4.89,4.89,0,0,1-6.7-1.72l-4.37-7.47a4.89,4.89,0,0,1,1.78-6.68Z"/>
      </g>
      <path class="cls-10" d="M430.17,357.12h0a13.27,13.27,0,0,0,7.42-2.2,18.66,18.66,0,0,0,1.75-1.28,1.65,1.65,0,0,0,.36-.41,25.7,25.7,0,0,0,3.06-7.18h0a38.07,38.07,0,0,0,1.27-9.43v0a36.81,36.81,0,0,0-1.63-10.9h0a48.87,48.87,0,0,0-4.13-9.56v0a54.64,54.64,0,0,0-6.63-9.22h0a7.52,7.52,0,0,0-4.76-2.58h0a13.72,13.72,0,0,0-6.36.71l-.23.09a8.9,8.9,0,0,0-1.67,1.13h0a5,5,0,0,0-1.81,5.13v0q.72,3.89,1.51,7.77h0a4.49,4.49,0,0,0,1.85,2.85,3.17,3.17,0,0,0,2,.67h.05q2.82-.11,5.66-.44.9,1.26,1.71,2.66a18.31,18.31,0,0,1,2.12,5.58,16.53,16.53,0,0,1-.39,8.46L427,340.21h0a10.14,10.14,0,0,0-1.09.38l-.15.07a3.18,3.18,0,0,0-1.67,2,3.9,3.9,0,0,0-.21,1.83v.08q.75,4.49,1.77,8.95v0A4.22,4.22,0,0,0,430.17,357.12Z"/>
      <g>
        <g>
          <rect class="cls-14" x="434.34" y="320.15" width="11.84" height="4.45" rx="2.23" ry="2.23" transform="translate(959.97 488.71) rotate(161.53)"/>
          <rect class="cls-14" x="435.84" y="324.65" width="11.84" height="4.45" rx="2.23" ry="2.23" transform="translate(964.31 497) rotate(161.53)"/>
          <rect class="cls-14" x="437.34" y="329.14" width="11.84" height="4.45" rx="2.23" ry="2.23" transform="translate(968.66 505.28) rotate(161.53)"/>
          <rect class="cls-14" x="438.84" y="333.64" width="11.84" height="4.45" rx="2.23" ry="2.23" transform="matrix(-0.95, 0.32, -0.32, -0.95, 973.01, 513.56)"/>
        </g>
        <rect class="cls-14" x="426.05" y="325.72" width="6.51" height="6.51" rx="3.26" ry="3.26" transform="translate(965.97 396.28) rotate(149.68)"/>
      </g>
    </g>
    <polygon class="cls-10" points="383.69 360.69 399 364.48 399 382.17 385.42 380.97 383.69 360.69"/>
    <g>
      <path class="cls-6" d="M357.51,304.5c.88-1-3.75-11.44-11.12-9.77s-7.54,13.07-4.9,17.79,3.5,12.68-1.56,11.88c0,0,12.29,4.37,14-10.24Z"/>
      <g>
        <path class="cls-14" d="M349.46,322.83s4.26,29.29,22.26,29.65,24.37-24.46,23.15-32.82c0,0,.39-21.24-23.08-17S349.46,322.83,349.46,322.83Z"/>
        <path class="cls-14" d="M364.85,349.91l.21,9.38s4.65,2.49,7.28,2.07a9.41,9.41,0,0,0,4.74-2.81l-.21-9.38Z"/>
        <path class="cls-9" d="M375.4,325c.45,2.17,1.91,4.06,2.25,6.25a1.37,1.37,0,0,1-.26,1.24,1.69,1.69,0,0,1-1.15.3c-.9,0-2-.11-2.35-.91a2.09,2.09,0,0,1,0-1.19q.44-2.35.92-4.69c.1-.47.29-1,.78-1.1"/>
        <ellipse class="cls-10" cx="364.96" cy="324.4" rx="1.24" ry="1.19" transform="translate(-6.73 7.73) rotate(-1.2)"/>
        <ellipse class="cls-10" cx="386.53" cy="324.95" rx="1.24" ry="1.19" transform="translate(-6.74 8.19) rotate(-1.2)"/>
        <path class="cls-9" d="M368.47,346.79a22.38,22.38,0,0,0,3.5.14c1,0,1-1.54,0-1.5a22.38,22.38,0,0,1-3.5-.14c-1-.11-.95,1.39,0,1.5Z"/>
      </g>
      <path class="cls-6" d="M355.89,313.43S391.78,309.78,395,325c0,0,13.59-18.48-9.65-26.89C366.88,291.43,353.09,303.45,355.89,313.43Z"/>
      <path class="cls-6" d="M352.22,334.2s11-11.37,6.48-24.15l-1.19-4.83s-10.72,1.76-11.1,14.15S352.22,334.2,352.22,334.2Z"/>
      <ellipse class="cls-28" cx="387.4" cy="333.97" rx="3.38" ry="3.25"/>
      <ellipse class="cls-28" cx="357.78" cy="334.44" rx="3.38" ry="3.25"/>
      <g class="cls-29">
        <path class="cls-10" d="M377.07,358.54s-5,2.11-13-1.36c0,0-22.21,3.52-26.7,18.1,0,0,11.92,9.89,32.08,9.89a150.91,150.91,0,0,0,30-3S389.48,357.41,377.07,358.54Z"/>
      </g>
    </g>
    <path class="cls-10" d="M361.35,320.95a16,16,0,0,1,5.58-.35c.48.05.48-.7,0-.75a16.59,16.59,0,0,0-5.78.37c-.47.11-.27.84.2.72Z"/>
    <path class="cls-10" d="M383.35,320.95a16,16,0,0,1,5.58-.35c.48.05.48-.7,0-.75a16.59,16.59,0,0,0-5.78.37c-.47.11-.27.84.2.72Z"/>
  </g>
  <path class="cls-15" d="M49.6,81.19,63,98.76V77.56S53.19,66.82,49.6,81.19Z"/>
  <path class="cls-30" d="M302.88,110.17a5.69,5.69,0,0,0,3.48,3.89,11.46,11.46,0,0,0,7.82.67c1.42-.39,3-1.45,2.8-2.91a2.76,2.76,0,0,0-1.16-1.72,3.26,3.26,0,0,0-3.65-.49,2.81,2.81,0,0,0-.95,3.09,5.58,5.58,0,0,0,2,2.71,11.57,11.57,0,0,0,9.66,2.13,3.22,3.22,0,0,0,2.57-1.9c.44-1.6-1.67-3-3.23-2.44s-2.39,2.32-2.58,4a5.29,5.29,0,0,0,.81,3.77c1.37,1.84,4,2,6.3,1.83s5.27-1,5.87-3.35a1.52,1.52,0,0,0-1.32-2.11,4.43,4.43,0,0,0-4.3,2.47c-.85,1.54-.89,5.66-1,7.42"/>
  <path class="cls-30" d="M427,353.08A17.43,17.43,0,0,0,416.51,349a8.32,8.32,0,0,0-5.62,1.48c-1.54,1.25-2.25,3.65-1.14,5.29s4.16,1.54,4.77-.35a3,3,0,0,0-1.13-3.08,6.35,6.35,0,0,0-3.25-1.15,12.44,12.44,0,0,0-7.22,1.19,8.93,8.93,0,0,0-4.56,5.59,4.81,4.81,0,0,0,.24,3.34c.82,1.59,2.76,2.3,4.55,2.37a4.08,4.08,0,0,0,2-.32,2.55,2.55,0,0,0-1.3-4.82,3.33,3.33,0,0,0-2.6,1.91c-.51,1-.5,5-.52,6.16"/>
  <text class="cls-31" transform="translate(622.32 189.49)">HIRE<tspan class="cls-32"><tspan x="-1.88" y="16">ME!</tspan></tspan></text>
  <text class="cls-33" transform="translate(76.4 375.11)">EMP<tspan class="cls-34" x="24.14" y="0">L</tspan><tspan x="30.2" y="0">OYER</tspan></text>
  <polygon class="cls-12" points="84.08 229.7 85.08 215.84 126.78 216.37 126.56 230.37 84.08 229.7"/>
  <text class="cls-35" transform="translate(90.74 226.98)">HELP!</text>
  <path class="cls-10" d="M359.08,72.94a22.52,22.52,0,0,0-5.7.69.38.38,0,0,0,.2.72,21.72,21.72,0,0,1,5.5-.66.38.38,0,0,0,0-.75Z"/>
  <path class="cls-10" d="M384.16,73.73a22.52,22.52,0,0,0-5.67-.89.38.38,0,0,0,0,.75,21.73,21.73,0,0,1,5.47.86.38.38,0,0,0,.2-.72Z"/>
  <g class="cls-36">
    <g>
      <line class="cls-37" x1="2.01" y1="439.86" x2="6.01" y2="439.86"/>
      <line class="cls-38" x1="14.05" y1="439.86" x2="733.49" y2="439.86"/>
      <line class="cls-37" x1="737.51" y1="439.86" x2="741.51" y2="439.86"/>
    </g>
  </g>
</svg>
