<svg id="gj_logo" xmlns="http://www.w3.org/2000/svg" width="752" height="142.34" viewBox="0 0 752 142.34">
  <defs>
    <style>
      .cls-1, .cls-2 {
        fill: #00aef3;
      }

      .cls-1 {
        fill-rule: evenodd;
      }

      .cls-3 {
        fill: #fff;
      }

      .cls-4 {
        fill: #f8576e;
      }

      .cls-5 {
        fill: #fbce00;
      }

      .cls-6 {
        fill: #00ed97;
      }
    </style>
  </defs>
  <title>gj-logo</title>
  <path class="cls-1" d="M58.5,0a58.49,58.49,0,0,0-38,102.95L7.27,125.84a11,11,0,1,0,19.05,11l10.15-17.59a22.53,22.53,0,0,1-6.3-9.56A58.5,58.5,0,1,0,58.5,0Zm0,95A36.5,36.5,0,1,1,95,58.5,36.5,36.5,0,0,1,58.5,95Z" transform="translate(0 0)"/>
  <path class="cls-2" d="M43,59a3.5,3.5,0,1,1-7,0A23,23,0,0,1,59,36a3.5,3.5,0,1,1,0,7A16,16,0,0,0,43,59" transform="translate(0 0)"/>
  <path class="cls-3" d="M248,60.73a8.42,8.42,0,0,0-2.71-6.39,9.22,9.22,0,0,0-6.55-2.55H207a9,9,0,0,0-6.47,2.55,8.45,8.45,0,0,0-2.63,6.31,8.82,8.82,0,0,0,2.71,6.47A8.73,8.73,0,0,0,207,69.83h22.84V91.72a43.24,43.24,0,0,1-21.88,6.07,40.1,40.1,0,0,1-28.66-11.5,37,37,0,0,1-12.06-27.79,37.12,37.12,0,0,1,12-27.8q12-11.5,27.39-11.5t26.59,8.63A8.89,8.89,0,0,0,240,29.74a8.63,8.63,0,0,0,6.07-3.43,9,9,0,0,0,1.76-6.79,8.55,8.55,0,0,0-3.51-6.07A57.18,57.18,0,0,0,207.93,1q-24.43,0-41.68,16.85T149,58.65a54.44,54.44,0,0,0,17.25,40.65Q183.49,116,207.93,116a57.38,57.38,0,0,0,36.25-12.46,8,8,0,0,0,3-3.83v-.16A7.76,7.76,0,0,0,248,96Z" transform="translate(0 0)"/>
  <path class="cls-3" d="M294.5,53.34a22.56,22.56,0,0,1,15.14,6,23.23,23.23,0,0,1,6.28,16.54,24.36,24.36,0,0,1-6.28,16.86,22.41,22.41,0,0,1-30.28,0,25.56,25.56,0,0,1-5.8-16.86q0-9.86,5.8-16.54A22.56,22.56,0,0,1,294.5,53.34Zm27.22,50.58Q333,93.11,333,76.56A40.47,40.47,0,0,0,321.8,48q-11.2-12-27.14-12t-27.3,11.85A39.41,39.41,0,0,0,256,76.08a39.28,39.28,0,0,0,11.27,28.16A36.66,36.66,0,0,0,294.82,116,34.26,34.26,0,0,0,321.72,103.92Z" transform="translate(0 0)"/>
  <path class="cls-3" d="M379.5,53.34a22.56,22.56,0,0,1,15.14,6,23.23,23.23,0,0,1,6.28,16.54,24.35,24.35,0,0,1-6.28,16.86,22.41,22.41,0,0,1-30.28,0,25.56,25.56,0,0,1-5.8-16.86q0-9.86,5.8-16.54A22.56,22.56,0,0,1,379.5,53.34Zm27.22,50.58Q418,93.11,418,76.56A40.46,40.46,0,0,0,406.8,48q-11.2-12-27.14-12t-27.3,11.85A39.42,39.42,0,0,0,341,76.08a39.27,39.27,0,0,0,11.27,28.16A36.66,36.66,0,0,0,379.82,116,34.26,34.26,0,0,0,406.72,103.92Z" transform="translate(0 0)"/>
  <path class="cls-3" d="M449.83,91.92a22.14,22.14,0,0,1-6.34-15.84,22.58,22.58,0,0,1,6.26-15.92,20.64,20.64,0,0,1,30.48,0,22.58,22.58,0,0,1,6.26,15.92,22.14,22.14,0,0,1-6.34,15.84,20.63,20.63,0,0,1-30.33,0ZM504,12.64a8.31,8.31,0,0,0-2.57-6.08,8.73,8.73,0,0,0-12.35,0,8.29,8.29,0,0,0-2.57,6.08V42.72a37.94,37.94,0,0,0-49.1,5.12A39.31,39.31,0,0,0,426,76.08a39,39,0,0,0,11.39,28.16A37,37,0,0,0,465,116a38,38,0,0,0,21.82-6.88,8.83,8.83,0,0,0,3,4.88,8.43,8.43,0,0,0,5.7,2,8.16,8.16,0,0,0,5.94-2.56,8.3,8.3,0,0,0,2.57-6.08Z" transform="translate(0 0)"/>
  <path class="cls-4" d="M525.83,108.64A37.76,37.76,0,0,0,586,78.08V7.84a3.72,3.72,0,0,0-1.12-2.72,3.83,3.83,0,0,0-5.42,0,3.71,3.71,0,0,0-1.12,2.72V78.08a30.12,30.12,0,0,1-30.13,30.08,28.3,28.3,0,0,1-17.77-5.68A29.9,29.9,0,0,1,519.53,87.2,3.1,3.1,0,0,0,517.78,85a4,4,0,0,0-3-.24,3.65,3.65,0,0,0-2.31,1.92,4,4,0,0,0-.24,3A36.87,36.87,0,0,0,525.83,108.64Z" transform="translate(0 0)"/>
  <path class="cls-5" d="M651.65,54.72a31.25,31.25,0,0,1,8.69,22.2,31.24,31.24,0,0,1-8.69,22.21Q643,108.36,631,108.36t-20.65-9.23a31.23,31.23,0,0,1-8.69-22.21,31.24,31.24,0,0,1,8.69-22.2Q619,45.49,631,45.49T651.65,54.72ZM631,116q15.31,0,26.15-11.54A38.72,38.72,0,0,0,668,77a38.74,38.74,0,0,0-10.84-27.46Q646.31,38,631,38T604.85,49.55A38.73,38.73,0,0,0,594,77a38.71,38.71,0,0,0,10.84,27.46Q615.69,116,631,116Z" transform="translate(0 0)"/>
  <path class="cls-6" d="M693.08,54.24a28.63,28.63,0,0,1,21.08-8.8,28.28,28.28,0,0,1,21.16,9.2,31,31,0,0,1,8.82,22.24A30.7,30.7,0,0,1,735.33,99a29.39,29.39,0,0,1-42.57,0A30.46,30.46,0,0,1,683.86,77V75.68A31.05,31.05,0,0,1,693.08,54.24Zm-16,60.64a3.71,3.71,0,0,0,2.73,1.12,4,4,0,0,0,2.81-1.12,3.58,3.58,0,0,0,1.2-2.72V100.8A38.31,38.31,0,0,0,697,111.92a37.43,37.43,0,0,0,43.93-7.36A38.36,38.36,0,0,0,752,76.88a38.64,38.64,0,0,0-11.06-27.76A37.09,37.09,0,0,0,697,41.76,39.22,39.22,0,0,0,683.86,53V7.84a3.59,3.59,0,0,0-1.2-2.72A4,4,0,0,0,679.86,4,3.83,3.83,0,0,0,676,7.84V112.16A3.7,3.7,0,0,0,677.13,114.88Z" transform="translate(0 0)"/>
</svg>
