<svg id="icon_maintenance" xmlns="http://www.w3.org/2000/svg" width="489.72" height="209.42" viewBox="0 0 489.72 209.42">
  <defs>
    <style>
      .cls-1 {
        fill: #00aeef;
      }
    </style>
  </defs>
  <title>icon-maintenance</title>
  <path class="cls-1" d="M169,199.86V173.08a9.08,9.08,0,0,1,9.08-9.08h10.52L220.2,7.17A9.21,9.21,0,0,1,229.28,0h31.08a9.21,9.21,0,0,1,9.09,7.17L301,164.48h11.48a8.91,8.91,0,0,1,8.13,9.08v26.78a9.08,9.08,0,0,1-9.08,9.08H178.12S169,209.42,169,199.86Zm133.4-9.56v-8.13H187.68v8.13Zm-19.6-26.78-7.17-34.9h-61.2l-7.17,34.9Zm-11-53.07-7.17-34.9H225.45l-7.17,34.9ZM261.31,56.9l-8.13-39.21H236.93L228.8,56.9Z"/>
  <path class="cls-1" d="M480.72,208.4H347a9,9,0,0,1,0-18H480.72a9,9,0,0,1,0,18Z"/>
  <path class="cls-1" d="M142.72,208.4H9a9,9,0,0,1,0-18H142.72a9,9,0,0,1,0,18Z"/>
</svg>
