<svg xmlns="http://www.w3.org/2000/svg" xmlns:xlink="http://www.w3.org/1999/xlink" preserveAspectRatio="xMidYMid" width="50.3" height="50.3" viewBox="0 0 50.3 50.3">
  <defs>
    <style>
      .cls-1 {
        fill: #74767a;
        stroke: #fff;
        stroke-width: 0.3px;
        fill-rule: evenodd;
      }
    </style>
  </defs>
  <path d="M48.083,27.874 C47.668,27.864 47.285,27.729 46.970,27.506 C46.441,27.130 46.101,26.505 46.116,25.805 C46.126,25.378 46.122,24.944 46.105,24.517 C46.062,23.400 46.926,22.459 48.035,22.415 C49.145,22.371 50.080,23.241 50.124,24.358 C50.144,24.868 50.148,25.384 50.137,25.894 C50.112,27.012 49.192,27.898 48.083,27.874 ZM47.597,19.989 C46.968,20.198 46.309,20.078 45.805,19.721 C45.465,19.480 45.196,19.131 45.056,18.703 C44.922,18.297 44.774,17.889 44.617,17.492 C44.204,16.453 44.706,15.276 45.737,14.860 C46.768,14.445 47.938,14.951 48.350,15.989 C48.538,16.461 48.715,16.947 48.874,17.430 C49.222,18.491 48.651,19.636 47.597,19.989 ZM42.615,10.460 L35.791,11.075 C35.027,11.144 34.758,10.681 35.195,10.044 L36.766,7.759 C29.451,2.848 20.098,3.170 13.209,7.949 C13.185,7.966 13.161,7.983 13.137,7.999 C11.182,9.368 9.429,11.096 7.980,13.166 C1.316,22.690 3.591,35.897 13.049,42.607 C13.698,43.066 14.366,43.486 15.050,43.865 C15.052,43.866 15.054,43.867 15.056,43.869 C15.429,44.073 15.813,44.269 16.199,44.452 C16.219,44.461 16.236,44.473 16.256,44.483 C17.891,45.255 19.615,45.808 21.413,46.133 C22.506,46.330 23.233,47.383 23.037,48.484 C22.841,49.584 21.797,50.317 20.703,50.119 C17.101,49.468 13.746,48.055 10.733,45.917 C9.582,45.101 8.513,44.198 7.530,43.221 C7.527,43.218 7.524,43.217 7.521,43.213 C7.512,43.204 7.503,43.195 7.495,43.187 C3.836,39.537 1.394,34.848 0.497,29.636 C0.409,29.125 0.339,28.614 0.283,28.104 C0.277,28.072 0.270,28.041 0.267,28.008 C0.213,27.501 0.173,26.986 0.150,26.479 C0.149,26.461 0.150,26.444 0.150,26.427 C-0.084,21.227 1.281,16.120 4.112,11.703 C4.131,11.671 4.147,11.638 4.169,11.606 C4.340,11.340 4.518,11.074 4.700,10.815 C4.811,10.657 4.924,10.498 5.038,10.344 C5.065,10.306 5.095,10.272 5.124,10.238 C8.555,5.621 13.362,2.384 18.873,0.959 C18.896,0.953 18.921,0.945 18.945,0.939 C18.949,0.938 18.953,0.938 18.958,0.937 C19.583,0.777 20.218,0.640 20.862,0.527 C27.252,-0.588 33.690,0.795 39.058,4.423 L40.633,2.133 C41.070,1.496 41.595,1.586 41.800,2.331 L43.633,8.979 C43.839,9.724 43.381,10.390 42.615,10.460 ZM28.936,46.115 C29.353,46.037 29.774,45.945 30.186,45.842 C31.264,45.572 32.355,46.232 32.623,47.317 C32.892,48.402 32.235,49.501 31.158,49.771 C30.666,49.894 30.165,50.004 29.668,50.097 C29.115,50.200 28.571,50.064 28.144,49.761 C27.730,49.467 27.425,49.016 27.325,48.475 C27.123,47.376 27.844,46.319 28.936,46.115 ZM37.841,34.834 C37.590,34.834 37.334,34.775 37.096,34.651 L22.272,26.934 L22.272,10.614 C22.272,9.710 23.000,8.976 23.900,8.976 C24.798,8.976 25.525,9.710 25.525,10.614 L25.525,24.940 L38.590,31.741 C39.388,32.156 39.700,33.144 39.288,33.948 C38.999,34.511 38.430,34.834 37.841,34.834 ZM35.630,43.629 C35.999,43.415 36.365,43.187 36.720,42.951 C37.647,42.335 38.893,42.591 39.506,43.524 C40.118,44.457 39.863,45.713 38.937,46.330 C38.514,46.611 38.078,46.882 37.640,47.137 C36.939,47.543 36.096,47.478 35.476,47.038 C35.245,46.873 35.044,46.658 34.893,46.395 C34.339,45.426 34.668,44.188 35.630,43.629 ZM41.912,38.030 C42.579,37.135 43.838,36.953 44.728,37.625 C45.615,38.296 45.796,39.565 45.129,40.460 C44.824,40.869 44.504,41.273 44.175,41.661 C43.496,42.464 42.328,42.601 41.488,42.005 C41.437,41.969 41.388,41.932 41.340,41.890 C40.495,41.165 40.393,39.887 41.113,39.036 C41.388,38.711 41.657,38.372 41.912,38.030 ZM44.743,32.850 C44.895,32.449 45.036,32.040 45.163,31.632 C45.495,30.565 46.624,29.971 47.683,30.306 C48.743,30.640 49.332,31.776 49.000,32.843 C48.849,33.328 48.681,33.815 48.501,34.292 C48.105,35.337 46.944,35.861 45.906,35.463 C45.745,35.401 45.597,35.321 45.463,35.226 C44.729,34.705 44.409,33.734 44.743,32.850 Z" class="cls-1"/>
</svg>
