<svg xmlns="http://www.w3.org/2000/svg" xmlns:xlink="http://www.w3.org/1999/xlink" preserveAspectRatio="xMidYMid" width="50.5" height="67" viewBox="0 0 50.5 67">
  <defs>
    <style>
      .cls-1 {
        fill: #007aff;
        fill-rule: evenodd;
      }
    </style>
  </defs>
  <path d="M49.547,5.590 L32.673,26.972 L39.879,26.972 C42.252,26.972 42.987,28.284 43.193,28.846 C43.398,29.408 43.678,30.869 41.895,32.382 L5.678,65.873 C5.654,65.896 5.628,65.920 5.602,65.941 C4.739,66.660 3.978,66.997 3.208,66.997 C2.420,66.997 1.716,66.633 1.276,66.000 C0.490,64.868 0.953,63.472 1.167,62.902 L7.738,38.737 C7.757,38.671 7.778,38.605 7.802,38.543 C7.812,38.518 7.820,38.494 7.825,38.473 C7.815,38.473 7.805,38.473 7.794,38.473 L3.847,38.473 C2.346,38.473 1.108,37.838 0.453,36.732 C-0.208,35.616 -0.162,34.213 0.579,32.886 L16.916,3.645 C18.071,1.570 20.728,0.003 23.097,0.003 L46.851,0.003 C48.423,0.003 49.647,0.661 50.209,1.813 C50.774,2.969 50.532,4.346 49.547,5.590 ZM23.097,4.014 C22.201,4.014 20.888,4.794 20.445,5.588 L4.313,34.461 L7.794,34.461 C9.238,34.461 10.489,35.072 11.225,36.137 C11.951,37.185 12.089,38.541 11.610,39.871 L6.146,59.962 L37.484,30.983 L31.487,30.983 C29.914,30.983 28.690,30.324 28.128,29.175 C27.562,28.019 27.804,26.641 28.789,25.395 L45.662,4.014 L23.097,4.014 ZM23.651,10.718 L19.379,18.365 C19.195,18.694 18.852,18.881 18.497,18.881 C18.331,18.881 18.164,18.841 18.008,18.755 C17.522,18.486 17.345,17.875 17.616,17.392 L21.888,9.746 C22.762,8.175 24.850,6.943 26.641,6.943 L29.279,6.943 C29.837,6.943 30.288,7.391 30.288,7.945 C30.288,8.500 29.837,8.948 29.279,8.948 L26.641,8.948 C25.572,8.948 24.177,9.775 23.651,10.718 ZM17.435,21.845 L16.531,23.464 C16.347,23.793 16.003,23.980 15.648,23.980 C15.483,23.980 15.315,23.940 15.160,23.853 C14.674,23.585 14.497,22.974 14.768,22.491 L15.672,20.872 C15.942,20.389 16.556,20.211 17.043,20.482 C17.530,20.751 17.706,21.362 17.435,21.845 Z" class="cls-1"/>
</svg>
