<?xml version="1.0" encoding="utf-8"?>
<!-- Generator: Adobe Illustrator 16.0.3, SVG Export Plug-In . SVG Version: 6.00 Build 0)  -->
<!DOCTYPE svg PUBLIC "-//W3C//DTD SVG 1.1//EN" "http://www.w3.org/Graphics/SVG/1.1/DTD/svg11.dtd">
<svg version="1.1" id="Layer_1" xmlns="http://www.w3.org/2000/svg" xmlns:xlink="http://www.w3.org/1999/xlink" x="0px" y="0px"
	 width="24.042px" height="14.068px" viewBox="0 0 24.042 14.068" enable-background="new 0 0 24.042 14.068" xml:space="preserve">
<path fill="#77B4E2" d="M23.69,6.141c-0.086-0.086-0.175-0.204-0.231-0.29c-1.89-2.06-4.04-3.626-6.366-4.7
	c-3.257-1.48-6.57-1.536-9.798-0.145c-2.471,1.045-4.71,2.67-6.771,4.902c-0.697,0.725-0.697,1.45,0,2.205
	c1.599,1.771,3.488,3.221,5.639,4.351c0.786,0.406,1.569,0.756,2.355,0.986C9.68,13.799,10.873,14,12.091,14l0,0
	c0.291,0,0.582,0,0.872-0.029c0.522-0.06,1.104-0.115,1.658-0.261c3.313-0.841,6.31-2.727,9.098-5.802
	C24.099,7.387,24.099,6.691,23.69,6.141z M22.847,7.186c-2.646,2.9-5.438,4.701-8.546,5.482c-0.495,0.115-1.047,0.174-1.513,0.23
	c-1.338,0.086-2.702-0.059-4.011-0.465c-0.727-0.23-1.453-0.521-2.15-0.929C4.592,10.43,2.79,9.039,1.279,7.357
	c-0.32-0.349-0.32-0.435,0-0.754c1.976-2.117,4.07-3.656,6.396-4.642c1.424-0.61,2.878-0.929,4.302-0.929
	c1.539,0,3.082,0.349,4.621,1.074c2.21,1.016,4.245,2.525,6.046,4.467c0.059,0.059,0.115,0.145,0.175,0.204
	C22.936,6.925,22.963,7.07,22.847,7.186z M11.917,3.009c-2.239,0-4.069,1.827-4.069,4.062c0,2.234,1.83,4.061,4.069,4.061
	s4.069-1.826,4.069-4.061C16.016,4.835,14.186,3.009,11.917,3.009z M11.917,10.086c-1.658,0-2.993-1.334-2.993-2.986
	c0-1.652,1.338-2.989,2.993-2.989s2.993,1.335,2.993,2.987C14.942,8.723,13.575,10.086,11.917,10.086z"/>
</svg>
