<svg id="bg_dots" xmlns="http://www.w3.org/2000/svg" width="249.65" height="122.42" viewBox="0 0 249.65 122.42">
  <defs>
    <style>
      .cls-1, .cls-2 {
        fill: #00aef3;
      }

      .cls-1 {
        fill-rule: evenodd;
      }
    </style>
  </defs>
  <title>bg-dots-more-blue</title>
  <path class="cls-1" d="M201.51,3a4,4,0,0,1-2.83,4.87,4,4,0,0,1-4.91-2.81A4,4,0,0,1,201.51,3Z" transform="translate(-0.34 -0.05)"/>
  <path class="cls-2" d="M250,114.56c-5,.39-5.85-.12-8-4.57.4,4.91-.12,5.8-4.61,7.91,5-.39,5.85.12,8,4.57C245,117.56,245.5,116.68,250,114.56Z" transform="translate(-0.34 -0.05)"/>
  <path class="cls-1" d="M224.93,22a2,2,0,0,1-1.42,2.44A2,2,0,0,1,221.06,23a2,2,0,0,1,3.87-1Z" transform="translate(-0.34 -0.05)"/>
  <path class="cls-1" d="M29.25,109.31a4,4,0,0,1,4.89-2.8,4,4,0,1,1-4.89,2.8Z" transform="translate(-0.34 -0.05)"/>
  <path class="cls-2" d="M.34,76.72c4.49,2.14,5,3,4.63,7.95,2.11-4.45,3-5,7.95-4.55-4.49-2.14-5-3-4.63-7.95C6.17,76.62,5.28,77.13.34,76.72Z" transform="translate(-0.34 -0.05)"/>
  <path class="cls-1" d="M58,61a2,2,0,0,1,2.44-1.4A2,2,0,1,1,58,61Z" transform="translate(-0.34 -0.05)"/>
</svg>
