<?xml version="1.0" encoding="utf-8"?>
<!-- Generator: Adobe Illustrator 16.0.3, SVG Export Plug-In . SVG Version: 6.00 Build 0)  -->
<!DOCTYPE svg PUBLIC "-//W3C//DTD SVG 1.1//EN" "http://www.w3.org/Graphics/SVG/1.1/DTD/svg11.dtd">
<svg version="1.1" id="Capa_1" xmlns="http://www.w3.org/2000/svg" xmlns:xlink="http://www.w3.org/1999/xlink" x="0px" y="0px"
	 width="612px" height="612px" viewBox="0 0 612 612" enable-background="new 0 0 612 612" xml:space="preserve">
<g>
	<path fill="#00AEEF" d="M562.254,596.222c-4.303,0-8.128-3.347-8.128-7.649c0-7.649-0.956-15.777-2.869-23.429
		c-10.997-43.987-49.725-74.587-95.146-74.587c-7.65,0-15.778,0.956-23.43,2.868c-0.478,0-0.956,0-1.434,0
		c-3.825,0-6.694-2.392-7.65-5.737c-10.997-42.075-43.986-75.065-86.063-86.063c-10.041-2.868-20.561-3.825-31.079-3.825
		c-54.984-0.479-102.797,36.815-117.141,89.888c-0.956,3.347-4.303,5.737-7.65,5.737c-0.478,0-0.957,0-1.913,0
		c-7.65-1.912-15.3-2.868-23.428-2.868c-54.028,0-98.016,43.986-98.016,98.016c0,4.303-3.347,7.649-7.65,7.649
		c-1.913,0-4.303-0.956-5.737-2.392c-1.435-1.435-2.391-3.347-2.391-5.736c0-6.216,0.478-12.432,1.434-18.646
		c9.084-54.983,56.419-95.146,111.881-95.146c6.216,0,12.431,0.479,18.647,1.435l0,0c0.478,0,0.956-0.478,1.434-0.956
		c13.388-41.119,46.378-74.108,87.497-87.497c13.866-4.303,28.209-6.692,42.553-6.692c59.289,0,111.404,37.771,129.573,94.189
		c0,0.479,0.956,0.956,1.436,0.956l0,0c6.216-0.956,12.431-1.435,18.646-1.435c62.635,0,113.315,51.16,113.794,113.794
		C569.904,592.875,566.557,596.222,562.254,596.222z M458.023,556.537c-4.781,0-8.606-3.824-8.606-8.605s3.825-8.606,8.606-8.606
		c4.78,0,8.605,3.825,8.605,8.606S462.804,556.537,458.023,556.537z M306.457,535.023c-32.514,0-65.503-7.65-94.669-22.473
		c-0.478,0-0.478-0.479-0.956-0.479c-1.913-0.956-3.347-2.869-3.825-4.781s-0.478-4.304,0.957-6.216
		c1.434-2.391,3.825-3.825,6.694-3.825c1.434,0,2.87,0.479,3.825,0.956c27.254,13.389,57.375,20.561,87.976,20.561
		c30.123,0,60.245-7.172,87.498-20.561h0.478c0.479-0.478,0.957-0.478,1.436-0.956c0.956-0.478,1.913-0.478,2.391-0.478
		c3.347,0,6.216,1.912,7.65,5.259c1.435,4.304-0.956,8.606-4.781,10.041C371.96,527.371,338.97,535.023,306.457,535.023z
		 M247.168,470.952c-4.781,0-8.606-3.824-8.606-8.605s3.826-8.606,8.606-8.606s8.606,3.825,8.606,8.606v0.479
		C255.775,467.607,251.951,470.952,247.168,470.952L247.168,470.952z M143.895,453.74c-2.391,0-4.781-0.957-6.216-2.869
		c-27.731-36.338-43.031-81.76-42.553-127.182c0.478-60.722,23.906-117.618,43.987-154.912
		c12.431-23.905,26.775-46.378,43.031-67.894c0.478-0.479,0.478-0.479,0.956-0.956c1.435-0.956,3.347-1.913,5.26-1.913
		c2.391,0,4.781,0.957,6.215,2.869c12.431,16.256,23.905,32.99,33.469,50.682c0.478,0.479,0.957,0.956,1.435,0.956l0,0
		c0.479,0,0.957-0.479,1.435-0.956c16.256-47.813,40.163-92.757,70.763-132.919c0.479-0.479,0.479-0.479,0.956-0.956
		c1.435-0.957,3.347-1.913,5.261-1.913c2.391,0,4.78,0.956,6.215,2.869c31.078,40.162,54.984,84.628,71.24,132.44
		c0,0.479,0.479,0.956,1.436,0.956l0,0c0.478,0,0.956-0.479,1.435-0.956c10.04-17.69,21.517-34.903,33.469-50.683
		c0.479-0.478,0.479-0.478,0.956-0.955c1.436-0.956,3.348-1.912,5.26-1.912c2.391,0,4.78,0.956,6.216,2.867
		c16.257,21.038,30.601,43.988,43.03,67.416c19.604,37.294,43.031,94.19,43.511,154.912c0,45.9-15.3,90.844-42.555,127.659
		c-1.434,1.435-3.347,2.391-5.736,2.391c-1.436,0-2.868-0.478-3.825-0.956c-1.912-0.956-3.347-2.867-3.824-4.78
		c-0.479-1.912-0.479-4.304,0.956-6.217c25.341-33.469,39.686-75.543,39.206-117.617c-0.479-88.453-53.072-171.169-75.544-203.203
		c-0.478-0.479-0.478-0.479-0.956-0.479c-0.478,0-0.956,0-0.956,0.479c-13.388,18.646-25.341,38.25-35.382,58.331
		c-0.956,1.913-2.868,3.347-5.259,3.825c-0.479,0-1.436,0.479-1.913,0.479c-3.824,0-6.693-2.391-7.649-5.738
		c-16.736-64.067-52.118-118.573-66.94-138.655c-0.479-0.479-0.479-0.479-0.955-0.479c-0.479,0-0.957,0-0.957,0.479
		c-14.822,20.56-50.682,75.065-66.938,138.655c-0.478,2.392-1.912,3.825-3.824,4.781c-0.957,0.479-2.392,0.957-3.826,0.957
		c-2.868,0-5.737-1.435-7.172-4.304c-10.519-20.081-22.472-39.686-35.38-58.331c-0.478-0.479-0.478-0.479-0.957-0.479
		c-0.478,0-0.956,0-0.956,0.479c-17.69,24.862-75.065,111.881-75.544,203.203c0,42.074,13.866,84.148,39.685,118.097
		c2.391,3.347,1.435,8.605-1.913,10.997c0,0,0,0-0.478,0.478C146.285,453.263,145.329,453.74,143.895,453.74z M272.988,443.699
		c-4.781,0-8.606-3.824-8.606-8.605s3.825-8.606,8.606-8.606s8.605,3.825,8.605,8.606v0.479
		C281.116,440.354,277.292,443.699,272.988,443.699L272.988,443.699z M185.012,412.144c-3.347,0-6.215-1.912-7.65-5.259
		c-5.259-14.822-7.65-30.122-7.65-45.9c0-15.3,2.391-30.6,6.215-45.422c0.957-3.347,4.303-5.737,7.65-5.737c0.478,0,1.434,0,1.912,0
		c4.303,0.956,6.694,5.261,5.738,9.563c-3.825,13.388-5.738,27.253-5.738,41.119c0,13.864,2.391,27.253,7.172,40.641
		c1.435,4.303-0.478,8.605-4.781,10.04C186.925,412.144,185.969,412.144,185.012,412.144z M427.9,412.144
		c-0.956,0-1.912,0-2.868-0.478c-3.825-1.436-5.737-5.737-4.781-9.563c4.781-12.909,7.172-26.775,7.172-40.641
		c-0.479-52.595-31.078-103.275-44.466-122.4c-0.479-0.478-0.479-0.478-0.956-0.478c-0.479,0-0.956,0-0.956,0.478
		c-7.172,10.521-13.866,21.517-19.604,32.514c-0.956,1.912-2.869,3.347-5.261,3.824c-0.478,0-1.434,0.479-1.912,0.479
		c-3.347,0-6.692-2.391-7.649-5.738c-8.128-29.644-21.516-57.375-38.729-82.715c-0.479-0.479-0.479-0.479-0.955-0.479
		c-0.48,0-0.958,0-0.958,0.479c-18.168,24.862-31.078,52.594-39.685,82.237c-0.478,2.391-1.913,3.825-3.825,5.259
		c-0.957,0.479-2.391,0.957-3.824,0.957c-2.869,0-5.737-1.436-7.172-4.304c-5.738-10.997-12.432-21.993-19.604-32.514
		c-0.479-0.478-0.479-0.478-0.957-0.478l0,0c-0.479,0-0.956,0.478-0.956,0.478c-10.041,14.822-19.125,30.602-26.297,47.335
		c-1.435,2.392-3.825,4.304-7.172,4.304c-0.956,0-1.913,0-2.869-0.479c-1.913-0.957-3.347-2.391-4.303-4.304
		c-0.956-1.912-0.956-4.303,0-6.216c9.563-21.517,21.516-42.074,35.38-60.723c1.435-1.912,3.826-2.867,6.216-2.867
		s4.78,0.955,6.216,2.867c6.693,8.128,12.432,17.213,18.169,26.297c0.478,0.479,0.956,0.479,1.435,0.479l0,0
		c0.478,0,0.957-0.479,1.435-0.956c10.519-27.731,24.862-54.028,43.03-77.935c0.479-0.479,0.479-0.479,0.957-0.956
		c1.435-0.957,3.347-1.913,5.259-1.913c2.391,0,4.78,0.956,6.216,2.869c18.169,23.428,32.513,49.725,43.031,77.935
		c0,0.479,0.479,0.956,1.435,0.956l0,0c0.479,0,0.956-0.479,1.436-0.479c5.259-9.084,11.475-17.689,18.168-26.297
		c1.435-1.912,3.825-2.867,6.216-2.867s4.781,0.955,6.216,2.867c0.479,2.869,52.594,69.328,53.072,142.003
		c0,15.778-2.869,31.078-8.129,45.9C434.116,410.232,431.248,412.144,427.9,412.144z"/>
</g>
</svg>
