<svg id="icon_visibility" xmlns="http://www.w3.org/2000/svg" width="121.8" height="123.49" viewBox="0 0 121.8 123.49">
  <defs>
    <style>
      .cls-1 {
        fill: #fff;
      }
    </style>
  </defs>
  <title>icon-visibility</title>
  <path class="cls-1" d="M39.81,79.07a12,12,0,0,1,.12-1.66H12.26v-7a2.85,2.85,0,0,1,2.85-2.85H45.5a2.83,2.83,0,0,1,1.61.5,12.1,12.1,0,0,1,1.8-.61H49l1-.19A5.43,5.43,0,0,0,45.5,65h-.09V56.09l7.82,2.61A7,7,0,0,1,58,65.34v.31l2.58-.51a9.58,9.58,0,0,0-6.54-8.9l-.36-.12a202.37,202.37,0,0,0-2.36-30.46,19,19,0,0,0,1.84-1.2,1.3,1.3,0,0,0-.77-2.33h-.13A22.1,22.1,0,0,0,45.41,7.4V6.83a1.29,1.29,0,0,0-2-1.09A21.82,21.82,0,0,0,35.66,2a2.68,2.68,0,0,0-2.6-2H27.54a2.68,2.68,0,0,0-2.6,2,21.83,21.83,0,0,0-7.76,3.69,1.29,1.29,0,0,0-2,1.09V7.4A22.1,22.1,0,0,0,8.33,22.12H8.2a1.3,1.3,0,0,0-.77,2.33,19,19,0,0,0,1.84,1.2A202.36,202.36,0,0,0,6.91,56.12l-.36.12A9.58,9.58,0,0,0,0,65.34V75.95A4.06,4.06,0,0,0,4.06,80H39.81ZM20.72,65H17.78V55.22l2.94-1ZM37.3,65h-14V59.34a9.56,9.56,0,0,0,7,2.7,9.56,9.56,0,0,0,7-2.7ZM22,33a1.29,1.29,0,0,0,1.29-1.3V29.83a59.18,59.18,0,0,0,7,.41,59.18,59.18,0,0,0,7-.41v1.88a1.29,1.29,0,1,0,2.59,0V29.46a43.56,43.56,0,0,0,5.7-1.35V37a8.52,8.52,0,0,1-4,7.38l-7.14,4.22a8.15,8.15,0,0,1-4.13,1.14h0a8.13,8.13,0,0,1-4.13-1.14L19,44.4A8.52,8.52,0,0,1,15,37V28.11a43.56,43.56,0,0,0,5.7,1.35v2.25A1.29,1.29,0,0,0,22,33ZM37.3,52.42h0v0c0,5.16-3.61,7-7,7s-7-1.84-7-7v0h0V49.94l1.55.91a10.72,10.72,0,0,0,5.45,1.5h0a10.72,10.72,0,0,0,5.45-1.5l1.55-.91ZM42.82,65H39.89V54.24l2.94,1ZM39.89,51.51v-3.1l3-1.77A11.13,11.13,0,0,0,48.18,37V27.19l.74-.31A200.5,200.5,0,0,1,51.1,55.25Zm5.53-40.29a19.45,19.45,0,0,1,4.27,10.9H45.41ZM35.74,4.75a19.27,19.27,0,0,1,7.08,3.82V22.12H35.74ZM27.45,2.68a.08.08,0,0,1,.09-.09h5.53a.08.08,0,0,1,.09.09V22.12h-5.7ZM17.78,8.56a19.26,19.26,0,0,1,7.08-3.82V22.12H17.78Zm27.8,16.15v.66A49,49,0,0,1,30.3,27.65,49,49,0,0,1,15,25.37v-.66ZM15.19,11.22v10.9H10.93A19.45,19.45,0,0,1,15.19,11.22Zm-3.5,15.66.74.31V37a11.13,11.13,0,0,0,5.29,9.61l3,1.77v3.1L9.5,55.25A200.64,200.64,0,0,1,11.69,26.88Zm-2,43.54v7H4.06a1.47,1.47,0,0,1-1.47-1.47V65.34A7,7,0,0,1,7.37,58.7l7.82-2.61V65h-.09A5.45,5.45,0,0,0,9.67,70.42Z"/>
  <path class="cls-1" d="M30.3,44.06a11.41,11.41,0,0,0,6.25-1.64,1.3,1.3,0,1,0-1.46-2.14,9,9,0,0,1-4.8,1.2,9,9,0,0,1-4.8-1.2A1.3,1.3,0,0,0,24,42.42,11.41,11.41,0,0,0,30.3,44.06Z"/>
  <path class="cls-1" d="M112.7,67.46h-.06l-15.17-3-.08,0V57.12l0,0A11.88,11.88,0,0,0,102,47.73V36.19l.06,0a22.92,22.92,0,0,0,4-2.33,1.32,1.32,0,0,0-.8-2.39H105v-.09a24,24,0,0,0-7.55-16.11l0,0v-.68a1.33,1.33,0,0,0-2-1.12l-.06,0-.05,0a24,24,0,0,0-8.54-4h-.06V9.29a2.85,2.85,0,0,0-2.77-2.17h-6.1A2.85,2.85,0,0,0,75,9.29v.06h-.06a24,24,0,0,0-8.54,4l-.05,0-.06,0a1.33,1.33,0,0,0-2,1.12v.68l0,0a24.06,24.06,0,0,0-7.55,16.11v.09h-.23a1.32,1.32,0,0,0-.8,2.39,23,23,0,0,0,4,2.33l.06,0V47.73a11.88,11.88,0,0,0,4.54,9.37l0,0v7.29l-.08,0L49,67.45H48.9a12,12,0,0,0-9.1,11.61v9.8a22.1,22.1,0,0,1,2.66-3.12V79.07a9.31,9.31,0,0,1,7.05-9L58,68.35l.12,0V78.71l-.08,0a5.92,5.92,0,0,0-1.92.86c.56,0,1.11-.07,1.68-.07a21.92,21.92,0,0,1,8.47,1.69h35.89a3.25,3.25,0,0,1,3.25,3.24v7.79H77.74a21.83,21.83,0,0,1,1,2.65h38.64a4.38,4.38,0,0,0,4.38-4.37V79.07A12,12,0,0,0,112.7,67.46Zm-48.48-.23V78.56H60.78V67.8l.08,0,3.24-.65.12,0Zm33.17-35.9V19.07l.18.22a21.33,21.33,0,0,1,4.74,12v.11H97.39Zm-10.68,0V12.11l.13,0a21.33,21.33,0,0,1,7.86,4.22l0,0v15h-8Zm-9.15,0V10a.2.2,0,0,1,.2-.2h6.1a.2.2,0,0,1,.2.2V31.44H77.56Zm-10.68,0V16.39l0,0a21.33,21.33,0,0,1,7.86-4.22l.13,0V31.44h-8ZM99.2,34.09h.1v.34l-.06,0A52.2,52.2,0,0,1,80.8,37.52a52.19,52.19,0,0,1-18.44-3.06l-.06,0v-.34H99.2ZM59.4,31.44H59.3v-.11a21.35,21.35,0,0,1,4.74-12l.18-.22V31.44H59.4ZM94.73,71.07v7.49H66.88V70.84L67,71c2.88,2.66,7.77,4.13,13.76,4.13S91.68,73.66,94.56,71l.17-.15Zm0-12.14v5.75c0,3.6-3.65,7.79-13.93,7.79s-13.93-4.2-13.93-7.79V58.76l.15.08,7.41,4a13.34,13.34,0,0,0,12.73,0l7.41-4,.15-.08Zm-.29-3-8.54,4.64a10.67,10.67,0,0,1-10.18,0l-8.54-4.64a9.3,9.3,0,0,1-4.87-8.18V37.28l.13,0a46.22,46.22,0,0,0,7.8,2h.08v2.56a1.33,1.33,0,0,0,2.66,0V39.71h.11a65.51,65.51,0,0,0,7.71.45,65.51,65.51,0,0,0,7.71-.45h.11v2.18a1.33,1.33,0,0,0,2.66,0V39.32h.08a46.31,46.31,0,0,0,7.8-2l.13,0V47.73A9.3,9.3,0,0,1,94.43,55.91Zm6.4,12V78.56H97.39V67.11l.12,0,3.24.65.08,0Zm18.31,22.64a1.72,1.72,0,0,1-1.72,1.71h-9.35V84.44a5.88,5.88,0,0,0-4.5-5.72l-.08,0V68.33l.12,0L112.09,70a9.31,9.31,0,0,1,7,9Z"/>
  <path class="cls-1" d="M80.8,55.37a12.54,12.54,0,0,0,6.85-1.79,1.33,1.33,0,0,0-1.5-2.19,11.42,11.42,0,0,1-10.71,0A1.33,1.33,0,1,0,74,53.58,12.54,12.54,0,0,0,80.8,55.37Z"/>
  <path class="cls-1" d="M69.8,95.74l-15.12,15a1.42,1.42,0,0,1-2,0L45.85,104a1.36,1.36,0,0,1,0-1.94,1.4,1.4,0,0,1,2,0l5.88,5.77,14.14-14a1.4,1.4,0,0,1,2,0A1.37,1.37,0,0,1,69.8,95.74Zm-12-13.48A19.24,19.24,0,1,0,77,101.5,19.24,19.24,0,0,0,57.8,82.26Zm0,41.23a22,22,0,1,1,22-22A22,22,0,0,1,57.8,123.49Z"/>
</svg>
