<?xml version="1.0" encoding="UTF-8" standalone="no"?>
<svg
   xmlns:dc="http://purl.org/dc/elements/1.1/"
   xmlns:cc="http://creativecommons.org/ns#"
   xmlns:rdf="http://www.w3.org/1999/02/22-rdf-syntax-ns#"
   xmlns:svg="http://www.w3.org/2000/svg"
   xmlns="http://www.w3.org/2000/svg"
   xmlns:sodipodi="http://sodipodi.sourceforge.net/DTD/sodipodi-0.dtd"
   xmlns:inkscape="http://www.inkscape.org/namespaces/inkscape"
   width="264.65161"
   height="188.89999"
   viewBox="0 0 264.65161 188.89999"
   version="1.1"
   id="svg2"
   inkscape:version="0.91 r13725"
   sodipodi:docname="icon-jobseekers-available.svg">
  <metadata
     id="metadata79">
    <rdf:RDF>
      <cc:Work
         rdf:about="">
        <dc:format>image/svg+xml</dc:format>
        <dc:type
           rdf:resource="http://purl.org/dc/dcmitype/StillImage" />
        <dc:title>Slice 1</dc:title>
      </cc:Work>
    </rdf:RDF>
  </metadata>
  <sodipodi:namedview
     pagecolor="#ffffff"
     bordercolor="#666666"
     borderopacity="1"
     objecttolerance="10"
     gridtolerance="10"
     guidetolerance="10"
     inkscape:pageopacity="0"
     inkscape:pageshadow="2"
     inkscape:window-width="656"
     inkscape:window-height="480"
     id="namedview77"
     showgrid="false"
     fit-margin-top="0"
     fit-margin-left="0"
     fit-margin-right="0"
     fit-margin-bottom="0"
     inkscape:zoom="0.81944444"
     inkscape:cx="134"
     inkscape:cy="97.5"
     inkscape:window-x="0"
     inkscape:window-y="0"
     inkscape:window-maximized="0"
     inkscape:current-layer="svg2" />
  <!-- Generator: Sketch 39.1 (31720) - http://www.bohemiancoding.com/sketch -->
  <title
     id="title4">Slice 1</title>
  <desc
     id="desc6">Created with Sketch.</desc>
  <defs
     id="defs8" />
  <g
     id="Page-1"
     style="fill:none;fill-rule:evenodd;stroke:none;stroke-width:1"
     transform="translate(-16,-52.6)">
    <g
       id="available">
      <g
         id="Group-2"
         transform="translate(16,147)">
        <rect
           id="Rectangle"
           x="34.5"
           y="20"
           width="67.5"
           height="14"
           rx="7"
           style="fill:#fbce00;fill-opacity:0.4" />
        <rect
           id="rect14"
           x="37.748203"
           y="34"
           width="52.503597"
           height="14"
           rx="7"
           style="fill:#fbce00;fill-opacity:0.4" />
        <rect
           id="rect16"
           x="19"
           y="34"
           width="33.035973"
           height="14"
           rx="7"
           style="fill:#ffffff" />
        <rect
           id="rect18"
           x="76"
           y="34"
           width="28.316547"
           height="14"
           rx="7"
           style="fill:#ffffff" />
        <rect
           id="rect20"
           x="0"
           y="48"
           width="90"
           height="14"
           rx="7"
           style="fill:#fbce00;fill-opacity:0.4" />
        <rect
           id="rect22"
           x="173"
           y="0"
           width="42"
           height="14"
           rx="7"
           style="fill:#fbce00;fill-opacity:0.4" />
        <rect
           id="rect24"
           x="210.46762"
           y="12"
           width="21.532373"
           height="14"
           rx="7"
           style="fill:#fbce00;fill-opacity:0.4" />
        <rect
           id="rect26"
           x="16"
           y="20"
           width="14"
           height="14"
           rx="7"
           style="fill:#fbce00;fill-opacity:0.4" />
      </g>
      <g
         id="Group-3"
         transform="translate(116,193)">
        <path
           d="M 59.87938,0.4 C 61.634729,0.4 63,1.6706827 63,3.2136546 L 63,20.186345 C 63,21.729317 61.634729,23 59.87938,23 L 3.2206202,23 C 1.4652713,23 0.1,21.729317 0.1,20.186345 L 0.1,3.2136546 C 0.1,1.6706827 1.4652713,0.4 3.2206202,0.4 l 56.6587598,0 0,0 z"
           id="Path"
           inkscape:connector-curvature="0"
           style="fill:#fbce00;fill-opacity:0.3" />
        <path
           d="m 44.3,10 4.4,8.5 c 0.2,0.4 0.6,0.6 1,0.6 l 0.2,0 c 0.5,-0.1 0.8,-0.5 0.8,-1 l 0,-13.5 -2.2,0 0,9.1 -4.4,-8.5 C 43.9,4.8 43.4,4.5 42.9,4.7 c -0.5,0.1 -0.8,0.5 -0.8,1 l 0,13.5 2.2,0 0,-9.2 0,0 z"
           id="path30"
           inkscape:connector-curvature="0"
           style="fill:#ffffff" />
        <path
           d="m 23.9,12.9 2.2,0 c 2.4,0 4.3,-1.9 4.3,-4.2 0,-2.3 -1.9,-4.2 -4.3,-4.2 l -3.2,0 c -0.6,0 -1.1,0.5 -1.1,1 l 0,13.5 2.2,0 0,-6.1 -0.1,0 z"
           id="path32"
           inkscape:connector-curvature="0"
           style="fill:#ffffff" />
        <path
           d="m 15.3,19.1 c 2.4,0 4.3,-1.9 4.3,-4.2 l 0,-6.2 C 19.6,6.4 17.7,4.5 15.3,4.5 12.9,4.5 11,6.4 11,8.7 l 0,6.2 c 0,2.4 1.9,4.2 4.3,4.2 l 0,0 z"
           id="path34"
           inkscape:connector-curvature="0"
           style="fill:#ffffff" />
        <path
           d="m 13.1,8.7 c 0,-1.1 1,-2.1 2.2,-2.1 1.2,0 2.2,0.9 2.2,2.1 l 0,6.2 c 0,1.1 -1,2.1 -2.2,2.1 -1.2,0 -2.2,-0.9 -2.2,-2.1 l 0,-6.2 0,0 z"
           id="path36"
           inkscape:connector-curvature="0"
           style="fill:#fbce00;fill-opacity:0.4" />
        <path
           d="m 23.9,6.7 2.2,0 c 1.2,0 2.2,0.9 2.2,2.1 0,1.1 -1,2.1 -2.2,2.1 l -2.2,0 0,-4.2 0,0 z"
           id="path38"
           inkscape:connector-curvature="0"
           style="opacity:0.3;fill:#fbce00" />
        <path
           d="m 33.6,19.1 6.5,0 0,-2.1 -5.4,0 0,-4.2 5.4,0 0,-2.1 -5.4,0 0,-4.2 5.4,0 0,-2.1 -6.5,0 c -0.6,0 -1.1,0.5 -1.1,1 l 0,12.5 c 0,0.8 0.5,1.2 1.1,1.2 l 0,0 z"
           id="path40"
           inkscape:connector-curvature="0"
           style="fill:#ffffff" />
      </g>
      <path
         d="m 148.6,210.1 6.5,0 0,-2.1 -5.4,0 0,-4.2 5.4,0 0,-2.1 -5.4,0 0,-4.2 5.4,0 0,-2.1 -6.5,0 c -0.6,0 -1.1,0.5 -1.1,1 l 0,12.5 c 0,0.8 0.5,1.2 1.1,1.2 l 0,0 z m 10.7,-9.1 4.4,8.5 c 0.2,0.4 0.6,0.6 1,0.6 l 0.2,0 c 0.5,-0.1 0.8,-0.5 0.8,-1 l 0,-13.5 -2.2,0 0,9.1 -4.4,-8.5 c -0.2,-0.4 -0.7,-0.7 -1.2,-0.5 -0.5,0.1 -0.8,0.5 -0.8,1 l 0,13.5 2.2,0 0,-9.2 0,0 z m -29,9.1 c 2.4,0 4.3,-1.9 4.3,-4.2 l 0,-6.2 c 0,-2.3 -1.9,-4.2 -4.3,-4.2 -2.4,0 -4.3,1.9 -4.3,4.2 l 0,6.2 c 0,2.4 1.9,4.2 4.3,4.2 l 0,0 z m -2.2,-10.4 c 0,-1.1 1,-2.1 2.2,-2.1 1.2,0 2.2,0.9 2.2,2.1 l 0,6.2 c 0,1.1 -1,2.1 -2.2,2.1 -1.2,0 -2.2,-0.9 -2.2,-2.1 l 0,-6.2 0,0 z m 10.8,4.2 2.2,0 c 2.4,0 4.3,-1.9 4.3,-4.2 0,-2.3 -1.9,-4.2 -4.3,-4.2 l -3.2,0 c -0.6,0 -1.1,0.5 -1.1,1 l 0,13.5 2.2,0 0,-6.1 -0.1,0 z m 0,-6.2 2.2,0 c 1.2,0 2.2,0.9 2.2,2.1 0,1.1 -1,2.1 -2.2,2.1 l -2.2,0 0,-4.2 0,0 z m 42.9,-52.4 c -0.7,-0.4 -1.7,-0.1 -2.1,0.6 -0.1,0.2 -0.2,0.3 -0.3,0.5 l -6.1,0 c 0.7,-1.8 1.2,-3.8 1.7,-5.8 0.2,-0.8 -0.3,-1.6 -1.1,-1.8 -0.8,-0.2 -1.6,0.3 -1.8,1.1 -0.5,2.2 -1.2,4.4 -2,6.5 l -11.7,0 c 0.8,-5.3 1.3,-11.1 1.4,-16.8 l 7.6,0 c 0.8,0 1.5,-0.7 1.5,-1.5 0,-0.8 -0.7,-1.5 -1.5,-1.5 l -7.6,0 c -0.1,-6.3 -0.6,-12.6 -1.6,-18.3 l 11.3,0 c 0.7,1.6 1.3,3.3 1.9,5 0.2,0.7 0.8,1.1 1.5,1.1 0.1,0 0.3,0 0.4,-0.1 0.8,-0.2 1.3,-1.1 1,-1.9 -0.4,-1.4 -0.9,-2.8 -1.5,-4.1 l 5.8,0 c 0.2,0.3 0.3,0.5 0.5,0.8 0.3,0.5 0.8,0.8 1.3,0.8 0.3,0 0.5,-0.1 0.8,-0.2 0.7,-0.4 1,-1.4 0.6,-2.1 -0.2,-0.3 -0.4,-0.7 -0.6,-1 -0.1,-0.4 -0.3,-0.8 -0.6,-1 -3.5,-5.3 -8.1,-9.7 -13.5,-12.9 C 160.8,89 153.6,87 146.2,87 c -3.2,0 -6.4,0.4 -9.5,1.1 -0.8,0.2 -1.3,1 -1.1,1.8 0.2,0.8 1,1.3 1.8,1.1 1,-0.2 2,-0.4 3,-0.6 -2.5,3.3 -4.4,8.6 -5.7,14.8 l -12.7,0 c -0.2,-0.1 -0.5,-0.1 -0.7,0 l -5.7,0 c 0.4,-0.5 0.8,-1 1.2,-1.5 0.5,-0.6 0.5,-1.6 -0.2,-2.1 -0.6,-0.5 -1.6,-0.4 -2.1,0.2 -1,1.2 -1.9,2.4 -2.7,3.7 -0.3,0.2 -0.6,0.6 -0.6,1 -4,6.5 -6.1,14 -6.1,21.6 0,11 4.3,21.3 12.1,29.1 7.2,7.2 16.5,11.4 26.5,12 -0.8,0.6 -1.3,1.5 -1.3,2.5 0,0.9 0.4,1.7 1.1,2.3 l -19.7,14.3 -7.2,0 c -3,0 -5.4,2.3 -5.4,5.2 l 0,18.7 c 0,2.9 2.4,5.2 5.4,5.2 l 58.1,0 c 3,0 5.4,-2.3 5.4,-5.2 l 0,-18.7 c 0,-2.9 -2.4,-5.2 -5.4,-5.2 l -7.2,0 -20,-14.3 c 0.7,-0.6 1.1,-1.4 1.1,-2.3 0,-1 -0.5,-1.9 -1.3,-2.5 14.8,-0.5 28.2,-8.7 35.2,-21.9 0.3,-0.7 0.1,-1.6 -0.7,-2 l 0,0 z M 165.4,95.2 c 4.3,2.6 8.1,6 11.2,10 l -5.1,0 c -2.2,-4.4 -5,-8.2 -8.1,-11.1 0.6,0.4 1.3,0.7 2,1.1 l 0,0 z m 2.6,10 -10.4,0 c -1.3,-5.9 -3,-11 -5.3,-14.3 6.2,2.1 11.8,7.2 15.7,14.3 l 0,0 z m -28.4,-7 c 1.9,-5.1 4.3,-8.2 6.4,-8.2 2.5,0 5.1,3.9 7.2,10.5 0.5,1.5 0.9,3.1 1.2,4.7 l -16.8,0 c 0.6,-2.6 1.3,-5 2,-7 l 0,0 z m -26.1,10.1 5.8,0 c -2.3,5.6 -3.6,11.9 -3.7,18.3 l -7.6,0 c 0.2,-6.5 2.1,-12.8 5.5,-18.3 l 0,0 z m -5.6,21.4 7.6,0 c 0.2,5.9 1.2,11.6 3.1,16.8 l -6.1,0 c -2.7,-5.1 -4.3,-10.8 -4.6,-16.8 l 0,0 z m 6.5,19.8 5.5,0 c 1.2,2.7 2.7,5.3 4.4,7.6 1.4,1.9 2.9,3.6 4.5,5.1 -5.8,-3 -10.7,-7.4 -14.4,-12.7 l 0,0 z m 60,40.9 c 1.8,0 3.2,1.4 3.2,3.1 l 0,18.7 c 0,1.7 -1.4,3.1 -3.2,3.1 l -58.1,0 c -1.8,0 -3.2,-1.4 -3.2,-3.1 l 0,-18.7 c 0,-1.7 1.4,-3.1 3.2,-3.1 l 58.1,0 0,0 z m -10.8,-2.1 -36.6,0 18.3,-13.2 18.3,13.2 z m -17.6,-22 c -2.1,0 -4.3,-2.8 -6.2,-7.7 -0.3,-0.8 -1.2,-1.2 -2,-0.9 -0.8,0.3 -1.2,1.2 -0.9,2 0.9,2.4 1.9,4.3 2.9,5.7 -6.9,-2.2 -12.7,-8 -16.6,-15.8 0.8,-0.1 1.4,-0.7 1.4,-1.5 0,-0.8 -0.7,-1.5 -1.5,-1.5 l -1.2,0 c -2,-5 -3.2,-10.7 -3.4,-16.8 l 3,0 c 0.8,0 1.5,-0.7 1.5,-1.5 0,-0.8 -0.7,-1.5 -1.5,-1.5 l -3,0 c 0.2,-6.5 1.6,-12.8 4,-18.3 l 11.3,0 c -0.7,3.9 -1.1,8 -1.4,12.1 -0.1,0.8 0.6,1.6 1.4,1.6 0.8,0.1 1.6,-0.6 1.6,-1.4 0.3,-4.4 0.8,-8.5 1.4,-12.3 l 18,0 c 1,5.5 1.6,11.8 1.6,18.3 l -7.6,0 c -0.8,0 -1.5,0.7 -1.5,1.5 0,0.8 0.7,1.5 1.5,1.5 l 7.6,0 c -0.1,5.9 -0.5,11.7 -1.4,16.8 l -6.2,0 c -0.8,0 -1.5,0.7 -1.5,1.5 0,0.8 0.7,1.5 1.5,1.5 l 5.7,0 c -0.4,2.2 -1,4.3 -1.6,6.2 -1.7,6.5 -4.4,10.5 -6.9,10.5 l 0,0 z m 6.2,-1 c 2.5,-3.6 4.4,-9.2 5.6,-15.8 l 10.9,0 c -1.8,3.6 -4,6.9 -6.6,9.5 -3,3 -6.3,5.1 -9.9,6.3 l 0,0 z m 11,-3.1 c 0.4,-0.3 0.8,-0.7 1.1,-1.1 3.2,-3.2 5.8,-7.1 7.8,-11.6 l 5.5,0 c -3.7,5.5 -8.7,9.8 -14.4,12.7 l 0,0 z m -42.5,-60.3 c 0.3,0.2 0.6,0.3 0.9,0.3 0.3,0 0.6,-0.1 0.9,-0.3 0.5,-0.3 11.3,-8.4 11.3,-18 0,-6.7 -5.5,-12.2 -12.2,-12.2 -6.7,0 -12.2,5.5 -12.2,12.2 0,9.8 10.9,17.7 11.3,18 l 0,0 z m 0.9,-27.2 c 5,0 9.2,4.1 9.2,9.2 0,6.6 -6.7,12.8 -9.2,14.8 -2.5,-2 -9.1,-8.1 -9.1,-14.8 0,-5.1 4.1,-9.2 9.1,-9.2 l 0,0 z m 6.1,9.2 c 0,-0.8 -0.7,-1.5 -1.5,-1.5 -0.8,0 -1.5,0.7 -1.5,1.5 0,1.7 -1.4,3.1 -3.1,3.1 -1.7,0 -3,-1.4 -3,-3.1 0,-1.7 1.4,-3.1 3,-3.1 0.8,0 1.5,-0.7 1.5,-1.5 0,-0.8 -0.7,-1.5 -1.5,-1.5 -3.4,0 -6.1,2.7 -6.1,6.1 0,3.4 2.7,6.1 6.1,6.1 3.4,0 6.1,-2.7 6.1,-6.1 l 0,0 z m 54.9,29 c -6.7,0 -12.2,5.5 -12.2,12.2 0,9.8 10.9,17.7 11.3,18 0.3,0.2 0.6,0.3 0.9,0.3 0.3,0 0.6,-0.1 0.9,-0.3 0.5,-0.3 11.3,-8.4 11.3,-18 0,-6.8 -5.5,-12.2 -12.2,-12.2 l 0,0 z m 0,27 c -2.5,-2 -9.1,-8.1 -9.1,-14.8 0,-5 4.1,-9.2 9.2,-9.2 5,0 9.2,4.1 9.2,9.2 -0.1,6.6 -6.8,12.8 -9.3,14.8 l 0,0 z m 4.6,-16.3 c -0.8,0 -1.5,0.7 -1.5,1.5 0,1.7 -1.4,3.1 -3.1,3.1 -1.7,0 -3,-1.4 -3,-3.1 0,-1.7 1.4,-3.1 3,-3.1 0.8,0 1.5,-0.7 1.5,-1.5 0,-0.8 -0.7,-1.5 -1.5,-1.5 -3.4,0 -6.1,2.7 -6.1,6.1 0,3.4 2.7,6.1 6.1,6.1 3.4,0 6.1,-2.7 6.1,-6.1 0,-0.9 -0.7,-1.5 -1.5,-1.5 l 0,0 z m -51.9,1.5 c -6.7,0 -12.2,5.5 -12.2,12.2 0,9.8 10.9,17.7 11.3,18 0.3,0.2 0.6,0.3 0.9,0.3 0.3,0 0.6,-0.1 0.9,-0.3 0.5,-0.3 11.3,-8.4 11.3,-18 0,-6.7 -5.4,-12.2 -12.2,-12.2 l 0,0 z m 0,27 c -2.5,-2 -9.1,-8.1 -9.1,-14.8 0,-5 4.1,-9.2 9.2,-9.2 5,0 9.2,4.1 9.2,9.2 -0.1,6.6 -6.8,12.8 -9.3,14.8 l 0,0 z m 4.6,-16.3 c -0.8,0 -1.5,0.7 -1.5,1.5 0,1.7 -1.4,3.1 -3,3.1 -1.7,0 -3.1,-1.4 -3.1,-3.1 0,-1.7 1.4,-3.1 3.1,-3.1 0.8,0 1.5,-0.7 1.5,-1.5 0,-0.8 -0.7,-1.5 -1.5,-1.5 -3.4,0 -6.1,2.7 -6.1,6.1 0,3.4 2.7,6.1 6.1,6.1 3.4,0 6.1,-2.7 6.1,-6.1 -0.1,-0.9 -0.7,-1.5 -1.6,-1.5 l 0,0 z"
         id="Shape"
         inkscape:connector-curvature="0"
         style="fill:#fbce00" />
      <path
         d="m 147.2,169.3 c 2.5,-3.6 4.4,-9.2 5.6,-15.8 l 10.9,0 c -1.8,3.6 -4,6.9 -6.6,9.5 -3,3 -6.3,5.1 -9.9,6.3 l 0,0 z"
         id="path43"
         inkscape:connector-curvature="0"
         style="opacity:0.3;fill:#fbce00" />
      <path
         d="m 166,108.2 -10.4,0 c -1.3,-5.9 -3,-11 -5.3,-14.3 6.2,2.1 11.8,7.2 15.7,14.3 l 0,0 z"
         id="path45"
         inkscape:connector-curvature="0"
         style="opacity:0.3;fill:#fbce00" />
      <path
         d="m 157.2,167.2 c 0.4,-0.3 0.8,-0.7 1.1,-1.1 3.2,-3.2 5.8,-7.1 7.8,-11.6 l 5.5,0 c -3.7,5.5 -8.7,9.8 -14.4,12.7 l 0,0 z"
         id="path47"
         inkscape:connector-curvature="0"
         style="opacity:0.3;fill:#fbce00" />
      <path
         d="m 118.4,152.5 5.5,0 c 1.2,2.7 2.7,5.3 4.4,7.6 1.4,1.9 2.9,3.6 4.5,5.1 -5.8,-3 -10.7,-7.4 -14.4,-12.7 l 0,0 z"
         id="path49"
         inkscape:connector-curvature="0"
         style="opacity:0.3;fill:#fbce00" />
      <path
         d="m 110.9,131.7 7.6,0 c 0.2,5.9 1.2,11.6 3.1,16.8 l -6.1,0 c -2.7,-5.1 -4.3,-10.8 -4.6,-16.8 l 0,0 z"
         id="path51"
         inkscape:connector-curvature="0"
         style="opacity:0.3;fill:#fbce00" />
      <path
         d="m 116.5,110.3 5.8,0 c -2.3,5.6 -3.6,11.9 -3.7,18.3 l -7.6,0 c 0.2,-6.5 2.1,-12.8 5.5,-18.3 l 0,0 z"
         id="path53"
         inkscape:connector-curvature="0"
         style="opacity:0.3;fill:#fbce00" />
      <path
         d="m 165.4,98.2 c 4.3,2.6 8.1,6 11.2,10 l -5.1,0 c -2.2,-4.4 -5,-8.2 -8.1,-11.1 0.6,0.4 1.3,0.7 2,1.1 l 0,0 z"
         id="path55"
         inkscape:connector-curvature="0"
         style="opacity:0.3;fill:#fbce00" />
      <path
         d="m 138.3,156.1 c -2.5,-2 -9.1,-8.1 -9.1,-14.8 0,-5 4.1,-9.2 9.2,-9.2 5,0 9.2,4.1 9.2,9.2 -0.1,6.6 -6.8,12.8 -9.3,14.8 l 0,0 z"
         id="path57"
         inkscape:connector-curvature="0"
         style="fill:#fbce00;fill-opacity:0.3" />
      <path
         d="m 185.3,144.1 c -2.5,-2 -9.1,-8.1 -9.1,-14.8 0,-5 4.1,-9.2 9.2,-9.2 5,0 9.2,4.1 9.2,9.2 -0.1,6.6 -6.8,12.8 -9.3,14.8 l 0,0 z"
         id="path59"
         inkscape:connector-curvature="0"
         style="fill:#fbce00;fill-opacity:0.3" />
      <path
         d="m 124.3,103.1 c -2.5,-2 -9.1,-8.1 -9.1,-14.8 0,-5 4.1,-9.2 9.2,-9.2 5,0 9.2,4.1 9.2,9.2 -0.1,6.6 -6.8,12.8 -9.3,14.8 l 0,0 z"
         id="path61"
         inkscape:connector-curvature="0"
         style="fill:#fbce00;fill-opacity:0.3" />
      <g
         id="Group"
         transform="translate(50,52)"
         style="fill:#fbce00">
        <path
           d="m 184.1,127.3 c 0.5,-1.4 1,-2.7 1.4,-4.1 l -1.9,-0.6 c -0.4,1.3 -0.9,2.6 -1.3,3.9 l 1.8,0.8 0,0 z"
           id="path64"
           inkscape:connector-curvature="0" />
        <path
           d="M 187.26545,104.93609 C 187.6196,101.67326 187.8,98.361229 187.8,95 187.8,44 146.3,2.5 95.3,2.5 66.3,2.5 40.5,15.8 23.5,36.7 l -1.7,-1.1 c 17.4,-21.3 43.8,-35 73.4,-35 52.1,0 94.5,42.4 94.5,94.5 0,3.43025 -0.17915,6.81164 -0.53087,10.1376 l -1.90368,-0.30151 z"
           id="Combined-Shape"
           inkscape:connector-curvature="0" />
        <path
           d="m 178,136.4 c -15.2,30.3 -46.6,51.1 -82.7,51.1 -22.9,0 -43.9,-8.4 -60,-22.2 l -1.4,1.4 c 16.5,14.2 38,22.8 61.5,22.8 36.9,0 69,-21.3 84.5,-52.3 l -1.9,-0.8 0,0 z"
           id="path67"
           inkscape:connector-curvature="0" />
        <path
           d="m 19.9,38.2 c -0.9,1.2 -1.8,2.5 -2.7,3.7 l 1.6,1.2 c 0.9,-1.3 1.8,-2.5 2.7,-3.7 l -1.6,-1.2 0,0 z"
           id="path69"
           inkscape:connector-curvature="0" />
        <path
           d="m 32.4,162.7 c -1,-0.9 -2,-1.9 -3,-2.9 l -1.5,1.3 3.1,3.1 1.4,-1.5 0,0 z"
           id="path71"
           inkscape:connector-curvature="0" />
        <path
           d="m 13.689277,138.44161 c -0.999376,-1.86863 -1.936702,-3.77498 -2.809131,-5.7162 l -1.9388799,0.55596 c 0.9576785,2.14761 1.9929369,4.25315 3.1020439,6.31276 l 1.645967,-1.15252 z M 4.1470703,110.7292 C 3.2617501,105.6128 2.8,100.357 2.8,95 2.8,78.2 7.3,62.5 15.1,48.9 L 13.5,47.7 C 5.4,61.6 0.8,77.8 0.8,95 c 0,5.54556 0.4853319,10.98758 1.4148423,16.28326 l 1.9322272,-0.55406 z"
           id="path73"
           inkscape:connector-curvature="0" />
      </g>
      <path
         d="m 64.347702,215.29804 c -1.1,-0.3 -2.2,0.3 -2.4,1.4 -0.3,1.1 0.4,2.2 1.4,2.4 1.1,0.3 2.2,-0.3 2.4,-1.4 0.3,-1 -0.3,-2.1 -1.4,-2.4 l 0,0 z M 17.429676,187.49797 c 4.5,2.1 5,3 4.6,7.9 2.1,-4.5 3,-5 7.9,-4.5 -4.5,-2.1 -5,-3 -4.6,-7.9 -2.1,4.5 -3,5 -7.9,4.5 z m 25.618026,-32.29993 c -2.1,-0.6 -4.3,0.7 -4.9,2.8 -0.6,2.1 0.7,4.3 2.8,4.9 2.1,0.6 4.3,-0.7 4.9,-2.8 0.7,-2.1 -0.6,-4.3 -2.8,-4.9 l 0,0 z M 212.90942,69.829459 c -0.8,0.8 -0.8,2 0,2.8 0.8,0.8 2,0.8 2.8,0 0.8,-0.8 0.8,-2 0,-2.8 -0.8,-0.8 -2,-0.8 -2.8,0 l 0,0 z m 69.83828,27.968579 c -4.1,2.800002 -5.1,2.800002 -9.2,0 2.8,4.100002 2.8,5.100002 0,9.200002 4.1,-2.8 5.1,-2.8 9.2,0 -2.9,-4.1 -2.9,-5.1 0,-9.200002 l 0,0 z m -25.6,33.400002 c -1.9,1.1 -2.6,3.5 -1.5,5.4 1.1,1.9 3.6,2.5 5.5,1.4 1.9,-1.1 2.6,-3.5 1.5,-5.4 -1.1,-1.9 -3.5,-2.5 -5.5,-1.4 l 0,0 z"
         id="path75"
         transform="matrix(0.75470958,0.65605903,-0.65605903,0.75470958,131.42049,-63.095614)"
         inkscape:connector-curvature="0"
         style="fill:#fbce00" />
    </g>
  </g>
</svg>
