<svg id="icon_available" xmlns="http://www.w3.org/2000/svg" width="89.58" height="145.6" viewBox="0 0 89.58 145.6">
  <defs>
    <style>
      .cls-1 {
        fill: #fff;
      }
    </style>
  </defs>
  <title>icon-available</title>
  <path class="cls-1" d="M76.67,73.59a1.31,1.31,0,0,0-.62-.15,1.32,1.32,0,0,0-1.17.71l-.27.51-.06.1H68l.1-.27a50.53,50.53,0,0,0,1.71-5.73,1.33,1.33,0,0,0-1-1.6,1.39,1.39,0,0,0-.31,0,1.32,1.32,0,0,0-1.29,1,46.66,46.66,0,0,1-2,6.48l-.05.13H53.09l0-.23a119.32,119.32,0,0,0,1.36-16.75v-.2h7.83a1.33,1.33,0,0,0,0-2.65H54.49v-.2a117.15,117.15,0,0,0-1.61-18.28l0-.23H64.55l.05.12a46.3,46.3,0,0,1,1.86,5,1.32,1.32,0,0,0,1.27.94,1.28,1.28,0,0,0,.39-.06A1.32,1.32,0,0,0,69,40.6c-.42-1.39-.91-2.78-1.45-4.11l-.11-.28h6.22l.06.1.07.11.4.66a1.32,1.32,0,1,0,2.29-1.33c-.2-.34-.4-.68-.61-1l0,0v0a1.32,1.32,0,0,0-.55-.86l0,0,0,0A41.38,41.38,0,0,0,61.75,20.91a41.08,41.08,0,0,0-30.23-4.56,1.33,1.33,0,0,0,.3,2.62,1.31,1.31,0,0,0,.31,0c1-.23,2-.42,3-.58l.49-.07-.3.39C33,21.73,31.05,26.82,29.65,33.4l0,.16H16.89a1.29,1.29,0,0,0-.31,0,1.78,1.78,0,0,0-.35,0H10.08l.24-.32c.39-.53.79-1,1.18-1.5a1.32,1.32,0,1,0-2-1.69,40.38,40.38,0,0,0-2.73,3.69l0,0,0,0a1.33,1.33,0,0,0-.55.87v0l0,0A41,41,0,1,0,77.22,75.38a1.33,1.33,0,0,0-.55-1.79ZM58.32,22c.72.36,1.42.75,2.09,1.14a38.32,38.32,0,0,1,11.23,10l.24.32H66.24l-.06-.11a37.48,37.48,0,0,0-8.09-11.08L57,21.4ZM47.23,18.9c6.34,2,12,7.14,15.88,14.37l.16.29H52.33l0-.16C51,27.2,49.15,22.29,47,19.2l-.34-.48ZM32.38,33.32a55.34,55.34,0,0,1,2-7.11c1.92-5.2,4.37-8.31,6.56-8.31,2.55,0,5.3,4,7.36,10.68.45,1.47.87,3.06,1.24,4.73l.05.24H32.32ZM2.68,54.71a38.51,38.51,0,0,1,5.56-18.4l.06-.1h6.23l-.11.28A52.71,52.71,0,0,0,10.7,54.72v.2h-8Zm4.74,20-.06-.1A37.81,37.81,0,0,1,2.68,57.78v-.21h8v.2a52.52,52.52,0,0,0,3.12,16.72l.1.27H7.42ZM23.64,90.43A38.64,38.64,0,0,1,9.24,77.71L9,77.4h6l.05.12a42.17,42.17,0,0,0,4.36,7.55,35.18,35.18,0,0,0,4.45,5l1.05,1ZM41,94.58c-2.15,0-4.47-2.86-6.39-7.85A1.33,1.33,0,0,0,32.88,86a1.32,1.32,0,0,0-.76,1.71A26.3,26.3,0,0,0,35,93.3l.34.49-.56-.18C27.93,91.42,22,85.77,18.06,77.68l-.13-.26.29,0a1.33,1.33,0,0,0-.12-2.64H16.76l0-.13a49.49,49.49,0,0,1-3.37-16.85v-.21h3.23a1.33,1.33,0,0,0,0-2.65H13.34v-.2a49.51,49.51,0,0,1,4-18.38l.05-.12h11.7l0,.24a108,108,0,0,0-1.39,12.09,1.33,1.33,0,0,0,1.24,1.4H29a1.32,1.32,0,0,0,1.32-1.25,104.67,104.67,0,0,1,1.44-12.32l0-.16H50.17l0,.16a111.92,111.92,0,0,1,1.65,18.34v.2H44a1.33,1.33,0,1,0,0,2.65h7.82v.2a113,113,0,0,1-1.38,16.81l0,.17H44a1.33,1.33,0,0,0,0,2.65H50l0,.24c-.45,2.25-1,4.35-1.56,6.26C46.28,90.59,43.53,94.58,41,94.58Zm5.69-.81.34-.49c2.33-3.35,4.26-8.79,5.6-15.73l0-.16H64l-.14.29a36,36,0,0,1-6.63,9.53,24.78,24.78,0,0,1-10,6.38ZM72.74,77.71A38.38,38.38,0,0,1,58.25,90.48L57,91.13l1-1c.39-.36.76-.72,1.11-1.07A39,39,0,0,0,66.9,77.52L67,77.4h6Z"/>
  <path class="cls-1" d="M16.58,17.91a5.91,5.91,0,0,0,5.9-5.9,1.33,1.33,0,1,0-2.65,0,3.25,3.25,0,1,1-3.25-3.25,1.33,1.33,0,1,0,0-2.65,5.9,5.9,0,0,0,0,11.8Z"/>
  <path class="cls-1" d="M15.81,29.86a1.32,1.32,0,0,0,1.55,0c.46-.34,11.22-8.31,11.22-17.85a12,12,0,1,0-24,0C4.58,21.72,15.35,29.54,15.81,29.86Zm.77-27.21A9.36,9.36,0,0,1,25.93,12c0,6.61-6.46,12.69-9.23,15l-.13.11-.13-.1c-2.77-2.26-9.21-8.25-9.21-15A9.36,9.36,0,0,1,16.58,2.65Z"/>
  <path class="cls-1" d="M30.3,59.5a5.9,5.9,0,1,0,5.9,5.9,1.33,1.33,0,0,0-2.65,0,3.25,3.25,0,1,1-3.25-3.25,1.33,1.33,0,0,0,0-2.65Z"/>
  <path class="cls-1" d="M30.3,53.39a12,12,0,0,0-12,12c0,9.73,10.77,17.53,11.23,17.86a1.32,1.32,0,0,0,1.55,0c.46-.34,11.22-8.31,11.22-17.85A12,12,0,0,0,30.3,53.39Zm.12,27-.13.1-.13-.1C27.39,78.13,21,72.15,21,65.4a9.35,9.35,0,1,1,18.7,0C39.65,72,33.19,78.09,30.42,80.39Z"/>
  <path class="cls-1" d="M77.58,47.29a5.9,5.9,0,1,0,5.9,5.9,1.32,1.32,0,1,0-2.65,0,3.25,3.25,0,1,1-3.25-3.25,1.33,1.33,0,1,0,0-2.65Z"/>
  <path class="cls-1" d="M78.36,71c.46-.34,11.22-8.31,11.22-17.85a12,12,0,1,0-24,0c0,9.74,10.77,17.53,11.23,17.86a1.32,1.32,0,0,0,1.55,0Zm-.92-2.85c-2.77-2.26-9.21-8.25-9.21-15a9.35,9.35,0,1,1,18.7,0c0,6.61-6.46,12.69-9.23,15l-.13.11Z"/>
  <g>
    <path class="cls-1" d="M69.33,116.35H62.19L42.58,102.16a3.16,3.16,0,0,0,1-2.31,3.33,3.33,0,0,0-6.65,0,3.16,3.16,0,0,0,1,2.31L18.39,116.35H11.25a5.39,5.39,0,0,0-5.48,5.29v18.68a5.39,5.39,0,0,0,5.48,5.29H69.33a5.39,5.39,0,0,0,5.48-5.29V121.64A5.39,5.39,0,0,0,69.33,116.35Zm-28-16.5a1.06,1.06,0,0,1-1.08,1,1,1,0,1,0-1.08-1,1.08,1.08,0,0,1,2.15,0Zm-19,16.5,18-13,18,13Zm17-16.5a1,1,0,1,1,1,.94A1,1,0,0,1,39.31,99.85ZM8.13,121.64a3.07,3.07,0,0,1,3.13-3H69.33a3.08,3.08,0,0,1,3.13,3v18.68a3.08,3.08,0,0,1-3.13,3H11.25a3.07,3.07,0,0,1-3.13-3Zm54-5.19L42.42,102.17h0Zm-24-14.28h0L18.42,116.45ZM69.33,145.5a5.29,5.29,0,0,0,5.38-5.19A5.29,5.29,0,0,1,69.33,145.5Zm0-29.05a5.29,5.29,0,0,1,5.38,5.19A5.29,5.29,0,0,0,69.33,116.45Z"/>
    <path class="cls-1" d="M33.84,138.34h.1v-6.23H36a4.25,4.25,0,1,0,0-8.5H32.76a1.16,1.16,0,0,0-1.17,1.14v13.59h2.25Zm4.3-10.48A2.12,2.12,0,0,1,36,129.94a2.08,2.08,0,1,0,0-4.15A2.12,2.12,0,0,1,38.14,127.86Zm-2.15-2a2,2,0,1,1,0,4H33.94v-4ZM36,132a4.23,4.23,0,0,0,4.3-4.15A4.23,4.23,0,0,1,36,132Zm-3.23-8.3h0a1.06,1.06,0,0,0-1.08,1A1.06,1.06,0,0,1,32.76,123.71Z"/>
    <path class="cls-1" d="M25.23,138.34a4.34,4.34,0,0,0,4.4-4.25v-6.23a4.41,4.41,0,0,0-8.81,0v6.23A4.34,4.34,0,0,0,25.23,138.34Zm-2.15-10.48a2.12,2.12,0,0,1,2.15-2.08,2.12,2.12,0,0,0-2.15,2.08v6.23a2.12,2.12,0,0,0,2.15,2.08,2.18,2.18,0,0,0,1.41-.52,2.18,2.18,0,0,1-1.41.52,2.12,2.12,0,0,1-2.15-2.08Zm4.2,0v6.23a2.05,2.05,0,0,1-4.1,0v-6.23a2.05,2.05,0,0,1,4.1,0Z"/>
    <path class="cls-1" d="M43.52,138.34h6.55v-2.28H44.69v-4h5.38v-2.27H44.69v-4h5.38v-2.28H43.52a1.16,1.16,0,0,0-1.18,1.14V137.2A1.16,1.16,0,0,0,43.52,138.34Zm0-14.63a1.06,1.06,0,0,0-1.08,1A1.06,1.06,0,0,1,43.52,123.71Z"/>
    <path class="cls-1" d="M54.27,138.34h.1v-8.78l4.23,8.16a1.18,1.18,0,0,0,1.05.63,1.19,1.19,0,0,0,.27,0,1.14,1.14,0,0,0,.91-1.11V123.61H58.47v8.78l-4.23-8.15a1.17,1.17,0,0,0-1-.63l-.27,0a1.14,1.14,0,0,0-.91,1.11v13.59h2.25Zm4.41-.67-4.41-8.52,4.42,8.52a1.07,1.07,0,0,0,.67.53A1.07,1.07,0,0,1,58.68,137.67Zm1.21.54-.25,0,.25,0a1.06,1.06,0,0,0,.77-.66A1.06,1.06,0,0,1,59.9,138.21Zm-5.74-13.93A1,1,0,0,0,54,124,1,1,0,0,1,54.16,124.29Zm-.28-.33-.18-.12Zm-.29-.17-.2-.05Zm-.63-.05.25,0h.07a1.11,1.11,0,0,0-.31,0,1,1,0,0,0-.83,1A1,1,0,0,1,52.95,123.74Z"/>
  </g>
</svg>
