<?xml version="1.0" encoding="UTF-8" standalone="no"?>
<!-- Generator: Adobe Illustrator 19.2.1, SVG Export Plug-In . SVG Version: 6.00 Build 0)  -->

<svg
   xmlns:dc="http://purl.org/dc/elements/1.1/"
   xmlns:cc="http://creativecommons.org/ns#"
   xmlns:rdf="http://www.w3.org/1999/02/22-rdf-syntax-ns#"
   xmlns:svg="http://www.w3.org/2000/svg"
   xmlns="http://www.w3.org/2000/svg"
   xmlns:sodipodi="http://sodipodi.sourceforge.net/DTD/sodipodi-0.dtd"
   xmlns:inkscape="http://www.inkscape.org/namespaces/inkscape"
   version="1.1"
   x="0px"
   y="0px"
   viewBox="0 0 257.70001 187"
   xml:space="preserve"
   id="svg2"
   inkscape:version="0.91 r13725"
   sodipodi:docname="icon-guaranteed.svg"
   width="257.70001"
   height="187"><metadata
     id="metadata34"><rdf:RDF><cc:Work
         rdf:about=""><dc:format>image/svg+xml</dc:format><dc:type
           rdf:resource="http://purl.org/dc/dcmitype/StillImage" /><dc:title></dc:title></cc:Work></rdf:RDF></metadata><defs
     id="defs32" /><sodipodi:namedview
     pagecolor="#ffffff"
     bordercolor="#666666"
     borderopacity="1"
     objecttolerance="10"
     gridtolerance="10"
     guidetolerance="10"
     inkscape:pageopacity="0"
     inkscape:pageshadow="2"
     inkscape:window-width="656"
     inkscape:window-height="480"
     id="namedview30"
     showgrid="false"
     fit-margin-top="0"
     fit-margin-left="0"
     fit-margin-right="0"
     fit-margin-bottom="0"
     inkscape:zoom="0.921875"
     inkscape:cx="130.5"
     inkscape:cy="90.5"
     inkscape:window-x="0"
     inkscape:window-y="0"
     inkscape:window-maximized="0"
     inkscape:current-layer="svg2" /><style
     type="text/css"
     id="style4">
	.st0{fill-rule:evenodd;clip-rule:evenodd;fill:#FBCE0F;}
	.st1{fill:#FFFFFF;}
</style><g
     id="Layer_1"
     transform="translate(-28.5,-31.5)"><path
       class="st0"
       d="m 159,31.5 c 51.6,0 93.5,41.9 93.5,93.5 0,51.6 -41.9,93.5 -93.5,93.5 -51.6,0 -93.5,-41.9 -93.5,-93.5 0,-51.6 41.9,-93.5 93.5,-93.5 z"
       id="path7"
       inkscape:connector-curvature="0"
       style="clip-rule:evenodd;fill:#fbce0f;fill-rule:evenodd" /></g><g
     id="Layer_2"
     transform="translate(-28.5,-31.5)"><g
       id="g10"><path
         class="st1"
         d="m 176.6,104.6 c -2.7,-0.3 -4.8,-2.5 -4.8,-5.3 0,-0.3 0,-0.7 0.1,-1 0.1,-0.8 -0.3,-1.5 -1,-1.8 -3.9,-1.4 -8,-2.1 -12.2,-2.1 -7.2,0 -12.3,2 -12.5,2.1 -0.7,0.3 -1.1,1 -0.9,1.7 0.1,0.3 0.1,0.7 0.1,1 0,2.8 -2.1,5.1 -4.9,5.3 -0.8,0.1 -1.4,0.7 -1.4,1.6 0,3.1 1.2,7.1 3.4,11.3 l 1.8,3.1 c 0.6,1 1.3,2 2,3 3.1,4.2 7.3,8.7 10.8,9.8 l 3.1,0 c 3.5,-1.1 7.7,-5.5 10.6,-9.6 4.5,-6.2 7.2,-12.8 7.2,-17.7 0,-0.6 -0.6,-1.3 -1.4,-1.4 z m -8.3,17.5 c -4,5.5 -8,8.5 -9.7,8.5 -1.7,0 -5.7,-3.1 -9.8,-8.8 -3.7,-5.1 -6.1,-10.5 -6.6,-14.3 3.6,-1 6.2,-4.3 6.2,-8.1 0,-0.1 0,-0.1 0,-0.2 1.8,-0.6 5.5,-1.5 10.3,-1.5 3.5,0 6.8,0.5 10,1.5 0,0.1 0,0.1 0,0.2 0,3.9 2.5,7.1 6.1,8.1 -0.4,4.1 -2.8,9.5 -6.5,14.6 z m -4,-15.6 -8,8 -2.2,-2.2 c -0.6,-0.6 -1.6,-0.6 -2.2,0 -0.6,0.6 -0.6,1.6 0,2.2 l 3.3,3.3 c 0.3,0.3 0.7,0.5 1.1,0.5 0.4,0 0.8,-0.2 1.1,-0.5 l 9.1,-9.1 c 0.6,-0.6 0.6,-1.6 0,-2.2 -0.7,-0.6 -1.6,-0.6 -2.2,0 z"
         id="path12"
         inkscape:connector-curvature="0"
         style="fill:#ffffff" /></g><g
       id="g14"><path
         class="st1"
         d="m 173.5,138.1 c -4.3,2.6 -9.3,4 -14.7,4 -15.9,0 -28.9,-13 -28.9,-28.9 0,-15.9 13,-28.9 28.9,-28.9 15.9,0 28.9,13 28.9,28.9 0,4.7 -1.2,9.2 -3.2,13.1 l 2,1.3 c 2.3,-4.3 3.6,-9.3 3.6,-14.5 C 190,96 176,82 158.8,82 c -17.2,0 -31.3,14 -31.3,31.3 0,17.3 14,31.3 31.3,31.3 5.9,0 11.5,-1.7 16.3,-4.6 l -1.6,-1.9 z"
         id="path16"
         inkscape:connector-curvature="0"
         style="fill:#ffffff" /><path
         class="st1"
         d="m 182.2,130.1 c -0.8,1.1 -1.7,2.1 -2.6,3.1 l 1.5,1.9 c 1.1,-1.1 2.1,-2.4 3.1,-3.7 l -2,-1.3 z"
         id="path18"
         inkscape:connector-curvature="0"
         style="fill:#ffffff" /></g><g
       id="g20"><path
         class="st1"
         d="m 178.1,185 c -0.4,0 -0.8,-0.3 -1.1,-0.7 l -13.2,-23.4 c -0.1,-0.1 -0.1,-0.2 -0.2,-0.2 l -0.1,0 c -0.1,0 -0.1,0 -0.2,0.1 -1.6,1 -3.1,1.4 -4.7,1.4 -1.6,0 -3.1,-0.5 -4.7,-1.4 -0.1,0 -0.1,-0.1 -0.2,-0.1 l -0.1,0 c -0.1,0 -0.2,0.1 -0.2,0.2 l -13.2,23.4 c -0.3,0.4 -0.7,0.7 -1.1,0.7 -0.4,0 -0.9,-0.1 -1.2,-0.5 l -8.1,-11 c -0.1,-0.1 -0.2,-0.1 -0.3,-0.2 l -13.4,-1.6 c -0.4,-0.1 -0.8,-0.4 -1.1,-0.8 -0.2,-0.4 -0.2,-0.9 0,-1.3 l 11.2,-19.9 c 0.1,-0.1 0.1,-0.2 0,-0.3 0,-0.1 -0.1,-0.2 -0.2,-0.2 -0.5,-0.2 -1,-0.7 -1.6,-1.2 -2.7,-2.7 -2.7,-7 -2.7,-11.2 0,-2.7 0,-5.6 -0.8,-7.6 -0.7,-1.9 -2.6,-3.9 -4.5,-5.7 -2.9,-3 -6,-6.2 -6,-10.2 0,-4 2.9,-7.1 5.8,-10 l 0.2,-0.2 c 1.9,-1.9 3.8,-3.8 4.5,-5.7 0.8,-2.1 0.8,-4.9 0.8,-7.6 0,-4.1 0,-8.4 2.7,-11.2 2.7,-2.8 6.9,-2.8 11,-2.8 2.7,0 5.5,0 7.5,-0.8 1.7,-0.7 3.4,-2.4 5.2,-4.1 l 0.4,-0.4 c 2.9,-3 6,-6.2 9.9,-6.2 3.9,0 7,3.1 9.9,6.2 1.9,1.9 3.8,3.8 5.6,4.6 2,0.8 4.8,0.8 7.5,0.8 4.1,0 8.3,0 11,2.8 2.7,2.7 2.7,7 2.7,11.2 0,2.7 0,5.6 0.8,7.6 0.7,1.9 2.6,3.9 4.5,5.7 l 0.2,0.2 c 2.8,2.9 5.8,6 5.8,10 0,4 -2.9,7.1 -5.8,10 l -0.2,0.2 c -1.9,1.9 -3.8,3.8 -4.5,5.7 -0.8,2.1 -0.8,4.9 -0.8,7.6 0,4.1 0,8.4 -2.7,11.2 -0.5,0.5 -1,0.8 -1.6,1.2 -0.2,0.1 -0.2,0.3 -0.1,0.5 l 11.4,19.9 c 0.1,0.3 0.2,0.9 0,1.3 -0.2,0.5 -0.6,0.7 -1.1,0.8 l -13.4,1.6 c -0.1,0 -0.2,0.1 -0.3,0.2 l -8.1,11 c -0.2,0.2 -0.6,0.4 -1.1,0.4 l 0,0 z m -4.6,-33.1 c -0.1,0 -0.1,0 -0.2,0 -1.4,0.7 -2.8,2.2 -4.3,3.7 l -0.6,0.6 c -0.3,0.3 -0.5,0.5 -0.8,0.8 -0.5,0.6 -1.1,1.1 -1.7,1.7 -0.1,0.1 -0.2,0.3 -0.1,0.5 l 12.2,21.5 c 0.1,0.1 0.2,0.3 0.3,0.3 l 0,0 c 0.1,0 0.2,-0.1 0.3,-0.2 l 6.9,-9.5 c 0.2,-0.3 0.5,-0.5 1,-0.6 l 11.4,-1.3 c 0.1,0 0.3,-0.1 0.3,-0.2 0.1,-0.1 0.1,-0.3 0,-0.4 l -10.3,-18.2 c -0.1,-0.1 -0.2,-0.2 -0.3,-0.2 l -0.1,0 c -2,0.4 -4.1,0.4 -6.1,0.4 -1.5,0 -3.1,0 -4.6,0.2 -0.1,0 -0.2,0.1 -0.3,0.2 -0.1,0.1 -0.1,0.3 0,0.4 l 7.3,12.9 c 0.2,0.3 0.2,0.7 0.1,1 -0.1,0.4 -0.3,0.7 -0.6,0.8 -0.2,0.1 -0.5,0.1 -0.7,0.1 -0.5,0 -0.9,-0.3 -1.1,-0.7 l -7.6,-13.5 c 0,-0.1 -0.1,-0.2 -0.1,-0.2 0,-0.1 -0.1,-0.2 -0.3,-0.1 0.1,0 0.1,0 0,0 z m -44.1,-1.6 c -0.1,0 -0.3,0.1 -0.3,0.2 l -10.3,18.2 c -0.1,0.1 -0.1,0.3 0,0.4 0.1,0.1 0.2,0.2 0.3,0.2 l 11.5,1.4 c 0.4,0.1 0.7,0.3 0.9,0.5 l 6.9,9.5 c 0.1,0.1 0.2,0.2 0.3,0.2 l 0,0 c 0.1,0 0.3,-0.1 0.3,-0.3 l 12.2,-21.7 c 0.1,-0.2 0.1,-0.4 -0.1,-0.5 -0.3,-0.3 -0.5,-0.5 -0.8,-0.8 -0.6,-0.5 -1.1,-1.1 -1.7,-1.7 -1.7,-1.8 -3.1,-3.2 -4.6,-4.1 -0.1,0 -0.1,-0.1 -0.2,-0.1 l -0.1,0 c -0.1,0 -0.2,0.1 -0.2,0.2 l -7.6,13.5 c -0.2,0.4 -0.6,0.7 -1.2,0.7 -0.3,0 -0.5,0 -0.7,-0.1 -0.3,-0.2 -0.5,-0.4 -0.6,-0.7 -0.1,-0.4 -0.1,-0.8 0.1,-1.2 l 7.2,-12.8 c 0.1,-0.1 0.1,-0.3 0,-0.4 -0.1,-0.1 -0.2,-0.2 -0.3,-0.2 -1.5,-0.2 -3.3,-0.2 -5,-0.2 -1.8,0.2 -4,0.2 -6,-0.2 0.1,0 0,0 0,0 z m 29.1,-83.6 c -2.9,0 -5.7,3 -8,5.3 -2,2.1 -4.2,4.2 -6.5,5.2 -2.5,1.1 -5.6,1.1 -8.5,1.1 -3.7,0 -7.2,0 -9.1,1.9 -1.9,1.9 -1.9,5.5 -1.9,9.3 0,3.1 0,6.2 -1.1,8.7 -1,2.4 -3,4.5 -5.1,6.7 -2.9,2.9 -5.2,5.4 -5.2,8.2 0,2.8 2.5,5.4 4.9,7.9 l 0.3,0.3 c 2.2,2.2 4.2,4.3 5.1,6.7 1.1,2.6 1.1,5.7 1.1,8.8 0,3.8 0,7.4 1.9,9.3 1.9,1.9 5.4,1.9 9.1,1.9 3,0 6,0 8.5,1.1 2.2,0.9 4.2,2.9 6.1,4.8 l 0.9,0.9 c 2.4,2.4 4.8,4.8 7.5,4.8 2.9,0 5.5,-2.7 8,-5.3 2,-2.1 4.2,-4.2 6.5,-5.2 2.5,-1.1 5.6,-1.1 8.5,-1.1 3.7,0 7.2,0 9.1,-1.9 1.9,-1.9 1.9,-5.5 1.9,-9.3 0,-3.1 0,-6.2 1.1,-8.7 1,-2.4 3,-4.5 5.1,-6.7 2.9,-2.9 5.2,-5.4 5.2,-8.2 0,-2.8 -2.5,-5.4 -4.9,-7.9 l -0.3,-0.3 c -2.2,-2.2 -4.2,-4.3 -5.1,-6.7 -1.1,-2.6 -1.1,-5.7 -1.1,-8.8 0,-3.8 0,-7.4 -1.9,-9.3 -1.9,-1.9 -5.4,-1.9 -9.1,-1.9 -3,0 -6,0 -8.5,-1.1 -2.2,-0.9 -4.2,-2.9 -6.1,-4.8 L 166,71.5 c -2.4,-2.3 -4.8,-4.8 -7.5,-4.8 z m 47.2,59.5 c -0.4,0 -0.8,-0.2 -1,-0.5 -0.2,-0.3 -0.3,-0.6 -0.3,-0.9 0,-0.3 0.2,-0.7 0.5,-0.8 2.8,-2.1 4.6,-5.1 5.1,-8.4 0.5,-3.4 -0.3,-6.8 -2.4,-9.5 -0.2,-0.3 -0.3,-0.6 -0.3,-0.9 0,-0.3 0.2,-0.7 0.5,-0.8 0.3,-0.2 0.6,-0.3 0.8,-0.3 0.4,0 0.8,0.2 1,0.5 5,6.8 3.6,16.4 -3.1,21.4 -0.3,0.1 -0.6,0.2 -0.8,0.2 z M 117,86.4 c -0.4,0 -0.7,-0.2 -1,-0.4 -0.1,-0.1 -0.3,-0.4 -0.2,-0.7 0,-4 1.5,-7.7 4.3,-10.6 2.8,-2.9 6.6,-4.4 10.6,-4.4 0.7,0 1.2,0.5 1.2,1.2 0,0.7 -0.5,1.2 -1.2,1.2 -6.9,0 -12.5,5.7 -12.5,12.6 0,0.6 -0.5,1.1 -1.2,1.1 z"
         id="path22"
         inkscape:connector-curvature="0"
         style="fill:#ffffff" /></g><g
       id="g24"><g
         id="g26"><path
           class="st0"
           d="m 78.4,181.6 c -1.1,-0.3 -2.2,0.3 -2.5,1.4 -0.3,1.1 0.3,2.2 1.4,2.5 1.1,0.3 2.2,-0.3 2.5,-1.4 0.2,-1.1 -0.4,-2.2 -1.4,-2.5 z M 36.5,169.3 c -2.2,4.4 -3.1,4.9 -8,4.4 4.4,2.2 4.9,3.1 4.5,8 2.2,-4.4 3.1,-4.9 8,-4.4 -4.5,-2.2 -5,-3.1 -4.5,-8 z m 21.8,-48.2 c -2.1,-0.6 -4.3,0.6 -4.9,2.7 -0.6,2.1 0.6,4.3 2.7,4.9 2.1,0.6 4.3,-0.6 4.9,-2.7 0.6,-2.1 -0.6,-4.3 -2.7,-4.9 z M 245.1,72.5 c -0.8,0.8 -0.8,2 0,2.8 0.8,0.8 2,0.8 2.8,0 0.8,-0.8 0.8,-2 0,-2.8 -0.8,-0.8 -2,-0.8 -2.8,0 z m 41.1,13 c -4.1,2.8 -5.1,2.8 -9.2,0.1 2.8,4 2.8,5.1 0,9.2 4.1,-2.8 5.1,-2.8 9.2,-0.1 -2.8,-4 -2.8,-5.1 0,-9.2 z M 260.8,119 c -1.9,1.1 -2.6,3.5 -1.5,5.4 1.1,1.9 3.6,2.5 5.5,1.4 1.9,-1.1 2.6,-3.5 1.5,-5.4 -1.1,-1.8 -3.6,-2.5 -5.5,-1.4 z"
           id="path28"
           inkscape:connector-curvature="0"
           style="clip-rule:evenodd;fill:#fbce0f;fill-rule:evenodd" /></g></g></g></svg>