<svg id="icon_step3" xmlns="http://www.w3.org/2000/svg" width="356.66" height="356.77" viewBox="0 0 356.66 356.77">
  <defs>
    <style>
      .cls-1 {
        fill: #9ce7f7;
      }

      .cls-1, .cls-3, .cls-5 {
        fill-rule: evenodd;
      }

      .cls-2, .cls-3 {
        fill: #f8576e;
      }

      .cls-4, .cls-5 {
        fill: #414a52;
      }
    </style>
  </defs>
  <title>icon-step3</title>
  <polygon class="cls-1" points="317.66 30.64 336.94 22.39 317.66 14.14 317.66 30.64"/>
  <path class="cls-1" d="M256.41,52.93a43.8,43.8,0,0,1,13.82-13.82,43.8,43.8,0,0,1-13.82-13.82,43.8,43.8,0,0,1-13.82,13.82A43.81,43.81,0,0,1,256.41,52.93Z" transform="translate(-0.05 0)"/>
  <path class="cls-1" d="M206.25,200.72H195.11V189.58h11.15Zm-22.29,0H172.81V189.58H184Zm33.44-11.15h87.77a42.78,42.78,0,0,1,3-11.15H161.67a16.72,16.72,0,0,0,0,33.44H308.13a42.82,42.82,0,0,1-3-11.15H217.4V189.58Z" transform="translate(-0.05 0)"/>
  <path class="cls-1" d="M117.08,289.89H105.94V278.74h11.15Zm-22.29,0H83.65V278.74H94.79Zm33.44-11.15H216a42.78,42.78,0,0,1,3-11.15H72.5a16.72,16.72,0,0,0,0,33.44H219a42.82,42.82,0,0,1-3-11.15H128.23Z" transform="translate(-0.05 0)"/>
  <circle class="cls-2" cx="111.01" cy="33.53" r="22.29"/>
  <polygon class="cls-1" points="89.17 110.11 89.17 97.12 82.7 103.64 89.17 110.11"/>
  <path class="cls-1" d="M39.06,323.33H171.42a42.78,42.78,0,0,1,3-11.15H27.92a16.72,16.72,0,0,0,0,33.44H174.37a42.82,42.82,0,0,1-3-11.15H39.06Z" transform="translate(-0.05 0)"/>
  <path class="cls-3" d="M100.37,83.69V211.87h16.72v-78a5.24,5.24,0,0,1,4.89-5.56h50.39a6,6,0,0,1,6,5.57v33.44h16.72v-39a17.11,17.11,0,0,0-17.17-16.72h-39a5.24,5.24,0,0,1-5.14-5.34c0-.08,0-28.1,0-28.1a5.24,5.24,0,0,1,4.89-5.56h33.67a17.11,17.11,0,0,0,17.16-16.72V11.24H178.39V55.83a6,6,0,0,1-6,5.57H129.51a33.44,33.44,0,0,1-37.78-.61l-31,31a16.72,16.72,0,0,0,0,23.63L77.4,132.18l8.86-8.86L70.72,107.76a5.57,5.57,0,0,1,0-7.86l20-20a5.91,5.91,0,0,1,6-1.39A5.57,5.57,0,0,1,100.37,83.69Z" transform="translate(-0.05 0)"/>
  <path class="cls-1" d="M200.68,245.31H133.8V234.16h66.88Zm11.15-11.15h48.76a42.78,42.78,0,0,1,3-11.15H117.08a16.72,16.72,0,1,0,0,33.44H263.54a42.82,42.82,0,0,1-3-11.15H211.82Z" transform="translate(-0.05 0)"/>
  <rect class="cls-4" x="22.29" y="39.11" width="11.15" height="11.15"/>
  <rect class="cls-4" x="44.58" y="39.11" width="11.15" height="11.15"/>
  <rect class="cls-4" y="39.11" width="11.15" height="11.15"/>
  <path class="cls-5" d="M256.41,25.45a43.8,43.8,0,0,0,13.82,13.82A43.8,43.8,0,0,0,256.41,53.1a43.8,43.8,0,0,0-13.82-13.82,43.79,43.79,0,0,0,13.82-14Zm-29.2,19.23A32.66,32.66,0,0,1,251,68.48a5.57,5.57,0,0,0,10.81,0,32.66,32.66,0,0,1,23.8-23.8,5.57,5.57,0,0,0,0-10.81,32.66,32.66,0,0,1-23.8-23.8,5.57,5.57,0,0,0-10.81,0,32.66,32.66,0,0,1-23.8,23.8,5.57,5.57,0,0,0,0,10.81Z" transform="translate(-0.05 0)"/>
  <rect class="cls-4" x="133.75" y="234.16" width="66.88" height="11.15"/>
  <path class="cls-5" d="M317.54,30.64V13.92l19.28,8.25ZM273,211.87H161.67a16.72,16.72,0,0,1,0-33.44H308.13a42.82,42.82,0,0,0-3,11.15H217.4v11.15h87.77a42.78,42.78,0,0,0,3,11.15H273Zm-44.58,44.58H117.08a16.72,16.72,0,1,1,0-33.44H263.54a42.82,42.82,0,0,0-3,11.15H211.82v11.15h48.76a42.78,42.78,0,0,0,3,11.15H228.38ZM183.79,301H72.5a16.72,16.72,0,0,1,0-33.44H219a42.82,42.82,0,0,0-3,11.15H128.23v11.15H216A42.78,42.78,0,0,0,219,301H183.79Zm-12.54,33.44a42.78,42.78,0,0,0,3,11.15H27.92a16.72,16.72,0,0,1,0-33.44H174.37a42.82,42.82,0,0,0-3,11.15H39.06v11.15H171.25ZM139.38,211.87H128.23V139.42h39v27.87h-5.57a27.86,27.86,0,0,0-22.29,44.58Zm-49-132.13-20,20a5.57,5.57,0,0,0,0,7.86L86,123.09,77.13,132,60.41,115.23a16.72,16.72,0,0,1,0-23.63l31-31a33.44,33.44,0,0,0,37.78.61h42.86a6,6,0,0,0,6-5.57V11h11.15V55.6a17.11,17.11,0,0,1-17.17,16.72H138.65a5.24,5.24,0,0,0-5.14,5.34c0,.08,0,.16,0,.23v27.87a5.24,5.24,0,0,0,4.89,5.56h39.25a17.11,17.11,0,0,1,17.16,16.72v39H178.11V133.63a6,6,0,0,0-6-5.57H121.93a5.24,5.24,0,0,0-5.14,5.34c0,.08,0,.16,0,.24v78H100.09v-128a5.57,5.57,0,0,0-3.68-5.13A5.91,5.91,0,0,0,90.39,79.73Zm-1.17,30.37-6.47-6.52,6.47-6.46Zm21.85-98.86A22.29,22.29,0,1,1,88.77,33.53,22.29,22.29,0,0,1,111.07,11.24Zm242.26,6L314.31.54a5.57,5.57,0,0,0-7.75,5.13V167.29H206.25v-39a28.26,28.26,0,0,0-28.31-27.87h-33V83.69h27.42a28.26,28.26,0,0,0,28.31-27.86V5.67a6,6,0,0,0-6-5.57H172.37a5.24,5.24,0,0,0-5.14,5.34c0,.08,0,.16,0,.24V50.25H140a33.44,33.44,0,1,0-56.12,2.62L52.77,83.69a27.86,27.86,0,0,0,0,39.4l20.45,20.45a5.57,5.57,0,0,0,4,1.62,6.07,6.07,0,0,0,4.18-1.62l7.86-7.64v81.53A5.24,5.24,0,0,0,94.11,223h.68a27.31,27.31,0,0,0,0,33.44H72.5A27.86,27.86,0,0,0,50.21,301H27.92a27.87,27.87,0,0,0,0,55.73H184a5.57,5.57,0,0,0,4.46-8.92A31.71,31.71,0,0,1,187,312.18h41.52a5.57,5.57,0,0,0,4.46-8.92,31.71,31.71,0,0,1-1.39-35.67h41.52a5.57,5.57,0,0,0,4.46-8.92A31.71,31.71,0,0,1,276.19,223h41.52a5.57,5.57,0,0,0,4.46-8.92,31.77,31.77,0,0,1,0-37.9,5.57,5.57,0,0,0-4.46-8.92V42.78l35.61-15.27a5.57,5.57,0,0,0,0-10.25Z" transform="translate(-0.05 0)"/>
  <rect class="cls-4" x="105.89" y="278.74" width="11.15" height="11.15"/>
  <rect class="cls-4" x="83.6" y="278.74" width="11.15" height="11.15"/>
  <rect class="cls-4" x="195.05" y="189.58" width="11.15" height="11.15"/>
  <rect class="cls-4" x="172.76" y="189.58" width="11.15" height="11.15"/>
</svg>
