<?xml version="1.0" encoding="utf-8"?>
<!-- Generator: Adobe Illustrator 19.2.1, SVG Export Plug-In . SVG Version: 6.00 Build 0)  -->
<svg version="1.1" id="Capa_1" xmlns="http://www.w3.org/2000/svg" xmlns:xlink="http://www.w3.org/1999/xlink" x="0px" y="0px"
	 viewBox="0 0 128 128" style="enable-background:new 0 0 128 128;" xml:space="preserve">
<style type="text/css">
	.st0{fill:#00AEEF;}
</style>
<path class="st0" d="M9.8,91.7c-0.9,0-1.7-0.8-1.7-1.7V32.8c0-0.6,0.3-1.1,0.8-1.4l41-26.6c0.3-0.2,0.6-0.3,0.9-0.3
	c0.3,0,0.7,0.1,0.9,0.3l40.4,26.6c0.5,0.3,0.8,0.9,0.8,1.5l-0.4,13c0,0.9-0.8,1.6-1.7,1.6c-0.5,0-0.9-0.2-1.2-0.5s-0.5-0.8-0.5-1.2
	l0.4-12.1L50.8,8.2L11.5,33.7V90C11.5,90.9,10.7,91.7,9.8,91.7z"/>
<path class="st0" d="M18.3,45.2c-0.9,0-1.7-0.8-1.7-1.7s0.8-1.7,1.7-1.7h65c0.9,0,1.7,0.8,1.7,1.7s-0.8,1.7-1.7,1.7H18.3z"/>
<path class="st0" d="M48.4,44.8c-0.4,0-0.8-0.1-1.1-0.4L29.2,28.9c-0.3-0.3-0.6-0.7-0.6-1.2c0-0.5,0.1-0.9,0.4-1.2
	c0.3-0.4,0.8-0.6,1.3-0.6c0.4,0,0.8,0.1,1.1,0.4l18.2,15.5c0.3,0.3,0.5,0.7,0.6,1.2c0,0.5-0.1,0.9-0.4,1.2
	C49.4,44.6,48.9,44.8,48.4,44.8C48.5,44.8,48.4,44.8,48.4,44.8z"/>
<path class="st0" d="M53.7,44.8c-0.9,0-1.7-0.7-1.7-1.7c0-0.5,0.2-1,0.6-1.3l18.3-15.5c0.3-0.3,0.7-0.4,1.1-0.4c0.5,0,1,0.2,1.3,0.6
	c0.6,0.7,0.5,1.8-0.2,2.4L54.8,44.4C54.5,44.7,54.1,44.8,53.7,44.8v-0.2V44.8z"/>
<path class="st0" d="M51.2,45.2c-1-0.1-1.7-0.9-1.7-1.9l-0.1-25.7c0-1,0.7-1.8,1.7-1.8c0.9,0,1.7,0.8,1.7,1.7l0.1,25.8
	C52.9,44.3,52.2,45.1,51.2,45.2C51.2,45.2,51.2,45.2,51.2,45.2C51.2,45.2,51.2,45.2,51.2,45.2z"/>
<path class="st0" d="M41,69.9c-0.9,0-1.7-0.8-1.7-1.7V54.4c0-0.9,0.8-1.7,1.7-1.7h20.5c0.9,0,1.7,0.8,1.7,1.7v13.8
	c0,0.9-0.8,1.7-1.7,1.7C61.5,69.9,41,69.9,41,69.9z M59.8,66.5V56.1H42.7v10.4H59.8z"/>
<path class="st0" d="M1.3,120.2c-0.9,0-1.7-0.8-1.7-1.7s0.8-1.7,1.7-1.7h125c0.9,0,1.7,0.8,1.7,1.7s-0.8,1.7-1.7,1.7H1.3z"/>
<path class="st0" d="M15.8,119.7c-0.9,0-1.7-0.8-1.7-1.7v-17.1l-2.7-1.6L8.5,101v17c0,0.9-0.8,1.7-1.7,1.7s-1.7-0.8-1.7-1.7v-17.9
	c0-0.6,0.3-1.2,0.9-1.5l4.6-2.7c0.3-0.2,0.6-0.2,0.9-0.2c0.3,0,0.6,0.1,0.9,0.2l4.4,2.6c0.5,0.3,0.8,0.9,0.8,1.5v18
	C17.5,118.9,16.8,119.7,15.8,119.7C15.9,119.7,15.8,119.7,15.8,119.7z"/>
<path class="st0" d="M25.8,119.7c-0.9,0-1.7-0.8-1.7-1.7v-17.1l-2.7-1.6l-3.8,2.2c-0.3,0.1-0.6,0.2-0.8,0.2c-0.6,0-1.2-0.3-1.5-0.9
	c-0.5-0.8-0.2-1.9,0.6-2.3l4.6-2.7c0.3-0.1,0.6-0.2,0.9-0.2c0.3,0,0.6,0.1,0.8,0.2l4.4,2.6c0.5,0.3,0.8,0.9,0.8,1.5v18
	C27.5,118.9,26.8,119.7,25.8,119.7C25.8,119.7,25.8,119.7,25.8,119.7z"/>
<path class="st0" d="M33.8,119.7c-0.9,0-1.7-0.8-1.7-1.7v-17.1l-2.5-1.5l-3.5,2.1c-0.3,0.1-0.5,0.2-0.8,0.2c-0.6,0-1.2-0.3-1.5-0.9
	c-0.4-0.8-0.2-1.8,0.5-2.2l4.4-2.7c0.3-0.2,0.6-0.3,0.9-0.3c0.3,0,0.6,0.1,0.9,0.3l4.2,2.6c0.5,0.3,0.8,0.9,0.8,1.5v18
	c0,0.5-0.2,0.9-0.5,1.2S34.3,119.7,33.8,119.7C33.8,119.7,33.8,119.7,33.8,119.7z"/>
<path class="st0" d="M67.8,119.7c-0.9,0-1.7-0.8-1.7-1.7V84.2H34.5V91c0,0.9-0.8,1.7-1.7,1.7s-1.7-0.8-1.7-1.7v-8.5
	c0-0.9,0.8-1.7,1.7-1.7h35c0.9,0,1.7,0.8,1.7,1.7V118C69.5,118.9,68.7,119.7,67.8,119.7z"/>
<path class="st0" d="M91.8,119.7c-0.9,0-1.7-0.8-1.7-1.7v-17.1l-2.7-1.6l-2.9,1.7v17c0,0.9-0.8,1.7-1.7,1.7s-1.7-0.8-1.7-1.7v-17.9
	c0-0.6,0.3-1.2,0.8-1.5l4.6-2.7c0.3-0.2,0.6-0.2,0.9-0.2s0.6,0.1,0.9,0.2l4.4,2.6c0.5,0.3,0.8,0.9,0.8,1.5v18c0,0.4-0.2,0.9-0.5,1.2
	C92.7,119.5,92.3,119.7,91.8,119.7C91.9,119.7,91.8,119.7,91.8,119.7z"/>
<path class="st0" d="M100.8,119.7c-0.9,0-1.7-0.8-1.7-1.7v-17.1l-2.4-1.5l-3.4,2.1c-0.3,0.1-0.5,0.2-0.8,0.2c-0.6,0-1.2-0.3-1.5-0.9
	c-0.4-0.8-0.2-1.7,0.5-2.2l4.3-2.7c0.3-0.2,0.6-0.3,0.9-0.3c0.3,0,0.6,0.1,0.9,0.3l4.1,2.6c0.5,0.3,0.8,0.9,0.8,1.4v18
	c0,0.4-0.2,0.9-0.5,1.2C101.7,119.5,101.3,119.7,100.8,119.7C100.8,119.7,100.8,119.7,100.8,119.7z"/>
<path class="st0" d="M118.8,119.7c-0.9,0-1.7-0.8-1.7-1.7v-17.1l-2.4-1.5l-3.5,2.1c-0.3,0.2-0.6,0.3-0.9,0.3c-0.6,0-1.1-0.3-1.5-0.8
	c-0.5-0.8-0.2-1.8,0.6-2.3l4.4-2.7c0.3-0.2,0.6-0.3,0.9-0.3c0.3,0,0.6,0.1,0.9,0.3l4.1,2.6c0.5,0.3,0.8,0.8,0.8,1.4v18
	c0,0.4-0.1,0.9-0.5,1.2S119.3,119.7,118.8,119.7C118.9,119.7,118.8,119.7,118.8,119.7z"/>
<path class="st0" d="M110.8,119.7c-0.9,0-1.7-0.8-1.7-1.7v-17.1l-2.7-1.6l-3.7,2.2c-0.3,0.1-0.6,0.2-0.8,0.2c-0.6,0-1.2-0.3-1.5-0.8
	c-0.1-0.3-0.2-0.5-0.2-0.8l-0.3-22.4c0-0.5,0.2-0.9,0.5-1.2c0.3-0.3,0.7-0.5,1.2-0.5c0.9,0,1.7,0.7,1.7,1.7l0.2,19.5l2.1-1.2
	c0.3-0.2,0.6-0.2,0.9-0.2s0.6,0.1,0.9,0.2l4.4,2.6c0.5,0.3,0.8,0.9,0.8,1.5v18C112.5,118.9,111.8,119.7,110.8,119.7
	C110.9,119.7,110.8,119.7,110.8,119.7z"/>
<path class="st0" d="M101.2,92.4c-0.1,0-0.1,0-0.1-0.1c-2.5-0.2-4.8-1.2-6.6-2.9c-2.6,1.4-5.1,2.1-7.3,2.1c0,0,0,0,0,0
	c-0.8,0-1.5-0.1-2.2-0.3c-2.5-0.7-4.6-2.4-5.7-4.8c-1.8-3.4-2.1-6.5-1.1-9.4c0.9-2.4,2.7-4.4,4.9-5.7c-0.4-3.1,0.3-6.2,2.1-8.7
	c1.5-2,3.7-3.5,6.1-4.2c0.1-2.5,1-5,2.7-6.9c1.8-1.8,4.3-2.9,6.8-2.9c0.2,0,0.3,0,0.5,0h0.5c0.2,0,0.3,0,0.5,0c2.5,0,5,1.1,6.8,2.9
	c1.6,1.9,2.6,4.4,2.6,6.9c2.4,0.7,4.6,2.1,6.1,4.1c1.8,2.6,2.5,5.7,2.1,8.7c2.2,1.3,3.9,3.3,4.9,5.7c1,2.8,0.6,6-1.1,9.4
	c-1.1,2.4-3.2,4.1-5.7,4.8c-0.7,0.2-1.5,0.3-2.3,0.3c-3,0-5.8-1.3-7.3-2.1c-1.8,1.7-4.1,2.7-6.6,3c0,0,0,0,0,0H101.2z M94.8,85.6
	c0.5,0,1,0.2,1.3,0.6c0,0,2.3,2.7,5.1,2.7c0.1,0,0.2,0,0.3,0c2-0.2,3.8-1.2,5.1-2.7c0.3-0.4,0.8-0.6,1.3-0.6c0.3,0,0.6,0.1,0.9,0.3
	c0,0,0.1,0,0.2,0.1c3,1.8,5.2,2.2,6.5,2.2c0.5,0,1-0.1,1.4-0.2c1.6-0.4,2.9-1.5,3.5-3.1c1.3-2.5,1.6-4.7,0.9-6.6
	c-0.8-1.9-2.3-3.5-4.2-4.4c-0.7-0.3-1.1-1.1-1-1.8c0.5-3.1,0.1-5.6-1.3-7.4c-1.3-1.6-3.2-2.7-5.3-3.1c-0.9-0.1-1.5-0.9-1.5-1.8
	c0,0,0.2-3.7-1.7-5.8c-1.2-1.1-2.7-1.7-4.3-1.7c-0.2,0-0.3,0-0.5,0l-0.6,0c-0.2,0-0.3,0-0.4,0c-1.6,0-3.2,0.6-4.3,1.8
	c-2,2.2-1.7,5.8-1.7,5.8c0.1,0.9-0.6,1.7-1.5,1.8c-2.1,0.4-4,1.5-5.3,3.2c-1.3,1.8-1.8,4.3-1.3,7.4c0.1,0.8-0.3,1.5-1,1.8
	c-1.9,0.9-3.4,2.4-4.2,4.3c-0.7,1.9-0.4,4.1,0.9,6.6c0.7,1.5,1.9,2.6,3.5,3c0.5,0.1,1,0.2,1.5,0.2c3,0,6-1.9,6.6-2.2
	C94.1,85.7,94.5,85.6,94.8,85.6C94.8,85.6,94.8,85.6,94.8,85.6z"/>
<path class="st0" d="M87.8,83.7c-0.9,0-1.7-0.8-1.7-1.7v-2c0-0.9,0.8-1.7,1.7-1.7s1.7,0.8,1.7,1.7v2C89.5,82.9,88.7,83.7,87.8,83.7z
	"/>
<path class="st0" d="M109.8,72.7c-0.9,0-1.7-0.8-1.7-1.7v-2c0-0.9,0.8-1.7,1.7-1.7s1.7,0.8,1.7,1.7v2
	C111.5,71.9,110.7,72.7,109.8,72.7z"/>
</svg>
