<?xml version="1.0" encoding="utf-8"?>
<!-- Generator: Adobe Illustrator 19.2.1, SVG Export Plug-In . SVG Version: 6.00 Build 0)  -->
<svg version="1.1" id="Capa_1" xmlns="http://www.w3.org/2000/svg" xmlns:xlink="http://www.w3.org/1999/xlink" x="0px" y="0px"
	 viewBox="0 0 128 128" style="enable-background:new 0 0 128 128;" xml:space="preserve">
<style type="text/css">
	.st0{fill:#00AEEF;}
</style>
<path class="st0" d="M55,119.8c-0.9,0-1.7-0.8-1.7-1.7V51.3c-0.1,0-0.2-0.1-0.3-0.1c-2.5-1.1-8.4-3.8-15.3-3.8v8.9c0,0,0,0.1,0,0.2
	c0,0.1,0,0.1,0,0.2c0,0.1-0.1,0.3-0.1,0.4l-0.2,0.3l-0.1,0.1l-0.1,0.1c0,0-0.1,0.1-0.1,0.1c-0.1,0.1-0.4,0.2-0.5,0.2H36
	c-0.1,0-0.2,0-0.3,0c0,0-0.1,0-0.3-0.1c-5.2-1.3-10.2-3.1-15.1-5.3C6.2,46.2,1.5,37.7,1.3,37.4C1,36.8,1,36.1,1.4,35.5
	c0.3-0.4,0.8-0.6,1.3-0.6c0.1,0,0.3,0,0.4,0.1c1.6,0.3,3.3,0.5,4.9,0.5c4.2,0,8.4-1.1,12.1-3.1c6.1-3.3,7.8-5.6,8.2-6.2V22
	c0,0,0-0.2,0-0.3c0.3-1.7,1-3.3,2.1-4.7c1.4-1.8,4.1-4,9.1-4c0.5,0,1,0,1.5,0.1c9,0.7,11.8,2.1,13.5,3c0.1,0,0.3-0.1,0.4-0.1H61
	c0.9,0,1.7,0.8,1.7,1.7v100.4c0,0.9-0.8,1.7-1.7,1.7H55z M59.3,116.5V51.8h-2.5v64.7H59.3z M34.5,47.7c-2.6,0.8-2.7,2.4-2.7,2.5
	c0,0,0,0.1,0,0.2l0,0.1c0,0.5,0.5,1.5,1.9,2.7c0.3,0.2,0.5,0.4,0.8,0.6V47.7z M6.5,38.8c2.5,2.9,7.3,7.1,15.2,10.6
	c2.3,1,4.7,2,7,2.8c-0.4-1-0.4-1.7-0.3-2.2V35.6c0-0.9,0.8-1.7,1.7-1.7s1.7,0.8,1.7,1.7v9.5c1.5-0.8,3.4-1.2,5.9-1.2
	c6.9,0,12.4,2.3,15.7,3.7v-5.9c0-0.9,0.8-1.7,1.7-1.7c0.9,0,1.7,0.8,1.7,1.7v6.8h2.5v-29h-2.5v14.3c0,0.9-0.8,1.7-1.7,1.7
	s-1.7-0.8-1.7-1.7V19.3c-0.9-0.6-3.3-2-12.6-2.8c-0.4,0-0.8,0-1.2,0c-6.5,0-7.7,4.9-7.8,5.7v7.4c0,0.9-0.8,1.7-1.7,1.7
	c-0.5,0-1-0.2-1.3-0.6c-2.1,1.8-4.5,3.4-7,4.7c-4.2,2.3-9,3.5-13.8,3.5C7.5,38.8,7,38.8,6.5,38.8z M67.9,119.8
	c-0.9,0-1.7-0.7-1.7-1.7V17.8c0-0.9,0.8-1.7,1.7-1.7h5.9c0.2,0,0.3,0,0.5,0.1c1.8-0.9,4.5-2.3,13.5-3c0.5,0,1-0.1,1.4-0.1
	c4.9,0,7.7,2.2,9.1,4c1.1,1.4,1.8,3,2.1,4.7c0,0,0,0.1,0,0.1v4.2c0.4,0.6,2.1,2.9,8.2,6.2c3.7,2,7.9,3.1,12.1,3.1
	c1.7,0,3.3-0.2,5-0.5c0.1,0,0.2,0,0.4,0c0.5,0,1,0.2,1.3,0.6c0,0,0.1,0.1,0.1,0.2c0.3,0.5,0.2,1.1-0.1,1.6c-0.2,0.3-4.8,8.7-19,15.1
	c-4.8,2.1-9.8,3.9-14.9,5.2c-0.4,0.1-0.7,0.2-0.8,0.2h-0.5c-0.2,0-0.4,0-0.5-0.1c0,0-0.2-0.1-0.2-0.1l-0.1-0.1c0,0-0.1-0.1-0.1-0.2
	L91.2,57l-0.1-0.2c-0.1-0.1-0.1-0.2-0.1-0.3c0-0.1,0-0.1,0-0.2c0-0.1,0-0.2,0-0.3l0-8.8c-6.8,0-12.7,2.7-15.2,3.8
	c-0.1,0-0.2,0.1-0.3,0.1v66.9c0,0.9-0.8,1.7-1.7,1.7C73.8,119.8,67.9,119.8,67.9,119.8z M72.1,116.4V51.8h-2.5v64.6H72.1z
	 M94.4,53.7c0.3-0.2,0.6-0.4,0.9-0.6c1.9-1.6,1.9-2.5,1.9-2.5c0-0.1,0-0.1,0-0.1c0,0,0-0.2,0-0.2c0-0.3-0.3-1.8-2.7-2.5V53.7z
	 M100.4,50c0.1,0.4,0.1,1.2-0.3,2.2c2.4-0.8,4.7-1.8,7-2.8c0,0,0.1,0,0.1,0c7.8-3.5,12.5-7.7,15.1-10.6c-0.5,0-1,0-1.5,0
	c-4.8,0-9.6-1.2-13.8-3.5c-2.5-1.3-4.9-2.8-7-4.7c-0.3,0.4-0.8,0.6-1.3,0.6c-0.9,0-1.7-0.8-1.7-1.7v-7.4c-0.1-0.8-1.2-5.7-7.8-5.7
	c-0.4,0-0.8,0-1.2,0.1c-9.3,0.8-11.7,2.2-12.6,2.8v2.3c0,0.9-0.8,1.7-1.7,1.7c-0.9,0-1.7-0.8-1.7-1.7v-2.1h-2.5v29h2.5V26.9
	c0-0.9,0.8-1.7,1.7-1.7c0.9,0,1.7,0.8,1.7,1.7v20.7c3.3-1.4,8.8-3.7,15.7-3.7c2.4,0,4.4,0.4,5.9,1.2v-5.2c0-0.9,0.8-1.7,1.7-1.7
	c0,0,0,0,0,0c0.9,0,1.7,0.8,1.7,1.7V50z"/>
</svg>
