<?xml version="1.0" encoding="utf-8"?>
<!-- Generator: Adobe Illustrator 19.2.1, SVG Export Plug-In . SVG Version: 6.00 Build 0)  -->
<svg version="1.1" id="Layer_1" xmlns="http://www.w3.org/2000/svg" xmlns:xlink="http://www.w3.org/1999/xlink" x="0px" y="0px"
	 viewBox="0 0 128 128" style="enable-background:new 0 0 128 128;" xml:space="preserve">
<style type="text/css">
	.st0{fill:#00AEEF;}
</style>
<g id="Capa_1">
	<path class="st0" d="M94.6,81c-8.5,0-15.7-6.8-16.3-15.3c-3.3-1.2-4.9-2.9-4.6-4.8c0,0,0-0.1,0-0.1c0.3-0.9,0.9-1.7,1.7-2.1
		c-0.7-1.2-0.8-2.5-0.2-3.5c0-0.1,0.1-0.1,0.1-0.2c0.7-0.8,1.6-1.3,2.5-1.3c0.1,0,0.2,0,0.4,0c1.8,0.1,3.5,0.7,4.9,1.7
		c0.4,0.2,0.8,0.5,1.2,0.8h13.3c1.9-7.9,7.1-13.1,13.1-13.1h0.6c3.3,0,6.1,2.1,7.1,5.3c0.4,0.3,1,0.7,1.5,1.1
		c0.5,0.3,0.8,0.9,0.8,1.6c0,0.8-0.6,1.4-1.4,1.5l-1.8,0.4c-0.7,0.7-1.7,1.2-2.8,1.2h-1.3c-0.3,0.6-0.5,1.3-0.5,1.9v8.6
		c0,9-7.3,16.3-16.3,16.3H94.6z M77.4,61.5c0.5,0.4,1.4,0.9,3,1.4c0.8,0.3,1.2,0.8,1.2,1.6v0.2c0,7.2,5.7,12.9,13,13h2.1
		c7.1,0,12.9-5.8,12.9-12.9v-8.6c0-1.8,0.7-3.5,1.9-4.7c0.3-0.3,0.8-0.5,1.2-0.5h2.1c0.1,0,0.3-0.1,0.4-0.3c0-0.1,0.1-0.1,0.2-0.2
		c0,0,0.1-0.1,0.1-0.1c-0.1-0.2-0.1-0.3-0.1-0.5c-0.4-1.9-2.1-3.2-4-3.2h-0.6c-4.7,0-8.9,4.9-10,11.7c-0.1,0.8-0.7,1.4-1.5,1.4H83.8
		c-0.4,0-0.7-0.2-0.9-0.3l-0.1,0c-0.1-0.1-0.2-0.1-0.3-0.2c-0.3-0.3-0.7-0.6-1.2-0.9c-0.8-0.6-1.8-1-2.9-1.2
		c0.2,0.3,0.5,0.7,1.1,1.2c0.7,0.7,0.6,1.3,0.5,1.8c0,0,0,0.1-0.1,0.1c-0.2,0.5-0.7,0.8-1.2,1c-0.1,0-0.1,0-0.2,0
		C78.1,61.4,77.7,61.5,77.4,61.5z"/>
	<path class="st0" d="M114.3,46.8c-0.9,0-1.6-0.7-1.6-1.6c0-1.8-1.3-3.4-2.8-3.4s-2.8,1.6-2.8,3.4c0,0.9-0.7,1.6-1.6,1.6
		c-0.8,0-1.5-0.7-1.6-1.5c-0.3-3.4,2.1-6.4,5.6-6.8c0.2,0,0.4,0,0.7,0c3.2,0,5.8,2.4,6.1,5.6c0,0,0,0.1,0,0.1v1
		c0,0.2-0.1,0.4-0.2,0.6C115.9,46,115.3,46.8,114.3,46.8z"/>
	<path class="st0" d="M95.1,76.9c-4.1,0-7.4-3.3-7.4-7.4c0-0.2,0-0.5,0-0.8c-0.8-0.6-1.5-1.4-1.8-2.4c-0.4-1.2-0.3-2.5,0.3-3.6
		c0.2-0.6,0.7-1.1,1.3-1.6c0.3-0.2,0.7-0.3,1-0.3c0.5,0,1,0.2,1.3,0.7c0.2,0.3,0.3,0.7,0.3,1.1c0,0.5-0.3,0.9-0.6,1.1
		C89.2,64,89,64.4,89,64.8c0,0.7,0.4,1.3,1.1,1.4c0.8,0.3,1.2,1.1,1.2,1.8c0,0.1,0,0.3-0.1,0.4c-0.1,0.3-0.1,0.7-0.1,1.1
		c0,2.3,1.8,4.1,4.1,4.1c2.2,0,4-1.8,4-4.1c0-0.9,0.7-1.6,1.6-1.6c0.9,0,1.6,0.7,1.6,1.6C102.4,73.5,99.1,76.8,95.1,76.9
		C95.1,76.9,95.1,76.9,95.1,76.9z"/>
	<path class="st0" d="M15.4,89.3c-1.7,0-3.5-0.6-4.7-1.7c-0.9,0.3-1.8,0.5-2.9,0.5c-3.6,0-6.4-2.1-6.4-4.7s2.8-4.7,6.4-4.7
		c0.9,0,1.8,0.1,2.6,0.4c1-1.2,2.3-2,3.8-2.4c0.6-0.2,1.3-0.3,2-0.3c1.5,0,3.1,0.5,4.3,1.4c0.4-0.1,0.8-0.1,1.3-0.1c0,0,0.1,0,0.2,0
		c2.4,0,4.5,1.6,5.2,3.8c0.2,0.5,0.3,1.1,0.2,1.7H33c0-2.3-0.2-4.6-0.5-6.9c-2.9-0.2-8.1-0.8-10-2.7c-1.8-1.8-1.6-4.4-1.4-7.5l0-0.2
		c0.1-1.2,0.2-2.5,0.2-3.8c0-0.6,0.3-1,0.5-1.1c0.3-0.3,0.6-0.4,1-0.4c0.4,0,0.9,0.2,1.2,0.5c0,0,0,0.1,0.1,0.1
		c1.5,1.8,3.6,2.8,6.1,2.8c0.1,0,0.2,0,0.4,0c1.3,0,2.5,0.5,3.4,1.4c1.7,1.8,1.6,4.7,1.5,7.3l0,0.4c0,0,0,0.1,0,0.1
		c-0.1,0.5-0.1,1-0.1,1.5c0.4,2.3,0.7,4.8,0.8,7.5c0.1-1.2,0.3-2.4,0.5-3.6c-0.1-0.2-0.1-0.4-0.1-0.5c0-0.3,0-0.6,0-0.9
		c0-0.4-0.1-0.8-0.1-1.1l0-0.5c-0.1-2.3-0.2-4.3,1.5-6.1c1.1-0.9,2.3-1.4,3.5-1.4c0.1,0,0.3,0,0.4,0c2.2,0,4.5-1,6-2.8
		c0.2-0.4,0.7-0.6,1.1-0.6c-0.7-1.5-1.1-3.1-1.1-4.2c0-0.2,0-1.7,0.5-2.1c0.1-0.1,0.5-0.5,1.1-0.5c1.9,0,3.7,0.7,5.5,2v-7.9
		c-0.4,0.3-0.7,0.5-1.2,0.7c-1,0.4-2,0.6-3,0.6c-2.9,0-5.6-1.7-6.7-4.3c-1.4-3.2-0.4-6.8,2.2-8.8c-1-0.7-1.7-1.7-2.2-2.7
		c-1.7-3.7-0.1-7.9,3.6-9.7c1-0.5,2-0.7,3.1-0.7c2.3,0,4.4,1,5.7,2.8c0.8-1,1.7-1.8,2.8-2.2c0.9-0.4,2-0.6,3-0.6
		c2.9,0,5.6,1.7,6.7,4.3c1.4,3.2,0.4,6.8-2.1,8.8c0.6,0.4,1.1,1,1.5,1.6c2.3,3.2,1.4,7.8-1.9,10.2c-1.2,0.9-2.6,1.3-4.2,1.3
		c-1.5,0-3-0.5-4.2-1.3v18c1.7-1.3,3.5-1.9,5.3-1.9c0.4,0,0.9,0.2,1.1,0.5c0.1,0.2,0.5,0.5,0.5,1.1c-0.1,3.1-1.7,8.8-6.9,9.6V83
		h68.4c0.1,0,0.2,0,0.2,0c0.9,0.2,1.4,1,1.3,2c-0.1,0.8-0.8,1.5-1.6,1.5H25.9c-0.8,1-1.9,1.6-3.2,2c-0.6,0.1-1.1,0.2-1.7,0.2
		c-0.6,0-1.2-0.1-1.8-0.3c-0.6,0.3-1.2,0.5-1.8,0.7c0,0-0.1,0-0.1,0C16.7,89.2,16.1,89.3,15.4,89.3z M16.5,79.4
		c-0.4,0-0.8,0.1-1.3,0.2c-1.1,0.3-2.1,1.1-2.6,2c-0.3,0.5-0.5,1-0.5,1.5c0,0.2,0,0.4,0,0.6c0.1,0.3,0.2,0.6,0.4,0.7
		c0,0,0.1,0.1,0.1,0.1c0.7,0.9,1.7,1.4,3,1.4c0.4,0,0.8-0.1,1.2-0.2c0.5-0.2,1-0.4,1.5-0.8c1.2-0.7,1.9-2,1.6-3.4
		c-0.1-0.4-0.4-0.8-0.6-1.1C18.5,79.8,17.5,79.4,16.5,79.4z M22.8,84.2c0,0.3-0.1,0.4-0.2,0.6c0,0,0,0.1-0.1,0.1
		c0.6-0.3,1.1-0.7,1.5-1.2c0.4-0.5,0.5-1.2,0.5-1.7c-0.3-0.7-0.9-1.2-1.6-1.4c0,0.1,0.1,0.3,0.1,0.4c0,0,0,0.1,0,0.2
		c0,0.2,0.1,0.4,0.1,0.5v1c0,0.2,0,0.6-0.2,1C22.8,84,22.8,84.1,22.8,84.2z M8,81.5c-1.9,0-3.3,1-3.3,1.6c0,0.6,1.4,1.6,3.3,1.6
		c0.4,0,0.8-0.1,1.2-0.2c-0.1-0.1-0.1-0.3-0.1-0.4c0-0.1,0-0.2,0-0.3C9,83.6,9,83.4,9,83.2v-0.9c0-0.2,0-0.3,0.1-0.4
		c0-0.1,0-0.2,0-0.3C8.7,81.5,8.4,81.5,8,81.5z M55,83.1V69c-1.8-0.2-3.2-1-4.3-2c0,1,0.1,2,0.2,3c0.3,3.1,0.4,5.9-1.4,7.8
		c-1.6,1.6-5.5,1.8-9.2,1.8c-0.2,0-0.5,0-0.7,0c-0.2,1.2-0.3,2.3-0.4,3.5H55z M42.2,71.9c0.2,0,0.3,0,0.5,0c0.1,0,0.1,0,0.2,0
		c0.7,0.2,1.1,0.8,1.1,1.5c0,0.1,0,0.2,0,0.3C43.7,74.5,43,75,42.3,75c0,0-1,0.3-1.7,1.2c0.4,0,0.8,0,1.2,0c1.8-0.1,4.9-0.2,5.5-0.7
		c0.8-0.8,0.7-2.7,0.5-5l0-0.3c0-0.2-0.1-0.5-0.1-0.7C46,70.4,43.9,71,41.8,71c0,0-0.1,0-0.1,0c-0.1,0-0.1,0-0.2,0
		c-0.5,0-0.9,0.2-1.3,0.5c-0.3,0.3-0.4,0.8-0.5,1.5c0.2-0.2,0.4-0.3,0.4-0.3C40.7,72.1,41.4,71.9,42.2,71.9z M58.9,73.3
		c-0.1,0.4-0.3,1.6-0.4,2.4c1.5-0.8,2.4-2.8,2.9-4.3c-0.8,0.4-1.6,1.1-2.3,1.7L58.9,73.3z M24.3,65.2c0,0.3,0,0.6-0.1,0.8l0,0.2
		c-0.2,2.3-0.3,4.3,0.5,5.1c0.7,0.8,4.1,1.5,7.2,1.8c-0.3-0.7-1-1.1-1.9-1.6c-0.3-0.1-0.5-0.2-0.7-0.4l-1.7-0.8
		c-0.3-0.1-0.5-0.3-0.5-0.6c-0.3-0.8,0.2-1.7,1-2c0.1,0,0.1,0,0.2,0c0.2,0,0.3,0,0.5,0c0.9,0,1.7,0.3,2.3,0.9
		c0.3,0.2,0.6,0.3,0.9,0.5c0.1,0,0.2,0.1,0.3,0.1c-0.1-0.7-0.2-1.5-0.6-1.8c-0.3-0.3-0.8-0.5-1.2-0.5c-0.1,0-0.1,0-0.2,0
		c0,0-0.1,0-0.1,0C28.2,66.9,26.1,66.3,24.3,65.2z M51.4,61.2c0.3,1.5,1.1,3.8,3.1,4.5c-0.1-0.8-0.3-2.1-0.4-2.6L53.8,63
		C53.1,62.4,52.2,61.6,51.4,61.2z M50.9,41.7c-2.4,0-4.2,1.8-4.2,4.2c0,2.4,1.8,4.2,4.2,4.2c0.9,0,1.9-0.3,2.7-0.9
		c0.8-0.6,1.3-1.7,1.4-2.8c0.1-0.7,0-1.4-0.3-2.1L52,47.1c-0.3,0.3-0.7,0.5-1.1,0.5s-0.8-0.2-1.1-0.4c-0.3-0.3-0.4-0.7-0.4-1.1
		c0-0.4,0.2-0.8,0.4-1.1l2.8-2.8C52,41.8,51.5,41.7,50.9,41.7z M58.4,44.4c-0.2,0.5-0.3,1-0.3,1.4c0,2.4,1.8,4.2,4.2,4.2
		c2.4,0,4.2-1.8,4.2-4.2c0-2.3-1.9-4.2-4.3-4.3c-0.6,0-1.2,0.2-1.8,0.4l2.9,2.9c0.6,0.6,0.6,1.6,0,2.2c-0.1,0.1-0.5,0.5-1.1,0.5
		c-0.6,0-1-0.3-1.1-0.5L58.4,44.4z M55.4,40c0.5,0.4,0.9,0.8,1.3,1.3c0.1-0.2,0.3-0.4,0.5-0.5c0.2-0.2,0.5-0.5,0.8-0.7
		c-0.3-0.2-0.5-0.4-0.8-0.7c-0.2-0.2-0.4-0.4-0.6-0.7c-0.2,0.2-0.4,0.5-0.6,0.7C55.8,39.6,55.6,39.8,55.4,40z M50.8,30.1
		c-2.4,0-4.2,1.8-4.2,4.2c0,2.3,1.9,4.2,4.1,4.3c0.6,0,1.2-0.1,1.7-0.4l-2.8-2.8c-0.3-0.3-0.4-0.6-0.4-1c0-0.4,0.2-0.8,0.4-1.1
		c0.3-0.3,0.8-0.5,1.2-0.5c0.4,0,0.7,0.1,1,0.4l2.7,2.8c0.2-0.5,0.4-1.1,0.4-1.7C55,31.9,53.1,30.1,50.8,30.1z M60.7,38.2
		c0.5,0.2,1,0.3,1.6,0.3c2.4,0,4.2-1.8,4.2-4.2c0-2.4-1.8-4.2-4.2-4.2c-0.9,0-1.9,0.4-2.5,0.9c-1.5,1.2-1.9,3.3-1.2,4.9l2.7-2.8
		c0.3-0.3,0.7-0.5,1.1-0.5s0.8,0.2,1.1,0.4c0.6,0.6,0.6,1.6,0,2.2L60.7,38.2z"/>
	<path class="st0" d="M91.6,84.8c-0.4,0-0.8-0.4-0.8-0.8v-4.8c0-0.4,0.4-0.8,0.8-0.8h1.8c0.4,0,0.8,0.4,0.8,0.8V84
		c0,0.4-0.4,0.8-0.8,0.8H91.6z"/>
	<path class="st0" d="M99.4,84.8c-0.4,0-0.8-0.4-0.8-0.8v-4.8c0-0.4,0.4-0.8,0.8-0.8h1.8c0.4,0,0.8,0.4,0.8,0.8V84
		c0,0.4-0.4,0.8-0.8,0.8H99.4z"/>
	<circle class="st0" cx="112.1" cy="48.6" r="1.3"/>
</g>
</svg>
