<?xml version="1.0" encoding="utf-8"?>
<!-- Generator: Adobe Illustrator 19.2.1, SVG Export Plug-In . SVG Version: 6.00 Build 0)  -->
<svg version="1.1" id="Layer_1" xmlns="http://www.w3.org/2000/svg" xmlns:xlink="http://www.w3.org/1999/xlink" x="0px" y="0px"
	 viewBox="0 0 256 256" style="enable-background:new 0 0 256 256;" xml:space="preserve">
<style type="text/css">
	.st0{fill:#00AEEF;stroke:#00AEEF;stroke-width:3;stroke-miterlimit:10;}
	.st1{fill:#00AEEF;}
</style>
<g id="Layer_14">
	<g>
		<g>
			<path class="st0" d="M67.6,169.8c0-1.2-0.9-2-2-2H28.2c-1,0-2,0.9-2,2v1h-7v10.5h7v0.3c0,1,0.9,2,2,2h10.4v3.2c0,4.4-3.6,8-7.8,8
				c-1,0-1.9,0.7-2,1.7c-0.2,1.2,0.7,2.4,2,2.4c6.6,0,11.9-5.4,11.9-11.9v-3.2h5.1v21.3H30.1c-6.6,0-12.1,5.4-12.1,12.1v35.9
				c0,1,0.9,2,2,2h47.3c0.2,0,0.3-0.2,0.3-0.3L67.6,169.8z M30.3,179.6v-7.8h33.2v23.8H51.7v-13.9c0-1-0.9-2-2-2H30.3L30.3,179.6z
				 M30.1,208.9h19.8c1,0,2-0.9,2-2v-7.3h11.7v24.2h-0.2c-2.7,4.4-7.2,11.7-19.6,4.6c-11.4-6.6-18.4-4.6-21.8-2.6v-8.8
				C21.9,212.5,25.5,208.9,30.1,208.9z M21.9,250.7v-20.2c0.2-0.2,0.3-0.2,0.5-0.3c0.2-0.3,5.6-6.5,19.2,1.4c4.4,2.6,8,3.6,11.1,3.6
				c4.9,0,8.3-2.4,10.7-5.1v20.6L21.9,250.7L21.9,250.7z"/>
		</g>
		<g>
			<path class="st1" d="M246,168.7c0-0.3-0.2-0.5-0.2-0.7c0-0.2,0.2-0.2,0.2-0.3c0-25.2-20.8-45.6-46.3-45.6c-24,0-43.4,18-45.8,41
				c-3.4-4.3-8.2-7.1-13.6-7.1h-11.4V13.8c0-8.2-5.3-13.8-13.1-13.8c-7.8,0-13.1,5.4-13.1,13.8V156c0,0-9.7-0.5-15,0.2
				c-2.7,0.3-5.1,1.2-8.5,4.1c-2,1.7-7,9.2-7,13.9l0.2,29.4V256c0.2,0,3.9,0,4.1,0h78.7c1.9,0,3.4-1.5,3.4-3.4v-54.8l9.4,55.3
				c0.3,1.5,1.7,2.7,3.2,2.7h56.4c1.5,0,3.1-1.2,3.2-2.7l15-81.1c0.2-0.7-0.2-1.2-0.3-1.7C245.5,169.9,246,169.4,246,168.7z
				 M115.6,6.8c2.4,0,6.5,0.9,6.5,7v106h-12.9v-106C109.1,7.8,113.2,6.8,115.6,6.8z M109.1,126.6H122V156h-12.9L109.1,126.6
				L109.1,126.6z M151.7,249.2h-12.8v-34.4c0-1.9-1.5-3.4-3.4-3.4s-3.4,1.5-3.4,3.4v34.4H119v-34.4c0-1.9-1.5-3.4-3.4-3.4
				c-1.9,0-3.4,1.5-3.4,3.4v34.4H99.1v-34.4c0-1.9-1.5-3.4-3.4-3.4c-1.9,0-3.4,1.5-3.4,3.4v34.4H79.5v-73.1
				c0-7.5,5.1-13.4,11.4-13.4h11.4h26.4h11.4c6.3,0,11.4,6,11.4,13.4v73.1H151.7z M234.1,198L234.1,198c-2.6,4.6-6.6,12.1-13.8,13.9
				c-4.9,1.2-11.1-0.5-18.2-5.1c-18.9-12.6-30.6-8.7-36.4-4.8l-4.3-24.5c9.9,4.3,26.4,5.8,37.8,5.8c11.6,0,28.6-1.5,38.5-6
				L234.1,198z M239.2,168.7c-0.7,2.2-13.5,8-39.7,8c-26.2,0-39-5.8-39.7-7.8c0.7-2.2,13.5-8,39.7-8
				C225.7,160.9,238.5,166.5,239.2,168.7z M199.5,128.8c19.2,0,35.2,13.6,38.8,31.6c-9.7-4.6-26.9-6.1-38.8-6.1
				c-11.7,0-29.1,1.5-38.8,6.1C164.3,142.4,180.3,128.8,199.5,128.8z M224.7,249.2H174l-6.8-39.5c0.5-0.7,9.2-12.1,31.3,2.7
				c6.6,4.4,12.9,6.6,18.6,6.6c1.7,0,3.4-0.2,4.9-0.7c3.7-1,6.8-3.1,9.4-5.4L224.7,249.2z"/>
		</g>
	</g>
</g>
</svg>
