<?xml version="1.0" encoding="utf-8"?>
<!-- Generator: Adobe Illustrator 19.2.1, SVG Export Plug-In . SVG Version: 6.00 Build 0)  -->
<svg version="1.1" id="Layer_1" xmlns="http://www.w3.org/2000/svg" xmlns:xlink="http://www.w3.org/1999/xlink" x="0px" y="0px"
	 viewBox="0 0 256 256" style="enable-background:new 0 0 256 256;" xml:space="preserve">
<style type="text/css">
	.st0{fill:#00AEEF;}
</style>
<path class="st0" d="M3,245c-1.7,0-3-1.3-3-3s1.3-3,3-3h4.6c0.9,0,1.4-0.8,1.4-1.7v-31.3c0-1.1,0.7-2,1.8-2.7l9.5-5.5
	c0.5-0.3,1.1-0.5,1.6-0.5c0.5,0,1.1,0.2,1.6,0.4l7.1,4.1c0.2,0.1,0.5,0.2,0.8,0.2c0.3,0,0.6-0.1,0.8-0.2l7-4.1
	c0.5-0.3,1.1-0.5,1.6-0.5s1.1,0.2,1.5,0.4l7.1,4.1c0.3,0.1,0.5,0.2,0.8,0.2c0.3,0,0.6-0.1,0.8-0.2l7-4.1c0.5-0.3,1.1-0.5,1.6-0.5
	c0.5,0,1.1,0.2,1.5,0.4l9.4,5.6c1,0.6,1.5,1.6,1.5,2.7v31.3c0,0.9,1,1.7,1.9,1.7h59.2c0.9,0,1.9-0.8,1.9-1.7v-66
	c0-0.9-1-1.3-1.9-1.3H71.7c-0.9,0-1.7,0.4-1.7,1.3v12.9c0,1.7-1.3,3-3,3c-1.7,0-3-1.3-3-3v-17.6c0-1.7,1.3-2.7,3-2.7h70.9
	c1.7,0,3.1,1,3.1,2.7v70.7c0,0.9,0.6,1.7,1.5,1.7h21.8c0.9,0,1.6-0.8,1.6-1.7v-31.3c0-1.1,0.6-2,1.6-2.7l9.4-5.5
	c0.5-0.3,1-0.5,1.6-0.5s1.1,0.2,1.5,0.4l7.1,4.1c0.3,0.1,0.5,0.2,0.8,0.2c0.3,0,0.6-0.1,0.8-0.2l7-4.1c0.5-0.3,1.1-0.5,1.6-0.5
	c0.5,0,1.1,0.2,1.5,0.4c0,0,0.1,0,0.1,0.1l2.4,1.3c0.2,0.1,0.5,0.2,0.8,0.2c0.3,0,0.6-0.1,0.9-0.2c0.5-0.3,0.8-0.8,0.8-1.4v-9.1
	c0-0.8-0.6-1.4-1.3-1.6c-3-0.7-6-2-8.7-4c-0.3-0.2-0.6-0.3-1-0.3c-0.4,0-0.7,0.1-1,0.4c-3.6,2.9-8.1,4.4-12.9,4.4
	c-11.6,0-21-9.4-21-20.9c0-7.6,4.1-14.6,10.6-18.2c0.6-0.4,1-1.1,0.8-1.8c-0.3-1.3-0.3-2.6-0.3-4c0-9.5,6.4-17.8,15.4-20.3
	c0.7-0.2,1.2-0.8,1.2-1.5c0.5-11.3,9.7-20.1,21-20.1c11.2,0,20.4,8.8,21,20.1c0,0.7,0.5,1.3,1.2,1.5c9.1,2.4,15.4,10.8,15.4,20.3
	c0,1.4-0.2,2.8-0.4,4.2c-0.1,0.7,0.2,1.3,0.8,1.6c6.6,3.6,10.6,10.6,10.6,18.2c0,11.5-9.4,20.9-20.9,20.9c-4.8,0-9.3-1.5-12.9-4.4
	c-0.3-0.2-0.7-0.4-1-0.4c-0.3,0-0.7,0.1-1,0.3c-2.7,2-5.6,3.3-8.6,4c-0.7,0.2-1.2,0.8-1.2,1.6v9.1c0,0.6,0.3,1.1,0.8,1.4
	c0.3,0.2,0.5,0.2,0.8,0.2c0.3,0,0.5-0.1,0.8-0.2l2.4-1.3c0,0,0.1,0,0.1-0.1c0.5-0.3,1-0.4,1.5-0.4s1.1,0.2,1.5,0.4l7.1,4.1
	c0.3,0.1,0.5,0.2,0.8,0.2c0.3,0,0.6-0.1,0.8-0.2l7-4.1c0.5-0.3,1.1-0.5,1.6-0.5c0.5,0,1.1,0.2,1.5,0.4l9.6,5.6
	c1,0.6,1.7,1.6,1.7,2.7v31.3c0,0.9,0.6,1.7,1.5,1.7h4.6c0.5,0,1.9,1.2,1.9,3c0,1.7-1.3,3-3,3H3z M234.3,204.5
	c-0.3,0-0.6,0.1-0.8,0.2l-4.7,2.8c-0.5,0.3-0.8,0.8-0.8,1.4v28.5c0,0.9,0.8,1.7,1.7,1.7h9.4c0.9,0,1.9-0.8,1.9-1.7v-28.5
	c0-0.8-0.7-1.4-1.4-1.6l-4.4-2.6C234.9,204.5,234.6,204.5,234.3,204.5z M215.6,204.5c-0.3,0-0.6,0.1-0.8,0.2l-4.8,2.8
	c-0.5,0.3-1,0.8-1,1.4v28.5c0,0.9,1.1,1.7,2,1.7h9.4c0.4,0,0.8-0.2,1.2-0.5c0.3-0.3,0.5-0.7,0.5-1.2l-0.2-28.5
	c0-0.6-0.3-1.1-0.8-1.4l-4.6-2.8C216.2,204.5,215.9,204.5,215.6,204.5z M196.9,204.5c-0.3,0-0.6,0.1-0.8,0.2l-4.5,2.8
	c-0.5,0.3-0.6,0.8-0.6,1.4v28.5c0,0.9,0.4,1.7,1.3,1.7h9.4c0.4,0,0.8-0.2,1.2-0.5c0.3-0.3,0.5-0.7,0.5-1.2l-0.2-28.5
	c0-0.6-0.3-1.1-0.8-1.4l-4.6-2.8C197.5,204.5,197.2,204.5,196.9,204.5z M178,204.5c-0.3,0-0.6,0.1-0.8,0.2l-4.5,2.8
	c-0.5,0.3-0.7,0.8-0.7,1.4v28.5c0,0.9,0.5,1.7,1.4,1.7h9.4c0.9,0,2.1-0.8,2.1-1.7v-28.5c0-0.8-0.8-1.4-1.6-1.6l-4.4-2.6
	C178.8,204.5,178.3,204.5,178,204.5z M59.4,204.5c-0.3,0-0.6,0.1-0.8,0.2l-4.7,2.8c-0.5,0.3-0.9,0.8-0.9,1.4v28.5
	c0,0.9,0.9,1.7,1.8,1.7h9.4c0.9,0,1.7-0.8,1.7-1.7v-28.5c0-0.8-0.6-1.4-1.4-1.6l-4.3-2.6C60,204.5,59.7,204.5,59.4,204.5z
	 M40.8,204.5c-0.3,0-0.6,0.1-0.8,0.2l-4.4,2.8c-0.5,0.3-0.5,0.8-0.5,1.4v28.5c0,0.9,0.2,1.7,1.1,1.7h9.4c0.9,0,1.4-0.8,1.4-1.7
	v-28.5c0-0.8-0.5-1.4-1.2-1.6l-4.3-2.6C41.3,204.5,41,204.5,40.8,204.5z M22.1,204.5c-0.3,0-0.6,0.1-0.8,0.2l-5,2.8
	c-0.5,0.3-1.2,0.8-1.2,1.4v28.5c0,0.9,1.5,1.7,2.4,1.7h9.4c0.9,0,2.1-0.8,2.1-1.7v-28.5c0-0.8-0.8-1.4-1.6-1.6l-4.4-2.6
	C22.8,204.5,22.3,204.5,22.1,204.5z M220.1,175c1,0,1.9,0.4,2.5,1.1c2.8,3.4,7,5.4,11.4,5.4c8.1,0,14.8-6.6,14.8-14.8
	c0-6.4-4.2-12.1-10.4-14.1c-0.8-0.2-1.4-0.8-1.8-1.7c-0.4-0.8-0.4-1.8,0-2.6c0.8-1.9,1.2-3.8,1.2-5.8c0-7.9-6.2-14.3-14.1-14.8
	c-0.8,0-1.7-0.4-2.4-1.1c-0.5-0.6-0.7-1.4-0.5-2.3c0.2-0.9,0.2-1.8,0.2-2.5c0-8.1-6.6-14.8-14.8-14.8c-8.1,0-14.8,6.6-14.8,14.8
	c0,0.8,0,1.6,0.2,2.5c0.1,1-0.3,1.9-0.6,2.4c-0.6,0.7-1.3,1-2.2,1c-8,0.4-14.2,6.9-14.2,14.8c0,2,0.4,3.9,1.2,5.8
	c0.4,0.9,0.4,1.7,0,2.6c-0.3,0.6-1,1.3-1.9,1.7c-6,1.9-10.2,7.7-10.2,14.1c0,8.1,6.6,14.8,14.8,14.8c4.5,0,8.6-2,11.4-5.4
	c0.6-0.7,1.4-1.1,2.4-1.1c1,0,1.9,0.4,2.4,1.1c1.6,2,3.6,3.5,6.2,4.5c0.2,0.1,0.4,0.1,0.6,0.1c0.3,0,0.5-0.1,0.8-0.3
	c0.4-0.3,0.6-0.8,0.6-1.4v-17c0-1.7,1.4-3,3.1-3c0,0,0.1,0,0.2,0c0.1,0,0.1,0,0.1,0c1.5,0,2.6,1.4,2.6,3v17c0,0.5,0.3,1,0.8,1.3
	c0.3,0.2,0.7,0.3,1,0.3c0.2,0,0.4,0,0.5-0.1c2.4-0.8,4.5-2.3,6.3-4.6C218.2,175.3,219,175,220.1,175z M18.1,187.6
	c-1.7,0-3.1-1.3-3.1-3.2V65.9c0-0.9,1.1-1.9,2-2.6l83.1-53.2c0.4-0.3,1.1-0.4,1.7-0.4c0.6,0,1.2,0.2,1.7,0.4l82.9,53.4
	c0.1,0,0.2,0.1,0.2,0.1c1.2,0.6,1.4,1.8,1.4,2.4v26.5c0,1.7-1.3,3-3,3s-3-1.3-3-3V68.7c0-0.6-0.3-1.1-0.8-1.4l-78.3-50.5
	c-0.3-0.2-0.6-0.3-0.9-0.3c-0.3,0-0.6,0.1-0.9,0.3L22.3,67.3c-0.5,0.3-1.3,0.8-1.3,1.4v116C21,186.3,19.8,187.6,18.1,187.6z
	 M179,170.6c-1.7,0-3-1.3-3-3v-1.1c0-1.7,1.3-3,3-3s3,1.3,3,3v1.1C182,169.3,180.7,170.6,179,170.6z M222,147.5c-1.7,0-3-1.3-3-3
	v-1.1c0-1.7,1.3-3,3-3s3,1.3,3,3v1.1C225,146.2,223.7,147.5,222,147.5z M81.3,144c-1.7,0-3.3-1.5-3.3-3.2v-28.9
	c0-1.7,1.6-2.9,3.3-2.9h41.6c1.7,0,3.1,1.3,3.1,2.9v28.9c0,1.7-1.4,3.2-3.1,3.2H81.3z M120,116.6c0-0.9-0.7-1.6-1.6-1.6H85.8
	c-0.9,0-1.8,0.7-1.8,1.6v18.8c0,0.9,0.9,1.6,1.8,1.6h32.7c0.9,0,1.6-0.7,1.6-1.6V116.6z M40.6,90c-1.7,0-3-1.3-3-3c0-1.7,1.3-3,3-3
	h41.1c0.7,0,1.3-0.2,1.5-0.8c0.2-0.6,0.1-1.2-0.5-1.7L60.5,62.2c-0.7-0.5-1-1.2-1.1-2c-0.1-0.8,0.2-1.6,0.8-2.3
	c0.6-0.7,1.4-1.1,2.3-1.1c0.8,0,1.5,0.3,2.1,0.9L95,83.9c0.3,0.3,0.7,0.1,1.1,0.1h1.5c0.9,0,1.4-0.2,1.4-1.1V40.7c0-1.7,1.3-3,3-3
	c1.7,0,3,1.3,3,3v42.2c0,0.9,0.9,1.1,1.8,1.1h1.5c0.4,0,0.8,0.1,1.1-0.1l30.3-26.3c0.6-0.5,1.3-0.7,2.1-0.7c0.9,0,1.7,0.4,2.3,1
	c1.1,1.3,1,3.3-0.3,4.4l-22.2,19.4c-0.5,0.4-0.7,0.9-0.5,1.5c0.2,0.6,0.8,0.8,1.5,0.8h41.1c1.7,0,3,1.3,3,3c0,1.7-1.3,3-3,3H40.6z"
	/>
</svg>
