<?xml version="1.0" encoding="utf-8"?>
<!-- Generator: Adobe Illustrator 19.2.1, SVG Export Plug-In . SVG Version: 6.00 Build 0)  -->
<svg version="1.1" id="Layer_1" xmlns="http://www.w3.org/2000/svg" xmlns:xlink="http://www.w3.org/1999/xlink" x="0px" y="0px"
	 viewBox="0 0 256 256" style="enable-background:new 0 0 256 256;" xml:space="preserve">
<style type="text/css">
	.st0{fill:#00AEEF;}
	.st1{fill:#00AEEF;stroke:#00AEEF;stroke-width:3;stroke-miterlimit:10;}
	.st2{fill:#00AEEF;stroke:#00AEEF;stroke-width:2;stroke-miterlimit:10;}
</style>
<g>
	<g>
		<path class="st0" d="M162.5,122c0.2-2-1.3-3.7-3.3-3.7c-2-0.2-3.7,1.3-3.7,3.3l-1.1,15l-12.1-5.7c-1.8-0.7-3.8,0-4.8,1.6
			c-0.9,1.8,0,3.8,1.6,4.6l16.8,7.9c0.5,0.2,0.9,0.4,1.5,0.4s1.3-0.2,1.8-0.5c0.9-0.5,1.6-1.6,1.6-2.7l0.9-12.6
			c9.9,3.3,35.3,13.9,49,52.5c0.7,2.4,8,2.4,7.1-0.2c-16.1-44.5-46-56.4-55.5-59.5L162.5,122z M45.4,182
			c13.5-38.8,39.1-49.2,49-52.5l0.9,12.6c0,1.1,0.7,2.2,1.6,2.7c0.5,0.4,1.1,0.5,1.8,0.5c0.5,0,1.1-0.2,1.5-0.4l16.8-7.9
			c1.8-0.9,2.6-2.9,1.6-4.6c-0.9-1.8-2.9-2.6-4.8-1.6l-12.1,5.7l-1.1-15c-0.2-1.8-1.6-3.5-3.7-3.3c-2,0.2-3.5,1.8-3.3,3.7v0.4
			c-9.5,3.1-39.5,15-55.5,59.5C37.1,184.6,44.4,184.4,45.4,182z M145.1,162.4c0-2.2-1.8-4-4-4s-4,1.8-4,4s1.8,4,4,4
			S145.1,164.6,145.1,162.4z M118.1,162.4c0-2.2-1.8-4-4-4s-4,1.8-4,4s1.8,4,4,4C116.2,166.3,118.1,164.6,118.1,162.4z M118.3,183.1
			h18.6c1.8,0,3.5-1.5,3.5-3.3c0-1.8-1.5-3.3-3.5-3.3h-6v-27.6h6c1.8,0,3.5-1.5,3.5-3.3s-1.5-3.3-3.5-3.3h-6v-2.2
			c0-1.8-1.5-3.3-3.5-3.3c-1.8,0-3.5,1.5-3.5,3.3v2.2h-6c-1.8,0-3.5,1.5-3.5,3.3s1.5,3.3,3.5,3.3h6v27.6h-6c-1.8,0-3.5,1.5-3.5,3.3
			C115,181.7,116.4,183.1,118.3,183.1z M128.1,75.2v16.1h-7.3c-1.8,0-3.5,1.5-3.5,3.3s1.5,3.3,3.5,3.3h10.8c1.8,0,3.5-1.5,3.5-3.3
			V75c0-1.8-1.5-3.3-3.5-3.3C129.6,71.9,128.1,73.3,128.1,75.2z M255.6,246.1l-33.3-58.2c-0.2-1.6-5.3-2.7-5.3-2.7l-180.9,0.5
			c0,0-2.9,0-4,1.3c-1.8,2.2-9.1,16.3-20.3,37.3c-4.8,9.1-9.3,17.9-11.5,21.8c-0.5,1.1-0.5,2.4,0,3.3c0.5,1.1,1.8,1.6,2.9,1.6h248.8
			c1.3,0,2.4-0.5,2.9-1.6C256.2,248.3,256.2,247,255.6,246.1z M9.4,244.2c2.4-4.4,5.5-10.2,8.8-16.8c6.4-12.1,15.7-29.8,18.6-34.9
			h0.4l180.7-0.5l28.7,52.3H9.4z M89,90.7c3.1,26.7,24.7,38.8,39.3,38.8s36.2-12.1,39.3-38.8c4.4-2.4,10.2-7.9,9.9-17.9
			c0-2-0.2-7.9-4.8-9.5c-4.4-1.6-8.8,2.7-9.7,3.5c-1.3,1.3-1.3,3.5,0.2,4.8c1.5,1.3,3.5,1.3,4.9-0.2c0.5-0.5,1.3-1.3,2-1.5
			c0.2,0.5,0.4,1.5,0.4,3.1c0.2,9-7.9,12.8-8.8,13.2c-0.2,2.2-1.5,6.6-1.5,6.6c-1.3,7.5-4.2,13.2-7.9,17.6l-7.3,7
			c-5.8,3.8-12.6,5.3-16.8,5.3c-4.2,0-12.2-2.2-15.9-4.6l-8.2-7.9c-1.6-1.6-6.6-10.2-7.9-17.7c0,0-1.1-6.6-1.1-7
			c-1.1-0.4-9.5-3.7-9.3-12.6c0-1.6,0.2-2.6,0.4-3.1c0.5,0.4,1.5,0.9,2,1.5c1.3,1.3,3.5,1.5,4.9,0.2c1.5-1.3,1.5-3.5,0.2-4.8
			c-0.9-0.9-5.3-5.1-9.7-3.5c-4.4,1.6-4.6,7.5-4.8,9.5C78.8,82.9,84.6,88.5,89,90.7z M83.9,53.6c0.4,0.2,0.7,0.4,1.1,0.4v2.7
			c0,1.8,1.5,3.5,3.5,3.5s3.5-1.5,3.5-3.5v-4.8c9.7-3.7,23-6.8,36.4-6.8c13.2,0,26.7,3.3,36.4,6.8v4.8c0,1.8,1.5,3.5,3.5,3.5
			c1.8,0,3.5-1.5,3.5-3.5v-2.7c0.4,0,0.7-0.2,1.1-0.4c0.9-0.5,1.6-1.6,1.6-2.9V16.4c0-1.3-0.7-2.6-2-3.1C162.1,8.8,145.1,4,128.5,4
			s-33.6,4.8-43.8,9.3c-1.3,0.5-2,1.8-2,3.1v34.2C82.4,51.8,83,52.9,83.9,53.6z M89.4,18.6L89.4,18.6c9.7-4,24.5-7.9,39.1-7.9
			c14.4,0,29.2,3.8,39.1,7.9v27.1c-10.4-3.8-24.8-7.3-39.1-7.3c-14.3,0-28.7,3.5-39.1,7.3V18.6z"/>
	</g>
</g>
<g>
	<g>
		<path class="st1" d="M157.8,204.4c-11.7-3.1-25.8-4.2-34.5-3.8c-9,0.4-11.3,1.3-11.9,1.5c-0.7,0.4-1.1,1.1-0.7,1.8
			c0.2,0.5,5.1,12.6,24.5,17.7l40.2,10.8c0.5,0.2,1.3,0,1.6-0.5l3.8-4.6l37.8,10.1c2,0.5,4,0.2,5.8-0.7s3.1-2.6,3.7-4.6l0.2-0.9
			c0.5-2,0.4-4-0.7-5.9c-1.1-1.8-2.7-3.1-4.8-3.5L157.8,204.4z M175.1,229.3l-39.3-10.4c-13.9-3.7-19.7-11.2-21.7-14.5
			c0.5-0.2,1.5-0.2,2.6-0.4c0,0.2,1.1-1.6,1.1-1.6c0.2,0.4,3.8,7.9,20.8,12.4l38.9,10.4L175.1,229.3z M179.9,222.7l-40.2-10.8
			c-12.8-3.5-17.4-8.6-18.5-10.2c0.9,0,0.9,1.8,2,1.8c8.6-0.4,22.3,0.7,33.6,3.7l25,6.6L179.9,222.7z M224.8,226.7
			c0.5,1.1,0.7,2.4,0.4,3.5l-0.2,0.9c-0.4,1.1-1.1,2.2-2.2,2.7c-1.1,0.5-2.4,0.7-3.5,0.4l-37.3-9.9l2.7-9.9l37.3,9.9
			C223.4,224.9,224.3,225.8,224.8,226.7z"/>
	</g>
</g>
<g>
	<g>
		<path class="st2" d="M118.7,232.1l-44.4-26c-0.2-0.2-0.4-0.2-0.5-0.2c-0.4,0-6.8-1.5-11.1,7.1c-4.4-2.6-10-6.6-13.5-12.4
			c-0.5-1.1-1.8-1.3-2.9-0.7l0,0c-1.1,0.5-1.5,1.8-0.7,2.9c3.8,6.6,10.2,11.2,15,13.9l-23.2-6c-1.1-0.4-2.4,0.4-2.6,1.5
			c-0.4,1.1,0.4,2.4,1.5,2.6l23.2,6c-5.5,0-13.3,0.9-19.9,4.8l0,0c-1.1,0.5-1.5,1.8-0.7,2.9c0.5,1.1,1.8,1.5,2.9,0.7
			c5.8-3.3,13-4,17.9-4.2c-0.2,3.3,0.4,5.9,1.8,8.1c1.6,2.7,4,3.5,4.4,3.7c0.2,0,0.4,0.2,0.7,0.2l51.7-0.7c0.4,0,0.7-0.2,1.1-0.4
			c0.5-0.4,0.9-0.7,1.1-1.3C120,233.5,119.6,232.6,118.7,232.1z M66.3,232.4c-1.1-0.5-4.6-3.1-2-12.4c2.6-9.5,6.9-10.1,8-10.1
			l37.5,22L66.3,232.4z"/>
	</g>
</g>
</svg>
