<?xml version="1.0" encoding="utf-8"?>
<!-- Generator: Adobe Illustrator 16.0.3, SVG Export Plug-In . SVG Version: 6.00 Build 0)  -->
<!DOCTYPE svg PUBLIC "-//W3C//DTD SVG 1.1//EN" "http://www.w3.org/Graphics/SVG/1.1/DTD/svg11.dtd">
<svg version="1.1" id="Capa_1" xmlns="http://www.w3.org/2000/svg" xmlns:xlink="http://www.w3.org/1999/xlink" x="0px" y="0px"
	 width="612px" height="612px" viewBox="0 0 612 612" enable-background="new 0 0 612 612" xml:space="preserve">
<g>
	<path fill="#00AEEF" d="M102.645,545.063c-19.125,0-35.381-15.778-35.381-35.381V317.476c0.478-11.953-0.957-23.429-3.825-34.903
		c-5.737-9.563-13.387-18.169-21.994-25.817l-10.519-9.563c-5.26-3.824-8.606-9.563-9.563-16.257
		c-0.957-6.692,0.478-13.388,4.781-18.646c2.869-3.825,6.693-7.172,11.475-8.606L278.117,72.676
		c9.084-3.825,18.169-5.738,27.731-5.738c9.561,0,18.645,1.913,27.73,5.738l240.975,131.006
		c12.909,4.303,19.604,18.646,14.822,32.034c-1.913,4.781-4.781,9.085-8.606,11.953l-10.519,9.563
		c-8.606,7.172-16.257,15.778-22.473,25.341c-2.868,11.476-3.824,22.95-3.824,34.425v192.686c0,19.125-15.778,34.903-34.903,35.381
		H349.834c-10.041,0-19.604-3.825-26.297-10.519c-5.737-5.261-8.605-12.433-8.605-20.561v-45.422c0-4.781,3.824-8.606,8.605-8.606
		s8.605,3.825,8.605,8.606v44.944c0,2.867,1.436,5.736,3.825,8.128c3.824,3.347,8.605,5.736,13.865,5.736h160.172
		c10.041,0,17.69-8.128,18.169-18.169V317.476c0-13.866,1.912-32.991,4.781-41.119c3.347-8.128,15.778-22.949,26.297-32.513
		l10.52-9.563c2.868-1.911,4.303-5.259,3.824-8.604c-0.479-2.869-2.869-5.26-6.216-6.216L325.928,88.453
		c-6.216-2.392-12.908-3.824-20.08-3.824c-7.173,0-13.867,1.434-20.561,3.824L44.792,219.46c-3.347,1.435-5.737,3.825-6.215,7.172
		c0,2.868,1.434,5.737,3.825,8.128l10.519,9.563c10.519,9.563,22.95,23.429,26.297,32.514c3.347,8.605,4.781,27.253,4.781,41.117
		v192.206c0,10.041,8.128,17.691,18.168,18.169h160.172c5.26,0,10.52-1.912,13.866-5.736c2.392-2.392,3.825-5.261,3.825-8.606
		v-45.898c0-4.781,3.824-8.606,8.605-8.606s8.606,3.825,8.606,8.606v45.422c0,7.648-3.347,15.3-8.606,21.037
		c-7.172,6.692-16.256,10.519-25.818,10.519H102.645V545.063z"/>
	<path fill="#00AEEF" d="M441.156,457.566c-4.305,0-8.129-3.347-8.606-8.128v-25.341c0-6.215-5.26-11.476-11.476-11.476H191.098
		c-6.216,0-11.475,5.261-11.475,11.476v24.863c-0.478,4.303-3.825,7.648-7.65,8.128c-0.479,0-0.479,0-0.957,0
		c-4.303,0-8.128-3.348-8.606-8.128v-25.342c0-15.777,12.909-28.688,28.688-28.688h23.428v-57.375
		c0-15.778,12.911-28.688,28.688-28.688H368.96c15.778,0,28.688,12.909,28.688,28.688v25.341c0,0.479,0,0.956,0,1.434
		c-0.479,4.305-4.304,8.13-8.606,8.13c-0.478,0-0.478,0-0.956,0c-2.391,0-4.303-1.436-5.737-2.869
		c-1.435-1.912-2.391-3.825-1.913-6.216v-24.862c0-6.216-5.259-11.476-11.475-11.476H242.735c-6.215,0-11.476,5.26-11.476,11.476
		v57.375h189.336c15.778,0,28.688,12.909,28.688,28.688v24.862c-0.479,4.304-3.825,7.65-7.65,8.128H441.156z"/>
	<path fill="#00AEEF" d="M258.992,322.257c-1.435,0-2.392-0.957-2.392-2.392v-64.068c0-15.777,12.909-28.688,28.209-28.688h45.899
		c15.778,0,28.688,12.91,28.688,28.688v24.863c0,0.478,0,0.956,0,1.434c-0.479,4.304-4.304,8.129-8.606,8.129
		c-0.478,0-0.478,0-0.956,0c-2.391,0-4.303-1.435-5.737-2.869c-1.435-1.912-2.391-3.825-1.913-6.216v-24.862
		c0-6.216-5.259-11.475-11.475-11.475h-45.898c-6.217,0-11.476,5.259-11.476,11.475v63.112v0.479c0,1.435-0.956,2.392-2.392,2.392
		L258.992,322.257L258.992,322.257z"/>
</g>
</svg>
