<?xml version="1.0" encoding="utf-8"?>
<!-- Generator: Adobe Illustrator 16.0.3, SVG Export Plug-In . SVG Version: 6.00 Build 0)  -->
<!DOCTYPE svg PUBLIC "-//W3C//DTD SVG 1.1//EN" "http://www.w3.org/Graphics/SVG/1.1/DTD/svg11.dtd">
<svg version="1.1" id="Layer_1" xmlns="http://www.w3.org/2000/svg" xmlns:xlink="http://www.w3.org/1999/xlink" x="0px" y="0px"
	 width="612px" height="612px" viewBox="0 0 612 612" enable-background="new 0 0 612 612" xml:space="preserve">
<g>
	<g id="Layer_1_1_">
		<g>
			<path fill="#00AEEF" d="M154.433,600.764c-23.428,0-43.031-18.168-44.943-41.596L75.543,118.814c0,0,0-0.478-0.478-0.478h-0.478
				c-10.519-3.825-18.169-13.866-18.169-25.341c0-10.997,7.172-21.038,17.213-25.342h0.478l0,0L87.496,38.01
				c7.172-16.734,23.428-27.253,41.119-27.253h352.856c17.689,0,33.945,10.519,41.597,27.253l12.909,29.165l0.479,0.479
				c0,0,0.477,0,0.477,0.479c10.998,3.347,18.648,13.865,18.648,25.34c0,11.953-8.129,21.994-19.125,25.341h-0.479
				c0,0-0.479,0.479-0.479,0.956l-33.947,439.875c-1.912,23.43-21.516,41.598-44.942,41.598L154.433,600.764z M92.277,119.77
				l-0.478,0.479l33.469,437.962c0.957,14.821,13.866,26.774,28.688,26.774h302.175c15.301,0,27.732-11.953,28.688-26.774
				l33.946-437.962l0,0c0,0,0,0-0.479-0.479H92.277z M83.193,82.477c-5.738,0-10.519,4.781-10.519,10.52
				c0,5.737,4.781,10.519,10.519,10.519h445.613c5.736,0,10.519-4.781,10.519-10.519c0-5.738-4.781-10.52-10.519-10.52h-38.25
				c-4.303,0-8.129-3.825-8.129-8.129c0-4.303,3.349-8.128,8.129-8.128h26.775l-9.086-21.993
				c-4.781-10.52-15.299-17.69-26.297-17.69H129.093c-11.953,0-21.994,6.693-26.297,17.69l-9.084,21.517l303.61,0.478
				c4.303,0,8.127,3.825,8.127,8.128c0,4.304-3.347,8.129-8.127,8.129L83.193,82.477L83.193,82.477z"/>
			<path fill="#00AEEF" d="M435.093,82.477c-4.303,0-8.129-3.825-8.129-8.129c0-4.781,3.348-8.128,8.129-8.128h18.646
				c4.303,0,8.129,3.825,8.129,8.128c0,4.781-3.348,8.129-8.129,8.129H435.093z"/>
		</g>
	</g>
	<g id="Layer_2">
		<path fill="#00AEEF" d="M374.849,300.98c-0.955,0-1.434,0-2.391-0.479l-55.463-16.734c-1.912-0.478-3.346-1.912-4.303-3.347
			c-0.955-1.912-0.955-3.825-0.479-5.737c0.479-1.913,1.914-3.347,3.349-4.304l9.084-5.259c0.479-0.479,0.479-0.956,0.479-1.436
			c-4.781-9.084-9.563-17.689-14.344-26.297c-1.912-3.825-3.824-5.26-4.782-5.26l0,0c-1.912,0-5.737,3.348-7.171,5.738
			l-28.209,46.854c-1.436,2.391-3.825,3.348-6.217,3.348c-1.434,0-2.868-0.479-3.824-0.957l-34.426-21.516
			c-3.346-1.912-4.303-6.215-2.391-9.563l26.775-44.943c0.956-1.435,21.037-33.947,54.506-33.947
			c33.468,0,53.55,31.078,54.507,32.514l16.734,26.774c0,0.479,0.477,0.479,0.955,0.479h0.479l10.041-5.26
			c0.955-0.479,2.392-0.956,3.347-0.956c2.868,0,5.26,1.435,6.694,3.824c0.955,1.913,0.955,3.349,0.478,5.26l-15.777,54.986
			C381.065,298.59,378.196,300.98,374.849,300.98z M307.433,218.264c4.781,0,11.478,2.391,16.734,12.909
			c6.217,11.476,12.432,23.429,17.691,33.469v0.479c1.912,3.347,0.957,7.172-2.392,9.563c-0.479,0-0.479,0.479-0.479,0.956
			c0,0.479,0.479,0.479,0.479,0.956l29.166,8.606c0,0,0,0,0.479,0h0.477l0.479-0.479l8.129-28.688c0-0.479,0-0.956-0.479-0.956
			h-0.479h-0.479c-0.955,0.479-1.912,0.956-3.346,0.956c-2.391,0-4.781-1.435-6.217-3.348l-20.56-33.469
			c-0.479-0.956-17.213-25.818-41.597-25.818c-24.862,0-41.597,25.818-42.075,27.253l-22.472,38.25
			c-0.478,0.479,0,0.956,0.479,1.436l20.559,12.909h0.478l0,0c0.478,0,0.478,0,0.478-0.479l24.386-40.162
			C299.306,216.352,307.433,218.264,307.433,218.264z"/>
		<path fill="#00AEEF" d="M225.674,451.112c-0.478,0-0.956,0-1.434-0.479c-9.084-0.479-39.685-3.824-55.941-27.73
			c-17.212-24.385-5.737-54.508-1.913-63.592l14.822-31.078c0-0.479,0-0.955-0.479-1.434l-11.475-6.218
			c-1.913-0.954-2.869-2.391-3.347-4.303c-0.478-1.912,0-3.824,0.957-5.738c0.956-1.434,2.391-2.866,4.303-3.346l57.854-15.777
			c0.479,0,1.435-0.479,1.912-0.479c3.348,0,6.217,1.913,7.172,5.26l15.778,57.375c0.956,3.824-1.435,8.127-5.259,9.084
			c-0.479,0-1.436,0.479-1.913,0.479c-1.435,0-2.392-0.479-3.347-0.957l-12.91-6.693h-0.479c0,0,0,0-0.478,0
			s-0.478,0.479-0.478,0.479c-3.348,6.215-8.129,16.256-12.911,28.688c-2.391,5.258-1.434,7.648-0.956,8.127
			c0.956,1.437,4.781,2.392,7.172,2.392l55.462-1.435c1.913,0,3.825,0.955,5.259,1.912c1.435,1.434,1.913,3.348,2.392,5.26
			l0.478,43.031c0,1.912-0.478,3.824-1.912,5.26c-0.957,1.435-2.868,2.392-4.78,2.867c-0.479,0-0.479,0-0.957,0L225.674,451.112z
			 M225.196,307.674l-31.078,9.084c-0.478,0-0.478,0.479-0.478,0.957c0,0.477,0,0.955,0.478,0.955l0.956,0.479
			c3.347,1.912,4.781,6.215,2.869,9.563l-18.169,37.293c-0.478,0.957-13.388,28.688,0.478,48.77
			c14.344,20.559,45.899,21.037,45.899,21.037l43.988,0.479c0.479,0,0.479,0,0.479-0.479l0.479-0.479l-0.479-26.297
			c0-0.477,0-0.477-0.479-0.477l-0.478-0.479l-46.856,1.435c-4.303,0-14.344-0.955-19.603-8.605
			c-3.825-5.737-3.825-13.389-0.478-21.994c7.172-17.213,13.865-30.6,17.211-36.815v-0.478c1.435-2.391,3.826-3.825,6.215-3.825
			c0.957,0,2.392,0.479,3.348,0.957l3.348,1.911h0.478h0.479c0.478,0,0.478-0.479,0.478-0.957l-8.605-31.077
			c0-0.478,0-0.478-0.479-0.478C225.674,307.674,225.674,307.674,225.196,307.674L225.196,307.674z"/>
		<path fill="#00AEEF" d="M350.942,474.538c-1.912,0-3.824-0.957-5.261-2.391l-42.552-44.943c-2.869-2.868-2.869-7.172,0-10.041
			l43.031-42.553c1.436-1.436,3.348-1.912,5.26-1.912s3.824,0.955,5.26,2.392c1.435,1.434,2.392,3.346,1.912,5.258l-0.479,14.344
			c0,0.479,0,0.479,0.479,0.479c0.479,0,0.479,0.479,0.479,0.479l0,0c4.78,0,17.213,0,32.512-0.957c3.826,0,6.217-0.955,6.693-1.912
			c0.957-1.912-0.478-6.692-1.912-9.084l-29.644-46.379c-2.391-3.346-0.957-8.127,2.392-10.039c0,0,26.297-16.733,34.424-21.516
			c0.957-0.957,2.391-0.957,3.826-0.957c2.391,0,4.78,1.435,6.215,3.348l28.688,43.986c2.392,3.348,21.037,35.381,6.216,64.547
			c-13.865,27.732-46.855,32.99-53.55,33.947l-35.858,0.957c-0.479,0-0.957,0.477-0.957,0.955v15.301
			C358.114,471.192,354.769,474.538,350.942,474.538L350.942,474.538z M342.337,398.995
			C341.858,398.995,341.858,398.995,342.337,398.995l-22.951,22.949c-0.477,0.479-0.477,0.957,0,1.435l22.951,23.905l0.479,0.479
			h0.477c0.479,0,0.479-0.479,0.479-0.955v-2.869c0-3.826,3.348-7.172,7.172-7.172l43.03-0.957c1.437,0,30.601-3.824,41.599-25.818
			c11.475-22.473-5.26-49.725-5.738-49.725l-24.385-37.295c0-0.478-0.478-0.478-0.955-0.478h-0.479l-20.559,12.908l-0.479,0.479
			c0,0.479,0,0.479,0,0.957l25.34,39.684c1.912,3.348,7.172,14.344,2.391,23.428c-2.391,4.304-7.172,9.084-19.125,9.563
			c-21.037,0.957-37.771,0.957-41.119,0.957c-4.303,0-7.647-3.349-7.647-7.172v-2.392
			C343.292,399.473,342.815,398.995,342.337,398.995L342.337,398.995z"/>
	</g>
</g>
</svg>
